,project_id,repository_id,project_name,has_license,license_set_by_admin,license_normalized,license
0,429671,1957,orgmanager/orgmanager,LICENSE.md,False,False,MPL-2.0
1,152902,2476,paultag/python-charlie,LICENSE,False,True,GPL-3.0
2,1024242,7038,Daniel15/prometheus-net.SystemMetrics,LICENSE,False,False,MIT
3,513379,7082,danielbachhuber/dictator,,False,False,
4,839598,7494,devlead/Devlead.Console.Template,LICENSE,False,False,MIT
5,1152361,10413,es-shims/obsolete-string-at,LICENSE,False,False,MIT
6,37547,10909,dcarley/puppet-erlang,,False,True,
7,433749,11860,pamil/prophecy-common,,False,False,
8,3246215,13309,talsafran/freshmaker,,False,False,
9,1670162,14024,zkat/mona,,False,True,
10,3242604,18049,alexanderadam/fitnesspark_api,,False,False,MIT
11,1700459,18432,cistov/oy,,False,False,MIT
12,185500,18447,coen-hyde/Shanty-Mongo,,False,False,Other
13,876057,20589,blachniet/SurfStat,,False,False,MIT
14,750804,24202,neocotic/Backbone.Do,,False,False,MIT
15,441195,25016,ihabunek/phormium,,False,False,Other
16,1587915,28137,mayank/lgr,,False,False,MIT
17,1339429,28951,nolanlawson/async-rect,,False,False,Apache-2.0
18,1339503,29953,stanleyxu2005/electron-utils,,False,False,Apache-2.0
19,1320382,31945,bugsnag/gulp-bugsnag,,False,False,MIT
20,1663614,32128,ipld/js-ipld-graph-builder,,False,False,
21,2466457,32981,github/webpack-config-github,,False,False,MIT
22,1262880,33253,alphagov/govuk-country-and-territory-autocomplete,,False,False,MIT
23,1890437,35395,kimmobrunfeldt/concurrently,,False,False,MIT
24,579484,35692,LukasReschke/ID3Parser,,False,True,GPL-3.0
25,373087,36058,mzdr/micro,LICENSE,False,False,MIT
26,1659277,36660,steelbrain/mariasql-promise,,False,False,MIT
27,420218,37011,digiaonline/lumen-oauth2,LICENSE,False,False,MIT
28,1372491,37570,redhat-developer/rsp-client,,False,True,MIT
29,1050954,38094,TycheOrg/Tyche,,False,False,MIT
30,2163275,43065,ashwamegh/vue-link-preview,,False,False,MIT
31,39234,43899,tarsius/orglink,,False,False,
32,43041,44269,purcell/emacs-shfmt,,False,False,
33,966214,47497,dotcypress/Tumbaga,,False,False,
34,89878,47929,petems/petems-hddtemp,,False,False,Apache-2.0
35,1895800,49659,koddsson/coworking-with,,False,False,
36,2320921,49971,Trott/isTypedArray,LICENSE,False,False,MIT
37,571532,1000085,kuzmany/mautic-act-on-bundle,,False,False,
38,269885,1000088,galvani/plugin-messagebird,,False,False,
39,1497614,1000211,mikegillis677/actions-on-lambda,LICENSE,False,False,MIT
40,435226,1000220,PatchRanger/cartesian-iterator,LICENSE,False,True,GPL-3.0
41,3120292,1000317,TonyBogdanov/tb-form,,False,False,
42,49759,1000413,ahkui/Assembly,,False,False,
43,3102420,1000506,kermorgant/smf-dummy-package,,False,False,
44,111123,1000536,arkadiusjonczek/seo,,False,False,
45,264366,1000559,freearhey/sparql,LICENSE,False,True,GPL-2.0
46,234344,1000602,ed-fruty/php-environment,LICENSE,False,False,MIT
47,155092,1000615,bookin/yii2-sidecar-gitter,,False,False,
48,536837,1000721,exfriend/skypium,LICENSE,False,False,MIT
49,495970,1001065,Shchepotin/laravel-api,LICENSE,False,False,MIT
50,632083,1001076,wvdongen/cakephp-sparkpost,,False,False,
51,3104944,1001113,ssx/geo-uk-postcode,LICENSE,False,False,Other
52,616292,1001232,vjrngn/file-explorer,,False,False,
53,3120677,1001325,nunomazer/gitlab-client,,False,False,
54,164968,1001401,ByZer0/laravel-query-log,LICENSE,False,False,MIT
55,608149,1001444,twmbx/silhouette,LICENSE.md,False,False,MIT
56,211190,1001503,DearMadMan/laravel-image-tool,LICENSE,False,False,MIT
57,304698,1001640,JapSeyz/dot-migrations,LICENSE.md,False,False,MIT
58,526020,1001661,shinde-rahul/qr_code_attendance,,False,True,
59,1404517,1001840,cocoastorm/vue-bootstrap-3,,False,False,
60,794546,1001928,mikepsinn/qm-redirector,LICENSE,False,False,MIT
61,602188,1002131,TitasGailius/php-bits,,False,False,
62,366649,1002261,igor875126/smithclientcurl,,False,True,
63,2271932,1002291,ruanitto/adonis-oauth2-provider,,False,False,
64,522942,1002310,dgtal/booking-api,LICENSE,False,False,MIT
65,310468,1002424,jimblue/statamic-addon-mapbox,,False,True,
66,601306,1002576,tigron/skeleton-package-openapi,LICENSE,False,False,MIT
67,453297,1002701,primasio/primas-api-sdk-php,LICENSE,False,False,Apache-2.0
68,440804,1002810,philwinkle/Philwinkle_Fixerio,LICENSE.md,False,False,MIT
69,1360307,1003750,biigpongsatorn/begeta-prototype,,False,False,
70,3124777,1003990,voronkovich/symfony-console-app,,False,False,
71,357334,1004034,hollodk/cms,,False,False,
72,123973,1004041,avinsol/test-bundle,LICENSE,False,False,MIT
73,632919,1004060,afjlambert/workon,,False,False,
74,375577,1004107,nbj/heartbeating-job-runner,,False,False,
75,646890,1004114,mashware/ZenMail,LICENSE,False,False,MIT
76,252271,1004197,Fbeen/SettingsBundle,,False,False,
77,269877,1004252,galmi/xacml,,False,False,
78,651238,1004369,pepperreport/apdex,LICENSE,False,False,MIT
79,254246,1004463,fertandil87/pChart,,False,True,
80,3105998,1005076,stefthoen/tico,,False,False,
81,614305,1005298,vikkio88/slime-framework,,False,False,
82,461548,1005861,horejsek/python-pytest-data,LICENSE,False,True,MIT
83,3124662,1005974,vongola12324/laravel-auth-management,LICENSE,False,False,MIT
84,545643,1006143,Crinsane/LaravelGettext,,False,False,
85,144723,1006191,beyondcode/nova-laravel-update-card,LICENSE.md,False,False,MIT
86,454409,1006248,professorhaseeb/smartOutput,LICENSE,False,False,MIT
87,36763,1006748,adamdburton/nanoftpd,LICENSE,False,False,GPL-2.0
88,475666,1006772,rorichster/WhatsNew,,False,False,
89,3091292,1007010,ahmadrio/ptdot-button-back,,False,False,
90,697438,1007517,mpmdean/pymcaspec,,False,False,
91,363134,1007990,mitchwilliamson/oauth2-youtube,LICENSE,False,False,MIT
92,2387274,1008175,sample-text-here/is-is-useless,,False,False,
93,3362532,1008779,monban/ucg,LICENSE,False,False,AGPL-3.0
94,3106201,1009020,dev-and-web/daw-php-pagination,LICENSE.txt,False,False,MIT
95,481012,1009040,rumeau/belongsto-depend,,False,False,
96,3119473,1009051,thujohn/packagist-l4,LICENSE,False,False,MIT
97,502406,1009173,cmizzi/laravel-command-alias,LICENSE,False,False,MIT
98,324660,1009283,mikemand/pagination,LICENSE.md,False,False,MIT
99,415460,1009324,ngmy/phpinfocmp,LICENSE,False,False,MIT
100,603779,1009332,TiDJ/laravel-custom-html,LICENSE.md,False,False,MIT
101,25790,1009492,absalomedia/kilns,LICENSE,False,False,MIT
102,651217,1009543,amirulahmad/laravel-imageupload-intervention,LICENSE.md,False,False,MIT
103,569006,1009550,austinkregel/formmodel,LICENSE.md,False,False,MIT
104,602492,1009748,tedslittlerobot/l4-support,,False,False,
105,222187,1009756,djamesfar/bake,LICENSE.txt,False,False,Other
106,445713,1009785,phuclh/nova-vnd-field,,False,False,
107,181950,1009789,chx2/EasyDocs,LICENSE,False,False,MIT
108,166137,1009811,bobbybouwmann/entry,LICENSE,False,False,MIT
109,629030,1009855,wolfrednicolas/wolfred-twilio,,False,False,
110,181476,1009900,chrispecoraro/wikipedia-tools,LICENSE,False,False,MIT
111,520474,1009911,IsraelOrtuno/page,,False,False,
112,78236,1009914,gabrielkoerich/service-manager,LICENSE.md,False,False,MIT
113,566409,1009919,jpcaparas/box-laravel,,False,False,
114,370525,1010029,mrsimonbennett/commander,,False,False,
115,228321,1010040,dowilcox/BladeView,,False,False,
116,753380,1010051,sagarrabadiya/bootstrap_handy_validations,,False,False,
117,1053394,1010074,danrovito/StrRandom,LICENSE,False,False,MIT
118,563937,1010120,jonasof/array-circle-fetch,,False,False,
119,804825,1010209,studio-net/toast-notifications,LICENSE,False,False,MIT
120,604740,1010261,ToxaGeek/laravel-wg-api,LICENSE,False,False,MIT
121,3082188,1010355,jacob-hyde/Printify-PHP-SDK,LICENSE,False,False,MIT
122,569024,1010399,metabitco/transform,,False,False,
123,365245,1010435,Modelizer/multi-tenant,,False,False,
124,431343,1010443,oakwood/wp-theme,,False,False,
125,292260,1010466,InteractionDesignFoundation/laravel-real-email-validation,LICENSE.md,False,False,MIT
126,515661,1011009,Darovi/Commander,LICENSE,False,False,MIT
127,597737,1011321,1f991/patreon-php,LICENSE,False,False,MIT
128,1236564,1012709,chemerisuk/cordova-plugin-firebase-config,LICENSE,False,False,MIT
129,775158,1012885,daviddt/jquery-plugin,,False,False,
130,1219738,1013762,meisterplayer/media-dash,LICENSE,False,False,Other
131,1996936,1013830,smashingpat/bundel,,False,False,
132,3460762,1014444,sora0077/PredicateKit,LICENSE,False,True,MIT
133,675425,1014937,jakeheis/Git,,False,False,
134,3460790,1015259,isaac-weisberg/HalfFive,,False,False,
135,3460805,1015516,mitsuse/screen-container,,False,False,
136,981371,1015710,gibachan/XmlDict,LICENSE,False,False,MIT
137,3460801,1015837,brentleyjones/xcconfigs,LICENSE,False,True,CC0-1.0
138,1667423,1015978,ferranpujolcamins/mixxx-controller-script-sequencer,LICENSE,False,False,GPL-3.0
139,58207,1016523,AIbnuHIbban/Laravel-with-Livewire-Setup,,False,False,
140,2080200,1016641,hellobloom/share-kit-react,LICENSE,False,False,Other
141,310450,1016763,jildertmiedema/windows-phone-push,LICENSE,False,False,MIT
142,965361,1017160,StardewConfigMenu/StardewConfigFramework,LICENSE,False,False,MIT
143,2284860,1017415,deshiknaves/cypress-msw-interceptor,LICENSE,False,False,MIT
144,1299530,1017470,GaborWnuk/react-native-imagepreview,,False,False,
145,1818318,1017716,jcfrancisco/carlo-js,,False,True,
146,1141525,1018011,Commander-lol/Sideburns,,False,False,
147,1323913,1018118,lechinoix/react-snake,,False,False,
148,3086121,1018472,yondifon/laravel-graphiql,,False,False,
149,2374112,1019087,Nexapp/react-native-scrollable-with-collapsible-header,LICENSE,False,True,Apache-2.0
150,2241560,1019163,echobind/launchbox,LICENSE,False,False,MIT
151,3079666,1019711,glendemon/phpexcel-wrapper,LICENSE,False,False,MIT
152,1589929,1019958,mondora/gemfury-publish,LICENSE,False,False,MIT
153,3081392,1021021,masif088/libtol,,False,False,
154,1501253,1021728,RajnishDashora/All-Doer,,False,False,
155,3109728,1021756,suqld/otrs,,False,False,
156,2162072,1022049,MatiseAms/create-matise-nuxt,LICENSE,False,False,MIT
157,3035577,1022546,Nasajon/gclick_sdk,,False,False,
158,3035594,1022562,ricardovezetiv/pythonpro-libpythonpro,LICENSE,False,True,AGPL-3.0
159,3035599,1022568,FireHead90544/stack.py,LICENSE,False,True,Apache-2.0
160,3035580,1022575,valknight/loadstar,LICENSE,False,True,MIT
161,3035585,1022577,EwetoyeIbrahim/flask-odoo-graphql,LICENSE,False,False,MIT
162,3035597,1022586,aboucaud/galcheat,LICENSE,False,False,MIT
163,3035601,1022587,walnutgeek/azfiles,,False,True,
164,254228,1025090,ferrl/framework,LICENSE.md,False,False,MIT
165,1386316,1026631,krutoo/packmar.js,LICENSE,False,False,MIT
166,435205,1026638,sima-land/yii2-logstock,LICENSE,False,False,MIT
167,2045167,1026695,ark120202/dota-data,LICENSE,False,False,Apache-2.0
168,3162104,1026779,dianas11xx/MoodipyTest,LICENSE,False,True,GPL-3.0
169,1781256,1026845,uktrade/trade-elements,LICENSE,False,False,MIT
170,655319,1027199,caiyunapp/caiyun-weather-api-python-sdk,,False,False,
171,2052273,1027464,egemenhalici1/react-input-with-popup,,False,False,
172,3118425,1028238,therealgambo/ramlfications-php,,False,False,
173,448201,1028576,pjkui/kindeditor,license.txt,False,False,LGPL-2.1
0,309021,66,katzj/test-python-package,LICENSE.txt,False,False,MIT
1,3231943,69,tidelift/dotyaml,LICENSE.txt,False,False,MIT
2,3343932,207,tiegz/kadoku,MIT-LICENSE,False,False,MIT
3,641761,256,Kami/python-yubico-client,LICENSE,False,True,BSD-3-Clause
4,3432097,349,OpenSourceOrg/rust-opensource,LICENSE,False,False,BSD-3-Clause
5,2402317,362,todogroup/repolinter,LICENSE,False,False,Apache-2.0
6,1908628,484,ipfs-inactive/npm-go-ipfs-dep,LICENSE,False,False,MIT
7,1954274,563,ipfs-shipyard/ipfs-deploy,LICENSE.md,False,False,Other
8,3313031,798,malditogeek/redisrecord,LICENSE,False,False,MIT
9,3347016,816,maclover7/trix,LICENSE.txt,False,False,MIT
10,769181,929,samjacobclift/help-wanted-gh-issues,,False,True,
11,3247246,939,barisbalic/gamertag,LICENSE.md,False,True,Other
12,1479613,975,bengourley/slugg,,False,True,
13,2003853,1051,splashinn/nog,LICENSE,False,False,BSD-3-Clause
14,380365,1170,olizilla/asciify,,False,True,
15,3287704,1290,djpowers/musicgraph,LICENSE.txt,False,False,MIT
16,3337597,1386,kdaigle/strapper,LICENSE.txt,False,False,MIT
17,3346842,1693,hendrixfan/triangle,LICENSE.txt,False,False,MIT
18,1616458,1967,anthonyringoet/heap-server,LICENSE.txt,False,False,MIT
19,1132305,1999,martinvd/prepend-file-cli,license,False,False,MIT
20,159236,2009,willingc/circuitpython_kernel,LICENSE,False,True,Other
21,3210202,2178,sclinede/blood_contracts,LICENSE.txt,False,False,MIT
22,1587562,2204,nelsonic/github-scraper,,False,False,
23,868019,3075,JakeWharton/ViewPagerIndicator,,False,False,
24,1172106,3311,jamesgpearce/monomi,LICENSE,False,False,MIT
25,489179,3334,jparise/python-reloader,LICENSE.txt,False,True,MIT
26,1451792,3364,jpeddicord/askalono,LICENSE,False,False,Apache-2.0
27,627363,3412,willnorris/wordpress-license,LICENSE,False,False,Other
28,57195,3438,50Wliu/language-sourcepawn,LICENSE.md,False,False,MIT
29,3517340,3453,88250/city-geo,LICENSE,False,False,Other
30,326054,3879,Akasurde/Mahadiscom,LICENSE,False,True,Apache-2.0
31,642890,3932,AkihiroSuda/z42,LICENSE.txt,False,True,Apache-2.0
32,1653874,3989,akyoto/load-class,,False,False,
33,3264927,4386,amatsuda/jb,LICENSE.txt,False,False,MIT
34,1618702,4517,andrewda/hltv-livescore,LICENSE,False,False,MIT
35,2564938,4580,postalsys/imapflow,LICENSE.txt,False,True,Other
36,112233,4710,andybons/ABVariants,LICENSE,False,False,MIT
37,23025,4853,ararslan/Jackknife.jl,LICENSE,False,False,MIT
38,379380,5339,astorije/chai-immutable,LICENSE,False,False,MIT
39,1659353,5374,axic/mango-admin,LICENSE.txt,False,False,GPL-3.0
40,128909,5454,b3none/steam-id-converter,LICENSE,False,False,MIT
41,1929845,5554,BaseMax/FilterInputJs,LICENSE,False,False,GPL-3.0
42,1167037,5830,bbondy/abp-filter-parser,LICENSE,False,False,MPL-2.0
43,3092905,6056,pborreli/composer-service,LICENSE,False,False,MIT
44,2441753,6217,borderless/unfurl,LICENSE,False,False,Other
45,1851096,6309,boopathi/react-svg-loader,LICENSE,False,False,MIT
46,3283583,6388,bogdanvlviv/minitest-mock_expectations,LICENSE.txt,False,False,MIT
47,3439710,6421,brauner/rlxc,LICENSE.LGPL2.1,False,True,
48,1281727,6450,bsclifton/poker.js,,False,False,
49,85287,6560,casperdcl/git-fame,,False,False,Other
50,1336126,6579,cblecker/hyper-quit,LICENSE,False,False,Apache-2.0
51,1903889,6691,cezaraugusto/mklicense,LICENSE,False,False,MIT
52,1612035,6750,cheshire137/gulp-ruby-haml,LICENSE.txt,False,False,MIT
53,1747008,6831,chicoxyzzy/rx-mobx,LICENSE,False,False,MIT
54,3319696,6855,colby-swandale/rubocop-github-annotations-formatter,LICENSE.txt,False,False,MIT
55,1625639,6916,d3viant0ne/hyperterm-base16-tomorrow-dark,,False,False,
56,3419403,6956,cyphar/initrs,COPYING,False,False,GPL-3.0
57,1655896,7179,dasilvacontin/ludumpad,LICENSE,False,False,MIT
58,336450,7290,datapythonista/mnist,LICENSE,False,True,BSD-3-Clause
59,974817,7291,daveaglick/Scripty,LICENSE,False,False,MIT
60,1718790,7330,denar90/psi-ngrok,LICENSE,False,False,MIT
61,1781991,7558,devversion/travis-after-modes,LICENSE,False,False,MIT
62,378870,7595,Dexus/pem,LICENSE,False,False,Other
63,1246133,7597,Dexus-Forks/cordova-plugin-ironSource,LICENSE,False,False,MIT
64,203665,7634,disposable-email-domains/python-disposable-email-domains,LICENSE.txt,False,False,MIT
65,899840,7673,dlemstra/Magick.NET,License.txt,False,False,Apache-2.0
66,3386538,7771,dynamitechetan/razorpay_flutter,LICENSE,False,False,Other
67,500169,7901,endocrimes/Jay,LICENSE,False,False,MIT
68,1706011,8067,evantahler/nodePhidgets,LICENSE.txt,False,False,Other
69,1152038,8121,FagnerMartinsBrack/str-replace,LICENSE,False,False,MIT
70,183441,8139,feiskyer/python-cri,LICENSE,False,True,Apache-2.0
71,3358937,8147,Fivell/yatran,LICENSE,False,False,MIT
72,2460323,8241,webtorrent/fs-chunk-store,LICENSE,False,False,MIT
73,98340,8285,freak4pc/UIView-Positioning,LICENSE,False,False,MIT
74,1601884,8293,frewsxcv/graphosaurus,LICENSE.md,False,False,MPL-2.0
75,2291193,8392,GantMan/jail-monkey,,False,False,MIT
76,169679,8511,GwendolenLynch/Carbon,LICENSE,False,False,MIT
77,1625391,8539,gyandeeps/hypernpm,LICENSE,False,False,MIT
78,1457596,8652,helfer/graphql-disable-introspection,LICENSE,False,False,MIT
79,703586,8872,icecrime/RateLimiting,LICENSE,False,True,Apache-2.0
80,379925,9210,jayphelps/core-decorators,LICENSE,False,False,MIT
81,261012,9303,jayvdb/flake8-putty,LICENSE,False,False,MIT
82,1308829,9366,jdalton/docdown,LICENSE,False,False,MIT
83,1588668,9694,jdorfman/g20,LICENSE,False,False,MIT
84,36073,9762,jglovier/fizzy,LICENSE.md,False,False,MIT
85,3423059,9811,jimmidyson/rcm,LICENSE-APACHE,False,True,Other
86,3312564,9843,jisaacks/recurse-delete,,False,False,
87,707534,9889,laf/russound,LICENSE.txt,False,False,GPL-3.0
88,973219,9903,Krzysztof-Cieslak/RemoveObj,LICENSE,False,False,MIT
89,2149731,9945,lahmatiy/open-in-editor,LICENSE,False,False,MIT
90,84118,9996,lee-dohm/tabs-to-spaces,LICENSE.md,False,False,MIT
91,3214608,10157,thattommyhall/capistrano-elb,,False,False,
92,472864,10217,rodnaph/morgan,,False,False,
93,1826480,10470,lucasbento/react-native-thumbnail-video,LICENSE,False,False,MIT
94,3430,10505,Lukasa/requests-ftp,LICENSE,False,True,Other
95,1698890,10544,makoscafee/gulp-gae,LICENSE,False,False,MIT
96,1594463,10614,marcosmoura/generator-scaffold,LICENSE,False,False,MIT
97,605977,10630,Mariatta/tic_tac_taco_pizza,LICENSE,False,True,Apache-2.0
98,794134,10683,leggetter/pusher-js-client-auth,,False,False,
99,1936958,10831,matchai/ts-quick,LICENSE,False,False,ISC
100,302053,11037,bd808/python-iptools,LICENSE,False,True,BSD-2-Clause
101,3302551,11591,mmozuras/poper,LICENSE,False,False,MIT
102,315930,11680,nasirhjafri/libyear,,False,True,
103,1503782,11688,ncoden/angular-pseudo-class,LICENSE,False,False,Apache-2.0
104,2124860,11721,ndelangen/corejs-upgrade-webpack-plugin,,False,False,
105,263282,11742,nicolaiarocci/flask-mimerender,,False,False,
106,856440,11786,nmilcoff/EasyTipView,LICENSE.md,False,False,MIT
107,1389962,11799,novemberborn/ksuid,LICENSE.md,False,False,Other
108,215346,11800,olasitarska/django-gulp-rev,LICENSE,False,True,BSD-2-Clause
109,3278992,11892,olivierlacan/mandrillus,LICENSE,False,False,Other
110,127371,11995,ParthS007/background,,False,False,
111,1501384,12015,parkr/all-your-github-are-belong-to-us,,False,False,
112,751012,12138,paulfalgout/backbone-moment,LICENSE,False,False,MIT
113,3242841,12480,pboling/flag_shih_tzu,LICENSE,False,False,MIT
114,1942840,12528,pbugnion/gmaps,LICENSE.txt,False,False,Other
115,496011,12615,schlessera/wp-cli-psysh,,False,False,
116,1801841,12679,shockey/workfrom,LICENSE,False,False,GPL-3.0
117,1374023,12706,simskij/dotty-cli,,False,False,
118,405055,12896,stevemao/github-remove-all-releases,,False,False,
119,1831974,13215,styfle/react-server-example-tsx,LICENSE,False,False,MIT
120,1838052,13270,swissspidy/local-webfont,,False,True,
121,474511,13403,tapaswenipathak/pyQTopic,License.txt,False,True,MIT
122,700310,13497,The-Compiler/pytest-vw,LICENSE,False,False,MIT
123,395132,13526,TheSavior/rewire-global,,False,False,
124,2243949,13750,electron-modules/network-interface,,False,False,
125,1512865,13789,app-bootstrap/autoresponsive_react_native_sample_android_ci,LICENSE,False,False,MIT
126,1432918,13982,yavorsky/bundle-utils,LICENSE,False,False,MIT
127,3225866,14192,despo/cyprus-street-names,MIT-LICENSE.txt,False,False,MIT
128,1223497,14220,muan/emojilib,LICENSE,False,False,MIT
129,2416689,14781,cwaring/vuepress-plugin-ipfs,LICENSE,False,False,MIT
130,413595,14842,daviddias/webrtc-explorer,LICENSE,False,False,MIT
131,756135,14971,decentralion/chartographer,LICENSE,False,False,Other
132,3395905,15040,dignifiedquire/async-tar,LICENSE-APACHE,False,True,Other
133,1849975,15142,hacdias/electron-menubar,LICENSE,False,False,MIT
134,1932115,15199,hugomrdias/prettier-stylelint,LICENSE,False,False,MIT
135,1784665,15398,marcooliveira/node-twitter-pic,,False,False,
136,1782922,15442,nicola/tubemaps,,False,False,
137,1726461,15577,travisperson/react-hexviewer,LICENSE,False,False,MIT
138,2492798,15708,vasco-santos/dns-over-http-resolver,LICENSE,False,False,MIT
139,3401077,15990,Aaron1011/cargo-urlcrate,LICENSE,False,False,MIT
140,1906019,16154,AquiGorka/kanpo,,False,False,
141,608826,16226,AuHau/toggl-cli,LICENSE,False,False,Other
142,388849,16243,balupton/simple-server,LICENSE.md,False,False,Other
143,292043,16274,cboddy/i3-workspace-names-daemon,LICENSE,False,False,MIT
144,1942401,16320,davidar/pandiff,LICENSE,False,False,MIT
145,2060870,16387,dankelleher/insomnia-plugin-aws-iam,,False,False,
146,3066631,16589,Luzifer/git-changerelease,LICENSE,False,False,Apache-2.0
147,498498,16703,marten-seemann/OXID_recaptcha,LICENSE.txt,False,False,GPL-3.0
148,1630176,16754,nginnever/ippm,,False,False,
149,259399,17265,Seenivasanseeni/FirstPIP,LICENSE,False,False,MIT
150,1871503,17342,vasa-develop/redux-cross-fetch,,False,False,
151,411315,17509,vmx/jslens,LICENSE,False,False,Other
152,2084078,17574,zebateira/react-use-system-theme,LICENSE,False,False,MIT
153,1259753,17598,yangwao/skCube-data-collector,LICENSE,False,False,MIT
154,1600998,18000,aheckmann/gm,,False,False,
155,105415,18148,apemsel/AttributedString,,False,False,MIT
156,1172720,18258,atsuya/parallel-mocha,LICENSE,False,False,MIT
157,3220217,18292,braintreeps/cocoapods-archive,LICENSE.txt,False,False,MIT
158,800400,18480,dodo/node-slug,,False,False,MIT
159,1550360,18546,teemow/node-dawanda,,False,False,
160,404861,18618,tim-smart/async-array,,False,False,
161,808992,18728,tmpvar/weld,,False,False,
162,3294920,18957,vesan/omnifocus-trello,,False,False,MIT
163,748388,18969,teropa/angular-virtual-dom,,False,False,MIT
164,3271010,19112,agoddard/knife-ghost,,False,False,MIT
165,3289881,19155,azet/NetApp.rb,,False,False,
166,3350600,19178,c10l/vagrant-butcher,,False,False,MIT
167,3355551,19288,kisoku/whisk,LICENSE,False,False,Apache-2.0
168,3212802,19315,joemiller/bunchr,,False,False,
169,3218742,19384,lozzd/cisco-config-parse,,False,False,
170,63577,19439,KrisBuytaert/puppet-packetbeat,,False,True,
171,712977,19455,mconigliaro/smtptester,LICENSE,False,True,MIT
172,3291227,19468,lusis/Noah,LICENSE,False,False,Apache-2.0
173,3270938,19542,mdxp/knife-backup,,False,True,Apache-2.0
174,1668932,19656,adufilie/MobxPromise,LICENSE,False,False,MIT
175,140539,19753,agoodm/binconvert,,False,False,MIT
176,67094,19834,akrabat/slim3-skeleton,,False,False,BSD-3-Clause
177,771397,19937,aliok/ion-affix,,False,False,MIT
0,3208714,1,librariesio/bibliothecary,LICENSE.txt,False,False,AGPL-3.0
1,414100,92,andrew/node-xbox-controller,LICENSE,False,False,MIT
2,3195534,402,splitrb/split,LICENSE,False,False,MIT
3,2596183,411,ipfs/go-ipfs,LICENSE,False,True,Other
4,2043341,692,apache/echarts,LICENSE,False,False,Apache-2.0
5,3206499,1253,marcandre/backports,LICENSE.txt,False,False,MIT
6,761240,1526,timruffles/mobile-drag-drop,LICENSE,False,False,MIT
7,575805,1708,SocialiteProviders/Manager,LICENSE,False,False,MIT
8,485923,1910,Moya/Moya,License.md,False,False,MIT
9,3226246,1931,danger/danger,LICENSE,False,False,MIT
10,2065335,2128,rtfpessoa/diff2html,LICENSE.md,False,False,MIT
11,2416910,2686,RichardLitt/standard-readme,LICENSE,False,False,MIT
12,3231839,2971,bkeepers/dotenv,LICENSE,False,False,MIT
13,751030,3504,afeld/backbone-nested,LICENSE,False,False,MIT
14,2218639,3618,ahmadawais/create-guten-block,license,False,False,MIT
15,1863628,3816,ai/nanoid,LICENSE,False,False,MIT
16,2634950,3911,containerd/nerdctl,LICENSE,False,False,Apache-2.0
17,67532,4013,alcaeus/mongo-php-adapter,LICENSE,False,False,MIT
18,67614,4030,alcohol/iso4217,LICENSE,False,False,MIT
19,2268840,4137,alexellis/k3sup,LICENSE,False,False,Other
20,542313,4468,amjith/fuzzyfinder,LICENSE,False,True,BSD-3-Clause
21,777257,4565,andris9/jStorage,LICENSE,False,False,Unlicense
22,1144051,4723,appleboy/react-recaptcha,LICENSE,False,True,BSD-3-Clause
23,2094413,4888,arcanis/pnp-webpack-plugin,,False,False,
24,3461029,4980,ashfurrow/Nimble-Snapshots,LICENSE,False,True,MIT
25,3395475,5074,ashleygwilliams/assert_approx_eq,LICENSE-APACHE,False,True,Other
26,1265411,5268,aweary/react-perimeter,LICENSE,False,False,MIT
27,1732153,5512,balloob/react-sidebar,LICENSE,False,False,MIT
28,123213,5862,berkerpeksag/astor,LICENSE,False,False,BSD-3-Clause
29,2297649,5873,bevacqua/dragula,license,False,False,MIT
30,2185514,6140,bnb/bitandbang,LICENSE,False,False,MIT
31,1395217,6202,blakeembrey/change-case,LICENSE,False,False,MIT
32,2684647,6490,caarlos0/env,LICENSE.md,False,False,MIT
33,383953,6612,ahmadnassri/node-har-validator,LICENSE,False,False,MIT
34,1582849,6843,clauderic/react-sortable-hoc,LICENSE,False,False,MIT
35,1152620,6862,cpojer/js-codemod,LICENSE,False,False,MIT
36,747554,6901,crisbeto/angular-svg-round-progressbar,LICENSE,False,False,MIT
37,3213220,7316,deivid-rodriguez/byebug,LICENSE,False,False,BSD-2-Clause
38,660962,7369,DenisCarriere/geocoder,LICENSE,False,True,MIT
39,2580366,7428,denysdovhan/wtfjs,LICENSE,False,True,WTFPL
40,1972562,7429,spaceship-prompt/spaceship-prompt,LICENSE.md,False,False,MIT
41,623599,7628,di/vladiate,LICENSE,False,False,MIT
42,1410579,7675,diegohaz/constate,LICENSE,False,False,MIT
43,292028,7879,enkore/i3pystatus,MIT-LICENSE,False,False,MIT
44,1891901,8152,feross/simple-peer,LICENSE,False,False,MIT
45,2551808,8671,hiroppy/fusuma,,False,False,
46,3414116,8800,Hoverbear/getset,LICENSE,False,False,MIT
47,2149299,8894,iarna/iarna-toml,LICENSE,False,False,ISC
48,1855081,9017,iddan/react-native-canvas,,False,False,
49,3308857,9120,indirect/rails3-generators,,False,False,
50,2091989,9371,jamiebuilds/react-loadable,LICENSE,False,False,MIT
51,2907293,9716,jettify/pytorch-optimizer,LICENSE,False,False,Apache-2.0
52,331226,9957,lchrusciel/ApiTestCase,LICENSE,False,False,MIT
53,3224143,10301,tobias/credit_card_validator,,False,False,
54,357767,10388,ljharb/qs,LICENSE.md,False,False,BSD-3-Clause
55,86165,10449,lk-geimfari/mimesis,LICENSE,False,False,MIT
56,387874,10762,MarshallOfSound/electron-devtools-installer,LICENSE,False,False,MIT
57,3431804,10913,matklad/once_cell,LICENSE-APACHE,False,True,Other
58,690704,11121,mitsuhiko/pipsi,LICENSE,False,True,Other
59,263448,11142,pallets-eco/flask-openid,LICENSE,False,True,Other
60,1721987,11272,mikeal/r2,LICENSE,False,False,Apache-2.0
61,2762448,11642,mvdan/sh,LICENSE,False,False,BSD-3-Clause
62,386296,11937,papandreou/node-cldr,LICENSE,False,False,BSD-3-Clause
63,356077,12151,paulmillr/chokidar,LICENSE,False,False,MIT
64,1230873,12202,PatrickJS/angular-starter,LICENSE,False,False,MIT
65,2255016,12556,sallar/stringz,LICENSE,False,False,MIT
66,3495048,12632,sferik/t,LICENSE.md,False,False,MIT
67,188261,12713,skywinder/GaugeKit,LICENSE,False,False,MIT
68,715733,12751,sivel/speedtest-cli,LICENSE,False,True,Apache-2.0
69,45258,12817,sobolevn/git-secret,LICENSE.md,False,False,MIT
70,1444709,12852,sokra/rawact,LICENSE,False,False,MIT
71,3292923,12874,st0012/object_tracer,LICENSE.txt,False,False,MIT
72,1549769,13018,staltz/xstream,LICENSE,False,False,MIT
73,180037,13250,sunshinejr/SwiftyUserDefaults,LICENSE,False,False,MIT
74,1996848,13315,swapagarwal/geeksay,LICENSE,False,False,MIT
75,45429,13572,tianon/gosu,LICENSE,False,False,Apache-2.0
76,612183,13661,timofurrer/try,LICENSE,False,False,MIT
77,1148742,13737,xudafeng/autoresponsive-react,,False,False,
78,2411689,13847,xtuc/webassemblyjs,LICENSE,False,False,MIT
79,2164579,14115,zpao/qrcode.react,LICENSE,False,False,ISC
80,3281089,14157,arthurnn/memcached,LICENSE,False,True,AFL-3.0
81,2149498,14434,achingbrain/pm2-web,,False,False,
82,1461244,14563,alanshaw/markdown-pdf,,False,False,MIT
83,1130039,15242,jbenet/transformer,,False,False,
84,3450437,15609,Stebalien/tempfile,LICENSE-APACHE,False,True,Other
85,3498064,15762,whyrusleeping/gx,LICENSE,False,False,MIT
86,464420,16399,koalalorenzo/python-digitalocean,LICENSE.txt,False,True,LGPL-3.0
87,2801475,16852,moul/assh,LICENSE,False,False,MIT
88,1680786,17386,victorb/ngProgress,LICENSE,False,False,MIT
89,378978,18159,astro/node-expat,,False,False,MIT
90,2503858,18298,bcoe/c8,LICENSE.txt,False,False,ISC
91,3209473,19043,zapnap/resque_mailer,LICENSE,False,False,MIT
92,3228175,19255,danielsdeleo/deep_merge,LICENSE,False,False,MIT
93,3254935,19588,rodjek/puppet-lint,LICENSE,False,False,MIT
94,285143,1411324,burnash/gspread,LICENSE.txt,False,False,MIT
95,1167136,1411336,mathjax/MathJax,LICENSE,False,False,Apache-2.0
96,79769,1411399,huggingface/datasets,LICENSE,False,False,Apache-2.0
97,225276,1495934,doctrine/orm,LICENSE,False,False,MIT
98,148297,1505205,FortAwesome/Font-Awesome,LICENSE.txt,False,True,Other
99,271943,1506653,doctrine-extensions/DoctrineExtensions,,False,False,MIT
100,278591,1508819,guzzle/guzzle,,False,False,MIT
101,2048407,1513437,select2/select2,,False,False,MIT
102,329180,1518244,laravel/framework,,False,False,MIT
103,366744,1524252,Seldaek/monolog,,False,False,MIT
104,369311,1524518,mpdf/mpdf,LICENSE.txt,False,False,GPL-2.0
105,782415,1528393,onokumus/metismenu,LICENSE,False,False,MIT
106,650530,1528859,orchestral/testbench,LICENSE,False,False,MIT
107,445348,1531859,phpstan/phpstan,,False,False,MIT
108,445466,1532225,sebastianbergmann/phpunit,,False,False,Other
109,472432,1539666,cakephp/phinx,LICENSE,False,False,MIT
110,560436,1544414,slimphp/Slim,LICENSE.md,False,False,MIT
111,3494505,1572425,wp-cli/wp-cli,,False,False,MIT
112,3448588,1601072,TeXitoi/structopt,LICENSE-APACHE,False,True,Other
113,2613797,1639746,andybalholm/brotli,LICENSE,False,False,MIT
