project_name,documentation,has_contributing_guidelines,has_readme,project_id,repository_id,score,rank,community_health_score,score_last_calculated
orgmanager/orgmanager,,.github/CONTRIBUTING.md,readme.md,429671,1957,43,3,50,50
paultag/python-charlie,,,README.md,152902,2476,41,7,20,20
Daniel15/prometheus-net.SystemMetrics,,,README.md,1024242,7038,54,6,20,20
danielbachhuber/dictator,,CONTRIBUTING.md,README.md,513379,7082,53,7,50,50
devlead/Devlead.Console.Template,https://www.devlead.se/posts/2021/2021-01-15-my-preferred-console-stack,,README.md,839598,7494,56,6,70,70
es-shims/obsolete-string-at,,,README.md,1152361,10413,49,6,20,20
dcarley/puppet-erlang,,,README.md,37547,10909,42,7,20,20
pamil/prophecy-common,,,README.md,433749,11860,47,6,20,20
talsafran/freshmaker,,,README.markdown,3246215,13309,38,6,20,20
zkat/mona,,,README.md,1670162,14024,54,6,20,20
alexanderadam/fitnesspark_api,https://www.fitnesspark.ch/,,,3242604,18049,44,6,50,50
cistov/oy,,,,1700459,18432,34,7,0,0
coen-hyde/Shanty-Mongo,,,,185500,18447,0,6,0,0
blachniet/SurfStat,,,,876057,20589,53,4,0,0
neocotic/Backbone.Do,,,,750804,24202,20,5,0,0
ihabunek/phormium,,,,441195,25016,51,4,0,0
mayank/lgr,,,,1587915,28137,47,3,0,0
nolanlawson/async-rect,,,,1339429,28951,0,5,0,0
stanleyxu2005/electron-utils,,,,1339503,29953,0,4,0,0
bugsnag/gulp-bugsnag,,,,1320382,31945,48,4,0,0
ipld/js-ipld-graph-builder,,,,1663614,32128,35,5,0,0
github/webpack-config-github,,,,2466457,32981,0,4,0,0
alphagov/govuk-country-and-territory-autocomplete,https://alphagov.github.io/govuk-country-and-territory-autocomplete/examples/,,,1262880,33253,0,5,50,50
kimmobrunfeldt/concurrently,,,,1890437,35395,0,3,0,0
LukasReschke/ID3Parser,,,,579484,35692,48,3,0,0
mzdr/micro,,,README.md,373087,36058,51,5,20,20
steelbrain/mariasql-promise,,,,1659277,36660,48,5,0,0
digiaonline/lumen-oauth2,https://packagist.org/packages/nordsoftware/lumen-oauth2,.github/CONTRIBUTING.md,README.md,420218,37011,63,5,100,100
redhat-developer/rsp-client,,,,1372491,37570,48,5,0,0
TycheOrg/Tyche,,,,1050954,38094,46,5,0,0
ashwamegh/vue-link-preview,,,,2163275,43065,0,5,0,0
tarsius/orglink,,,,39234,43899,25,5,0,0
purcell/emacs-shfmt,,,,43041,44269,21,5,0,0
dotcypress/Tumbaga,,,readme.md,966214,47497,55,4,20,20
petems/petems-hddtemp,,,,89878,47929,37,5,0,0
koddsson/coworking-with,,,,1895800,49659,52,5,0,0
Trott/isTypedArray,,,README.md,2320921,49971,0,5,20,20
kuzmany/mautic-act-on-bundle,,,README.md,571532,1000085,42,7,20,20
galvani/plugin-messagebird,,,README.md,269885,1000088,36,7,20,20
mikegillis677/actions-on-lambda,,,README.md,1497614,1000211,0,5,20,20
PatchRanger/cartesian-iterator,,,README.md,435226,1000220,51,4,20,20
TonyBogdanov/tb-form,,,,3120292,1000317,38,6,0,0
ahkui/Assembly,,,,49759,1000413,38,6,0,0
kermorgant/smf-dummy-package,,,,3102420,1000506,37,5,0,0
arkadiusjonczek/seo,,,README.md,111123,1000536,50,3,20,20
freearhey/sparql,,,README.md,264366,1000559,51,5,20,20
ed-fruty/php-environment,,,README.md,234344,1000602,39,7,20,20
bookin/yii2-sidecar-gitter,,,README.md,155092,1000615,38,7,20,20
exfriend/skypium,,,,536837,1000721,38,7,0,0
Shchepotin/laravel-api,,,README.MD,495970,1001065,52,7,20,20
wvdongen/cakephp-sparkpost,,,README.md,632083,1001076,42,7,20,20
ssx/geo-uk-postcode,,,README.md,3104944,1001113,41,7,20,20
vjrngn/file-explorer,,,README.md,616292,1001232,44,7,20,20
nunomazer/gitlab-client,,,,3120677,1001325,37,7,0,0
ByZer0/laravel-query-log,,,README.md,164968,1001401,40,7,20,20
twmbx/silhouette,,CONTRIBUTING.md,README.md,608149,1001444,39,3,50,50
DearMadMan/laravel-image-tool,,,README.md,211190,1001503,39,7,20,20
JapSeyz/dot-migrations,,,README.md,304698,1001640,45,7,20,20
shinde-rahul/qr_code_attendance,,,,526020,1001661,39,6,0,0
cocoastorm/vue-bootstrap-3,,,README.md,1404517,1001840,35,6,20,20
mikepsinn/qm-redirector,,,README.md,794546,1001928,18,7,20,20
TitasGailius/php-bits,,,readme.md,602188,1002131,46,6,20,20
igor875126/smithclientcurl,,,README.md,366649,1002261,38,7,20,20
ruanitto/adonis-oauth2-provider,,,README.md,2271932,1002291,0,7,20,20
dgtal/booking-api,,,README.md,522942,1002310,39,7,20,20
jimblue/statamic-addon-mapbox,,,README.md,310468,1002424,64,5,20,20
tigron/skeleton-package-openapi,,,,601306,1002576,38,7,0,0
primasio/primas-api-sdk-php,,,README-cn.md,453297,1002701,38,3,20,20
philwinkle/Philwinkle_Fixerio,,,README.md,440804,1002810,58,5,20,20
biigpongsatorn/begeta-prototype,,,README.md,1360307,1003750,46,7,20,20
voronkovich/symfony-console-app,,,README.md,3124777,1003990,28,6,20,20
hollodk/cms,,,README.md,357334,1004034,49,7,20,20
avinsol/test-bundle,,,README.md,123973,1004041,38,7,20,20
afjlambert/workon,,,README.md,632919,1004060,0,7,20,20
nbj/heartbeating-job-runner,,,,375577,1004107,49,5,0,0
mashware/ZenMail,,,README.md,646890,1004114,39,7,20,20
Fbeen/SettingsBundle,,,README.md,252271,1004197,40,7,20,20
galmi/xacml,,,README.md,269877,1004252,39,7,20,20
pepperreport/apdex,,,README.md,651238,1004369,43,7,20,20
fertandil87/pChart,,,,254246,1004463,38,6,0,0
stefthoen/tico,,,,3105998,1005076,39,6,0,0
vikkio88/slime-framework,,,README.md,614305,1005298,39,7,20,20
horejsek/python-pytest-data,http://horejsek.github.io/python-pytest-data/,,README.markdown,461548,1005861,45,7,70,70
vongola12324/laravel-auth-management,https://packagist.org/packages/vongola12324/laravel-auth-management,,README.md,3124662,1005974,43,4,70,70
Crinsane/LaravelGettext,,,README.md,545643,1006143,38,6,20,20
beyondcode/nova-laravel-update-card,,CONTRIBUTING.md,README.md,144723,1006191,43,6,50,50
professorhaseeb/smartOutput,,,README.md,454409,1006248,40,3,20,20
adamdburton/nanoftpd,,,,36763,1006748,38,6,0,0
rorichster/WhatsNew,,,README.md,475666,1006772,38,7,20,20
ahmadrio/ptdot-button-back,,,README.md,3091292,1007010,48,4,20,20
mpmdean/pymcaspec,,,README.md,697438,1007517,0,7,20,20
mitchwilliamson/oauth2-youtube,,,README.md,363134,1007990,38,7,20,20
sample-text-here/is-is-useless,,,README.md,2387274,1008175,0,5,20,20
monban/ucg,,,,3362532,1008779,38,6,0,0
dev-and-web/daw-php-pagination,,,README.md,3106201,1009020,55,5,20,20
rumeau/belongsto-depend,,,readme.md,481012,1009040,39,7,20,20
thujohn/packagist-l4,,,README.md,3119473,1009051,40,7,20,20
cmizzi/laravel-command-alias,,,README.md,502406,1009173,30,7,20,20
mikemand/pagination,,,README.md,324660,1009283,45,4,20,20
ngmy/phpinfocmp,,,README.md,415460,1009324,45,4,20,20
TiDJ/laravel-custom-html,https://tidj.github.io/laravel-custom-html/,,readme.md,603779,1009332,54,6,70,70
absalomedia/kilns,,,README.md,25790,1009492,43,7,20,20
amirulahmad/laravel-imageupload-intervention,,,README.md,651217,1009543,40,7,20,20
austinkregel/formmodel,,,README.md,569006,1009550,57,5,20,20
tedslittlerobot/l4-support,,,readme.md,602492,1009748,39,6,20,20
djamesfar/bake,,,README.md,222187,1009756,39,7,20,20
phuclh/nova-vnd-field,,,,445713,1009785,50,5,0,0
chx2/EasyDocs,,,README.md,181950,1009789,50,4,20,20
bobbybouwmann/entry,,,README.md,166137,1009811,40,7,20,20
wolfrednicolas/wolfred-twilio,,,README.md,629030,1009855,39,7,20,20
chrispecoraro/wikipedia-tools,,,README.md,181476,1009900,0,7,20,20
IsraelOrtuno/page,,,,520474,1009911,37,5,0,0
gabrielkoerich/service-manager,,,README.md,78236,1009914,31,7,20,20
jpcaparas/box-laravel,,,README.md,566409,1009919,43,7,20,20
mrsimonbennett/commander,,,,370525,1010029,36,4,0,0
dowilcox/BladeView,,,README.md,228321,1010040,42,6,20,20
sagarrabadiya/bootstrap_handy_validations,,,README.md,753380,1010051,18,7,20,20
danrovito/StrRandom,,,README.md,1053394,1010074,51,4,20,20
jonasof/array-circle-fetch,,,README.md,563937,1010120,39,7,20,20
studio-net/toast-notifications,,,README.md,804825,1010209,19,7,20,20
ToxaGeek/laravel-wg-api,,,,604740,1010261,38,6,0,0
jacob-hyde/Printify-PHP-SDK,,,README.md,3082188,1010355,32,7,20,20
metabitco/transform,,,README.md,569024,1010399,39,7,20,20
Modelizer/multi-tenant,,,,365245,1010435,38,6,0,0
oakwood/wp-theme,,,readme.md,431343,1010443,38,3,20,20
InteractionDesignFoundation/laravel-real-email-validation,,CONTRIBUTING.md,README.md,292260,1010466,48,5,50,50
Darovi/Commander,,,README.md,515661,1011009,40,7,20,20
1f991/patreon-php,,,README.md,597737,1011321,45,4,20,20
chemerisuk/cordova-plugin-firebase-config,,,README.md,1236564,1012709,53,6,20,20
daviddt/jquery-plugin,,,README.md,775158,1012885,20,7,20,20
meisterplayer/media-dash,https://www.meisterplayer.com/,,README.md,1219738,1013762,52,6,70,70
smashingpat/bundel,,,,1996936,1013830,0,7,0,0
sora0077/PredicateKit,,,README.md,3460762,1014444,18,7,20,20
jakeheis/Git,,,README.md,675425,1014937,18,7,20,20
isaac-weisberg/HalfFive,,,README.md,3460790,1015259,18,6,20,20
mitsuse/screen-container,,,README.md,3460805,1015516,29,7,20,20
gibachan/XmlDict,,,README.md,981371,1015710,56,5,20,20
brentleyjones/xcconfigs,,,README.md,3460801,1015837,17,5,20,20
ferranpujolcamins/mixxx-controller-script-sequencer,,,,1667423,1015978,44,7,0,0
AIbnuHIbban/Laravel-with-Livewire-Setup,,,README.md,58207,1016523,39,7,20,20
hellobloom/share-kit-react,,,README.md,2080200,1016641,0,6,20,20
jildertmiedema/windows-phone-push,,,README.md,310450,1016763,46,3,20,20
StardewConfigMenu/StardewConfigFramework,https://nexusmods.com/stardewvalley/mods/1312,,README.md,965361,1017160,54,5,70,70
deshiknaves/cypress-msw-interceptor,,,README.md,2284860,1017415,0,7,20,20
GaborWnuk/react-native-imagepreview,,,README.md,1299530,1017470,34,7,20,20
jcfrancisco/carlo-js,,,,1818318,1017716,45,7,0,0
Commander-lol/Sideburns,,,README.md,1141525,1018011,56,5,20,20
lechinoix/react-snake,https://lechinoix.github.io/react-snake/,,README.md,1323913,1018118,34,7,70,70
yondifon/laravel-graphiql,,,README.md,3086121,1018472,31,7,20,20
Nexapp/react-native-scrollable-with-collapsible-header,,,README.md,2374112,1019087,0,7,20,20
echobind/launchbox,,,readme.md,2241560,1019163,0,4,20,20
glendemon/phpexcel-wrapper,,,README.md,3079666,1019711,39,7,20,20
mondora/gemfury-publish,,,README.md,1589929,1019958,51,6,20,20
masif088/libtol,,,,3081392,1021021,37,5,0,0
RajnishDashora/All-Doer,,,README.md,1501253,1021728,34,7,20,20
suqld/otrs,,,README.md,3109728,1021756,50,6,20,20
MatiseAms/create-matise-nuxt,,,README.md,2162072,1022049,0,3,20,20
Nasajon/gclick_sdk,,,,3035577,1022546,45,7,0,0
ricardovezetiv/pythonpro-libpythonpro,,,README.md,3035594,1022562,0,7,20,20
FireHead90544/stack.py,https://pypi.org/project/stack.py,,README.md,3035599,1022568,41,7,70,70
valknight/loadstar,,,README.md,3035580,1022575,32,7,20,20
EwetoyeIbrahim/flask-odoo-graphql,,,README.md,3035585,1022577,32,7,20,20
aboucaud/galcheat,,,README.md,3035597,1022586,40,7,20,20
walnutgeek/azfiles,,,README.md,3035601,1022587,0,7,20,20
ferrl/framework,,,README.md,254228,1025090,34,3,20,20
krutoo/packmar.js,,,README.md,1386316,1026631,52,4,20,20
sima-land/yii2-logstock,,,README.md,435205,1026638,55,5,20,20
ark120202/dota-data,https://dota.tools/,,README.md,2045167,1026695,0,4,70,70
dianas11xx/MoodipyTest,,,README.md,3162104,1026779,0,7,20,20
uktrade/trade-elements,,,README.md,1781256,1026845,56,7,20,20
caiyunapp/caiyun-weather-api-python-sdk,,,README.md,655319,1027199,0,6,20,20
egemenhalici1/react-input-with-popup,,,README.md,2052273,1027464,0,7,20,20
therealgambo/ramlfications-php,,,README.md,3118425,1028238,38,6,20,20
pjkui/kindeditor,http://www.pjkui.com,,README.md,448201,1028576,43,3,70,70
katzj/test-python-package,,,README.rst,309021,66,53,9,20,20
tidelift/dotyaml,,,README.md,3231943,69,56,13,20,20
tiegz/kadoku,,,README,3343932,207,43,9,20,20
Kami/python-yubico-client,https://yubico-client.readthedocs.org/en/latest/,,README.rst,641761,256,0,13,70,70
OpenSourceOrg/rust-opensource,,,README.md,3432097,349,0,12,20,20
todogroup/repolinter,https://todogroup.org,CONTRIBUTING,README.md,2402317,362,0,15,100,100
ipfs-inactive/npm-go-ipfs-dep,https://github.com/ipfs/npm-go-ipfs,,README.md,1908628,484,50,11,70,70
ipfs-shipyard/ipfs-deploy,,,README.md,1954274,563,0,10,20,20
malditogeek/redisrecord,,,README.markdown,3313031,798,41,8,20,20
maclover7/trix,,,README.md,3347016,816,51,15,20,20
samjacobclift/help-wanted-gh-issues,,,README.md,769181,929,35,9,20,20
barisbalic/gamertag,,,README.md,3247246,939,54,11,20,20
bengourley/slugg,,,Readme.md,1479613,975,62,15,20,20
splashinn/nog,,,README.md,2003853,1051,0,10,20,20
olizilla/asciify,https://npmjs.org/package/asciify,,README.md,380365,1170,0,9,70,70
djpowers/musicgraph,https://rubygems.org/gems/musicgraph,,README.md,3287704,1290,45,10,70,70
kdaigle/strapper,,,README.md,3337597,1386,45,9,20,20
hendrixfan/triangle,,,README.md,3346842,1693,48,12,20,20
anthonyringoet/heap-server,,,README.md,1616458,1967,45,9,20,20
martinvd/prepend-file-cli,,,readme.md,1132305,1999,0,11,20,20
willingc/circuitpython_kernel,https://circuitpython-kernel.readthedocs.io/en/latest/,CONTRIBUTING.rst,README.rst,159236,2009,50,12,100,100
sclinede/blood_contracts,,,README.md,3210202,2178,51,14,20,20
nelsonic/github-scraper,,,README.md,1587562,2204,50,14,20,20
JakeWharton/ViewPagerIndicator,http://viewpagerindicator.com,,README.md,868019,3075,70,14,70,70
jamesgpearce/monomi,,,README.md,1172106,3311,47,11,20,20
jparise/python-reloader,http://www.indelible.org/ink/python-reloading/,,README.rst,489179,3334,51,13,70,70
jpeddicord/askalono,,CONTRIBUTING.md,README.md,1451792,3364,63,14,50,50
willnorris/wordpress-license,,,readme.md,627363,3412,37,9,20,20
50Wliu/language-sourcepawn,https://atom.io/packages/language-sourcepawn,,README.md,57195,3438,59,11,70,70
88250/city-geo,https://ld246.com,,README.md,3517340,3453,0,11,70,70
Akasurde/Mahadiscom,,,README.md,326054,3879,50,8,20,20
AkihiroSuda/z42,,,README.md,642890,3932,0,8,20,20
akyoto/load-class,,,README.md,1653874,3989,48,8,20,20
amatsuda/jb,,,README.md,3264927,4386,61,15,20,20
andrewda/hltv-livescore,,,README.md,1618702,4517,54,14,20,20
postalsys/imapflow,https://imapflow.com,.github/contributing.md,README.md,2564938,4580,0,14,100,100
andybons/ABVariants,,,README.md,112233,4710,28,9,20,20
ararslan/Jackknife.jl,,,README.md,23025,4853,39,12,20,20
astorije/chai-immutable,,,README.md,379380,5339,0,10,20,20
axic/mango-admin,,,README.md,1659353,5374,38,10,20,20
b3none/steam-id-converter,,,README.md,128909,5454,43,10,20,20
BaseMax/FilterInputJs,,,README.md,1929845,5554,57,12,20,20
bbondy/abp-filter-parser,,,README.md,1167037,5830,0,13,20,20
pborreli/composer-service,,,README.md,3092905,6056,48,12,20,20
borderless/unfurl,,,README.md,2441753,6217,0,12,20,20
boopathi/react-svg-loader,,,README.md,1851096,6309,59,11,20,20
bogdanvlviv/minitest-mock_expectations,,,README.md,3283583,6388,58,11,20,20
brauner/rlxc,,CONTRIBUTING,README.md,3439710,6421,0,10,50,50
bsclifton/poker.js,,,,1281727,6450,56,9,0,0
cblecker/hyper-quit,,,README.md,1336126,6579,0,10,20,20
cezaraugusto/mklicense,https://www.npmjs.com/package/mklicense,,README.md,1903889,6691,42,11,70,70
cheshire137/gulp-ruby-haml,https://www.npmjs.com/package/gulp-ruby-haml,CONTRIBUTING.md,README.md,1612035,6750,47,12,100,100
chicoxyzzy/rx-mobx,,,README.md,1747008,6831,60,14,20,20
colby-swandale/rubocop-github-annotations-formatter,,,README.md,3319696,6855,44,10,20,20
d3viant0ne/hyperterm-base16-tomorrow-dark,,,README.md,1625639,6916,55,11,20,20
cyphar/initrs,,,README.md,3419403,6956,0,9,20,20
dasilvacontin/ludumpad,http://ludumpad.github.io/,,README.md,1655896,7179,44,10,70,70
datapythonista/mnist,,,README.md,336450,7290,0,15,20,20
daveaglick/Scripty,,,Readme.md,974817,7291,62,12,20,20
denar90/psi-ngrok,,,README.md,1718790,7330,36,9,20,20
devversion/travis-after-modes,,,README.md,1781991,7558,46,8,20,20
Dexus/pem,,CONTRIBUTING.md,README.md,378870,7595,0,11,50,50
Dexus-Forks/cordova-plugin-ironSource,,,README.md,1246133,7597,53,11,20,20
disposable-email-domains/python-disposable-email-domains,https://pypi.org/p/disposable-email-domains/,CONTRIBUTING.md,README.md,203665,7634,0,14,100,100
dlemstra/Magick.NET,,.github/CONTRIBUTING.md,Readme.md,899840,7673,70,13,50,50
dynamitechetan/razorpay_flutter,,,README.md,3386538,7771,60,12,20,20
endocrimes/Jay,,,README.md,500169,7901,49,15,20,20
evantahler/nodePhidgets,,,readme.md,1706011,8067,58,11,20,20
FagnerMartinsBrack/str-replace,http://npmjs.com/package/str-replace,,README.md,1152038,8121,42,11,70,70
feiskyer/python-cri,,,README.md,183441,8139,53,10,20,20
Fivell/yatran,https://rubygems.org/gems/yatran,,README.md,3358937,8147,50,10,70,70
webtorrent/fs-chunk-store,,,README.md,2460323,8241,0,13,20,20
freak4pc/UIView-Positioning,,,README.md,98340,8285,45,15,20,20
frewsxcv/graphosaurus,https://www.npmjs.com/package/graphosaurus,,README.md,1601884,8293,51,14,70,70
GantMan/jail-monkey,,,,2291193,8392,0,15,0,0
GwendolenLynch/Carbon,https://carbondate.github.io,,readme.md,169679,8511,0,11,70,70
gyandeeps/hypernpm,,,README.md,1625391,8539,54,11,20,20
helfer/graphql-disable-introspection,,,README.md,1457596,8652,0,14,20,20
icecrime/RateLimiting,,,README.md,703586,8872,48,10,20,20
jayphelps/core-decorators,,,README.md,379925,9210,0,11,20,20
jayvdb/flake8-putty,,,README.rst,261012,9303,59,13,20,20
jdalton/docdown,,,README.md,1308829,9366,44,11,20,20
jdorfman/g20,,,README.md,1588668,9694,52,10,20,20
jglovier/fizzy,http://atom.io/packages/fizzy,,README.md,36073,9762,53,12,70,70
jimmidyson/rcm,,,README.md,3423059,9811,0,9,20,20
jisaacks/recurse-delete,,,README.markdown,3312564,9843,49,11,20,20
laf/russound,,,README.md,707534,9889,52,9,20,20
Krzysztof-Cieslak/RemoveObj,,CONTRIBUTING.md,README.md,973219,9903,64,9,50,50
lahmatiy/open-in-editor,,,README.md,2149731,9945,0,14,20,20
lee-dohm/tabs-to-spaces,https://atom.io/packages/tabs-to-spaces,CONTRIBUTING.md,README.md,84118,9996,67,14,100,100
thattommyhall/capistrano-elb,,,README.md,3214608,10157,46,9,20,20
rodnaph/morgan,,,README.md,472864,10217,49,10,20,20
lucasbento/react-native-thumbnail-video,,,README.md,1826480,10470,62,14,20,20
Lukasa/requests-ftp,,,README.rst,3430,10505,55,14,20,20
makoscafee/gulp-gae,,,README.md,1698890,10544,43,9,20,20
marcosmoura/generator-scaffold,http://marcosmoura.github.io/generator-scaffold,,README.md,1594463,10614,48,12,70,70
Mariatta/tic_tac_taco_pizza,,,README.rst,605977,10630,0,10,20,20
leggetter/pusher-js-client-auth,,,README.md,794134,10683,22,8,20,20
matchai/ts-quick,,,README.md,1936958,10831,46,10,20,20
bd808/python-iptools,http://python-iptools.readthedocs.org/,,README.md,302053,11037,48,14,70,70
mmozuras/poper,,,README.md,3302551,11591,57,13,20,20
nasirhjafri/libyear,https://libyear.com/,,README.md,315930,11680,51,13,70,70
ncoden/angular-pseudo-class,,,README.md,1503782,11688,47,8,20,20
ndelangen/corejs-upgrade-webpack-plugin,,,README.md,2124860,11721,0,14,20,20
nicolaiarocci/flask-mimerender,,,readme.md,263282,11742,55,12,20,20
nmilcoff/EasyTipView,,,README.md,856440,11786,57,8,20,20
novemberborn/ksuid,,,README.md,1389962,11799,47,10,20,20
olasitarska/django-gulp-rev,,,README.rst,215346,11800,48,9,20,20
olivierlacan/mandrillus,https://rubygems.org/gems/mandrillus,,README.md,3278992,11892,52,9,70,70
ParthS007/background,,,README.rst,127371,11995,52,15,20,20
parkr/all-your-github-are-belong-to-us,https://www.npmjs.org/package/all-your-github-are-belong-to-us,,README.md,1501384,12015,41,11,70,70
paulfalgout/backbone-moment,,,README.md,751012,12138,39,10,20,20
pboling/flag_shih_tzu,http://railsbling.com/flag_shih_tzu,,README.md,3242841,12480,62,15,70,70
pbugnion/gmaps,https://jupyter-gmaps.readthedocs.io/en/stable/,CONTRIBUTING.rst,README.rst,1942840,12528,56,15,100,100
schlessera/wp-cli-psysh,http://psysh.org/,CONTRIBUTING.md,README.md,496011,12615,50,11,100,100
shockey/workfrom,https://workfrom.co/developer,,README.md,1801841,12679,43,9,70,70
simskij/dotty-cli,,,README.md,1374023,12706,45,9,20,20
stevemao/github-remove-all-releases,,,README.md,405055,12896,0,13,20,20
styfle/react-server-example-tsx,https://react-tsx.vercel.app/,,README.md,1831974,13215,0,13,70,70
swissspidy/local-webfont,,,README.md,1838052,13270,46,10,20,20
tapaswenipathak/pyQTopic,http://tapasweni-pathak.github.io/pyQTopic/,,README.md,474511,13403,57,13,70,70
The-Compiler/pytest-vw,,,README.rst,700310,13497,52,10,20,20
TheSavior/rewire-global,,,README.md,395132,13526,60,13,20,20
electron-modules/network-interface,,,README.md,2243949,13750,0,11,20,20
app-bootstrap/autoresponsive_react_native_sample_android_ci,,,README.md,1512865,13789,48,8,20,20
yavorsky/bundle-utils,,,README.md,1432918,13982,47,10,20,20
despo/cyprus-street-names,,,README.md,3225866,14192,48,10,20,20
muan/emojilib,https://unpkg.com/emojilib@latest,CONTRIBUTING.md,README.md,1223497,14220,62,15,100,100
cwaring/vuepress-plugin-ipfs,,,README.md,2416689,14781,0,11,20,20
daviddias/webrtc-explorer,,,README.md,413595,14842,0,13,20,20
decentralion/chartographer,,,README.md,756135,14971,39,14,20,20
dignifiedquire/async-tar,,,README.md,3395905,15040,55,14,20,20
hacdias/electron-menubar,,,README.md,1849975,15142,53,12,20,20
hugomrdias/prettier-stylelint,,,README.md,1932115,15199,0,12,20,20
marcooliveira/node-twitter-pic,,,README.md,1784665,15398,46,9,20,20
nicola/tubemaps,,,README.md,1782922,15442,0,13,20,20
travisperson/react-hexviewer,,,README.md,1726461,15577,44,11,20,20
vasco-santos/dns-over-http-resolver,,,README.md,2492798,15708,0,11,20,20
Aaron1011/cargo-urlcrate,,,README.md,3401077,15990,49,9,20,20
AquiGorka/kanpo,,,README.md,1906019,16154,47,9,20,20
AuHau/toggl-cli,https://toggl.uhlir.dev,CONTRIBUTING.md,README.md,608826,16226,0,15,100,100
balupton/simple-server,,,README.md,388849,16243,48,14,20,20
cboddy/i3-workspace-names-daemon,,,README.md,292043,16274,56,13,20,20
davidar/pandiff,,,README.md,1942401,16320,0,13,20,20
dankelleher/insomnia-plugin-aws-iam,,,README.md,2060870,16387,0,11,20,20
Luzifer/git-changerelease,,,README.md,3066631,16589,48,9,20,20
marten-seemann/OXID_recaptcha,,,README.md,498498,16703,47,9,20,20
nginnever/ippm,,,README.md,1630176,16754,33,9,20,20
Seenivasanseeni/FirstPIP,,,README.md,259399,17265,45,8,20,20
vasa-develop/redux-cross-fetch,,,README.md,1871503,17342,54,10,20,20
vmx/jslens,,,README.md,411315,17509,0,11,20,20
zebateira/react-use-system-theme,,,README.md,2084078,17574,0,12,20,20
yangwao/skCube-data-collector,,,README.md,1259753,17598,59,13,20,20
aheckmann/gm,http://aheckmann.github.com/gm/,,,1600998,18000,50,15,50,50
apemsel/AttributedString,,,,105415,18148,51,9,0,0
atsuya/parallel-mocha,,,README.md,1172720,18258,45,12,20,20
braintreeps/cocoapods-archive,,,README.md,3220217,18292,51,9,20,20
dodo/node-slug,,,,800400,18480,30,13,0,0
teemow/node-dawanda,,,README.md,1550360,18546,47,8,20,20
tim-smart/async-array,,,README,404861,18618,0,12,20,20
tmpvar/weld,,,,808992,18728,25,11,0,0
vesan/omnifocus-trello,,,,3294920,18957,55,13,0,0
teropa/angular-virtual-dom,,,,748388,18969,25,10,0,0
agoddard/knife-ghost,,,,3271010,19112,40,8,0,0
azet/NetApp.rb,,,,3289881,19155,45,8,0,0
c10l/vagrant-butcher,,,,3350600,19178,45,12,0,0
kisoku/whisk,,,README.md,3355551,19288,46,10,20,20
joemiller/bunchr,,,,3212802,19315,53,11,0,0
lozzd/cisco-config-parse,,,,3218742,19384,45,9,0,0
KrisBuytaert/puppet-packetbeat,,,README,63577,19439,50,9,20,20
mconigliaro/smtptester,,,README.md,712977,19455,44,9,20,20
lusis/Noah,https://github.com/lusis/Noah/wiki,,README.md,3291227,19468,57,15,70,70
mdxp/knife-backup,,,,3270938,19542,48,13,0,0
adufilie/MobxPromise,,,README.md,1668932,19656,41,10,20,20
agoodm/binconvert,,,,140539,19753,47,8,0,0
akrabat/slim3-skeleton,,,,67094,19834,45,13,0,0
aliok/ion-affix,,,,771397,19937,26,10,0,0
librariesio/bibliothecary,https://libraries.io/rubygems/bibliothecary,.github/CONTRIBUTING.md,README.md,3208714,1,74,19,100,100
andrew/node-xbox-controller,http://libraries.io/npm/xbox-controller,CONTRIBUTING.md,Readme.md,414100,92,0,18,100,100
splitrb/split,https://rubygems.org/gems/split,CONTRIBUTING.md,README.md,3195534,402,0,21,100,100
ipfs/go-ipfs,https://ipfs.io,CONTRIBUTING.md,README.md,2596183,411,75,20,100,100
apache/echarts,https://echarts.apache.org,CONTRIBUTING.md,README.md,2043341,692,0,24,100,100
marcandre/backports,,,README.md,3206499,1253,69,23,20,20
timruffles/mobile-drag-drop,http://timruffles.github.io/mobile-drag-drop/demo/,CONTRIBUTING.md,README.md,761240,1526,60,18,100,100
SocialiteProviders/Manager,http://socialiteproviders.github.io/#contribute,,README.md,575805,1708,65,19,70,70
Moya/Moya,https://moya.github.io,Contributing.md,Readme.md,485923,1910,79,22,100,100
danger/danger,https://danger.systems,,README.md,3226246,1931,71,21,70,70
rtfpessoa/diff2html,https://diff2html.xyz,CONTRIBUTING.md,README.md,2065335,2128,0,18,100,100
RichardLitt/standard-readme,,,README.md,2416910,2686,0,20,20,20
bkeepers/dotenv,,,README.md,3231839,2971,76,28,20,20
afeld/backbone-nested,https://afeld.github.com/backbone-nested/,,README.md,751030,3504,53,16,70,70
ahmadawais/create-guten-block,https://Awais.dev/cgb-post,contributing.md,readme.md,2218639,3618,0,20,100,100
ai/nanoid,https://zelark.github.io/nano-id-cc/,,README.md,1863628,3816,72,17,70,70
containerd/nerdctl,,,README.md,2634950,3911,60,16,20,20
alcaeus/mongo-php-adapter,,,README.md,67532,4013,70,22,20,20
alcohol/iso4217,,,README.md,67614,4030,69,17,20,20
alexellis/k3sup,https://k3sup.dev,,README.md,2268840,4137,35,17,70,70
amjith/fuzzyfinder,,CONTRIBUTING.rst,README.rst,542313,4468,70,18,50,50
andris9/jStorage,,CONTRIBUTING.md,README.md,777257,4565,50,16,50,50
appleboy/react-recaptcha,https://www.google.com/recaptcha/intro/index.html,,README.md,1144051,4723,0,21,70,70
arcanis/pnp-webpack-plugin,,,README.md,2094413,4888,0,21,20,20
ashfurrow/Nimble-Snapshots,https://medium.com/cocoaacademymag/unit-testing-uiview-with-nimble-snapshot-651a7c5a5e93,,README.md,3461029,4980,68,16,70,70
ashleygwilliams/assert_approx_eq,https://docs.rs/assert_approx_eq/,,README.md,3395475,5074,64,17,70,70
aweary/react-perimeter,,,README.md,1265411,5268,0,16,20,20
balloob/react-sidebar,http://balloob.github.io/react-sidebar/example/,,README.md,1732153,5512,69,17,70,70
berkerpeksag/astor,https://pypi.org/project/astor/,,README.rst,123213,5862,62,21,70,70
bevacqua/dragula,https://bevacqua.github.io/dragula/,.github/contributing.markdown,readme.markdown,2297649,5873,0,18,100,100
bnb/bitandbang,,,README.md,2185514,6140,0,18,20,20
blakeembrey/change-case,,,README.md,1395217,6202,40,16,20,20
caarlos0/env,http://carlosbecker.com/posts/env-structs-golang,,README.md,2684647,6490,79,23,70,70
ahmadnassri/node-har-validator,,,README.md,383953,6612,0,16,20,20
clauderic/react-sortable-hoc,https://clauderic.github.io/react-sortable-hoc/,,README.md,1582849,6843,58,18,70,70
cpojer/js-codemod,,,README.md,1152620,6862,53,16,20,20
crisbeto/angular-svg-round-progressbar,https://crisbeto.github.io/angular-svg-round-progressbar/,,README.md,747554,6901,55,18,70,70
deivid-rodriguez/byebug,,CONTRIBUTING.md,README.md,3213220,7316,77,26,50,50
DenisCarriere/geocoder,http://geocoder.readthedocs.org,,README.md,660962,7369,0,22,70,70
denysdovhan/wtfjs,http://bit.ly/wtfjavascript,,README-fr-fr.md,2580366,7428,0,19,70,70
spaceship-prompt/spaceship-prompt,https://spaceship-prompt.sh,CONTRIBUTING.md,README.md,1972562,7429,0,21,100,100
di/vladiate,https://pypi.org/project/vladiate,CONTRIBUTING.md,README.rst,623599,7628,0,16,100,100
diegohaz/constate,https://codesandbox.io/s/github/diegohaz/constate/tree/master/examples/counter,,README.md,1410579,7675,62,16,70,70
enkore/i3pystatus,https://i3pystatus.readthedocs.io/,,README.rst,292028,7879,64,16,70,70
feross/simple-peer,,,README.md,1891901,8152,58,18,20,20
hiroppy/fusuma,https://hiroppy.github.io/fusuma,,README.md,2551808,8671,0,18,70,70
Hoverbear/getset,https://docs.rs/getset/,,README.md,3414116,8800,0,18,70,70
iarna/iarna-toml,,CONTRIBUTING.md,README.md,2149299,8894,0,20,50,50
iddan/react-native-canvas,,,readme.md,1855081,9017,0,16,20,20
indirect/rails3-generators,,,README.rdoc,3308857,9120,68,16,20,20
jamiebuilds/react-loadable,,,README.md,2091989,9371,0,17,20,20
lchrusciel/ApiTestCase,,,README.md,331226,9957,66,22,20,20
tobias/credit_card_validator,,,README.rdoc,3224143,10301,59,16,20,20
ljharb/qs,,,README.md,357767,10388,0,34,20,20
lk-geimfari/mimesis,https://mimesis.name,CONTRIBUTING.rst,README.rst,86165,10449,72,19,100,100
MarshallOfSound/electron-devtools-installer,,,README.md,387874,10762,0,24,20,20
matklad/once_cell,,,README.md,3431804,10913,0,24,20,20
mitsuhiko/pipsi,,,README.md,690704,11121,0,16,20,20
pallets-eco/flask-openid,,,README,263448,11142,66,18,20,20
mikeal/r2,,,README.md,1721987,11272,0,22,20,20
mvdan/sh,https://pkg.go.dev/mvdan.cc/sh/v3,,README.md,2762448,11642,80,19,70,70
papandreou/node-cldr,,,README.md,386296,11937,0,16,20,20
paulmillr/chokidar,https://paulmillr.com,,README.md,356077,12151,0,33,70,70
PatrickJS/angular-starter,,.github/CONTRIBUTING.md,README.md,1230873,12202,59,21,50,50
sallar/stringz,,,README.md,2255016,12556,0,17,20,20
sferik/t,http://sferik.github.com/t,CONTRIBUTING.md,README.md,3495048,12632,71,20,100,100
skywinder/GaugeKit,https://www.cocoacontrols.com/controls/gaugekit,,README.md,188261,12713,58,17,70,70
sivel/speedtest-cli,,CONTRIBUTING.md,README.rst,715733,12751,77,23,50,50
sobolevn/git-secret,http://git-secret.io,CONTRIBUTING.md,README.md,45258,12817,75,18,100,100
sokra/rawact,,,README.md,1444709,12852,64,17,20,20
st0012/object_tracer,,,README.md,3292923,12874,57,16,20,20
staltz/xstream,http://staltz.github.io/xstream/,CONTRIBUTING.md,README.md,1549769,13018,69,18,100,100
sunshinejr/SwiftyUserDefaults,http://radex.io/swift/nsuserdefaults/static,,README.md,180037,13250,71,21,70,70
swapagarwal/geeksay,http://geeksay.xyz,CONTRIBUTING.md,README.md,1996848,13315,0,16,100,100
tianon/gosu,,,README.md,45429,13572,64,17,20,20
timofurrer/try,,,README.rst,612183,13661,0,16,20,20
xudafeng/autoresponsive-react,https://xudafeng.github.io/autoresponsive-react,CONTRIBUTING.md,README.md,1148742,13737,0,19,100,100
xtuc/webassemblyjs,https://webassembly.js.org,CONTRIBUTING.md,README.md,2411689,13847,0,20,100,100
zpao/qrcode.react,https://zpao.github.io/qrcode.react/,,README.md,2164579,14115,0,17,70,70
arthurnn/memcached,,,README.md,3281089,14157,72,18,20,20
achingbrain/pm2-web,,,README.md,2149498,14434,0,17,20,20
alanshaw/markdown-pdf,https://npmjs.org/package/markdown-pdf,,README.md,1461244,14563,58,17,70,70
jbenet/transformer,,,README.md,1130039,15242,49,16,20,20
Stebalien/tempfile,http://stebalien.com/projects/tempfile-rs,,README.md,3450437,15609,0,22,70,70
whyrusleeping/gx,,,README.md,3498064,15762,62,16,20,20
koalalorenzo/python-digitalocean,,,README.md,464420,16399,58,19,20,20
moul/assh,https://manfred.life/assh,.github/CONTRIBUTING.md,README.md,2801475,16852,73,20,100,100
victorb/ngProgress,http://victorbjelkholm.github.io/ngProgress/,,readme.md,1680786,17386,67,18,70,70
astro/node-expat,,,,378978,18159,0,21,0,0
bcoe/c8,,CONTRIBUTING.md,README.md,2503858,18298,0,17,50,50
zapnap/resque_mailer,,,README.md,3209473,19043,65,17,20,20
danielsdeleo/deep_merge,,,README.md,3228175,19255,71,21,20,20
rodjek/puppet-lint,,,README.md,3254935,19588,63,17,20,20
burnash/gspread,https://docs.gspread.org,.github/CONTRIBUTING.md,README.md,285143,1411324,75,28,100,100
mathjax/MathJax,http://www.mathjax.org/,CONTRIBUTING.md,README.md,1167136,1411336,0,21,100,100
huggingface/datasets,https://huggingface.co/docs/datasets,CONTRIBUTING.md,README.md,79769,1411399,79,23,100,100
doctrine/orm,https://www.doctrine-project.org/projects/orm.html,CONTRIBUTING.md,README.md,225276,1495934,81,28,100,100
FortAwesome/Font-Awesome,https://fontawesome.com,CONTRIBUTING.md,README.md,148297,1505205,76,25,100,100
doctrine-extensions/DoctrineExtensions,,,,271943,1506653,76,28,0,0
guzzle/guzzle,http://guzzlephp.org/,,,278591,1508819,67,31,50,50
select2/select2,https://select2.org/,,,2048407,1513437,0,21,50,50
laravel/framework,https://laravel.com,,,329180,1518244,0,28,50,50
Seldaek/monolog,https://seldaek.github.io/monolog/,,,366744,1524252,73,30,50,50
mpdf/mpdf,https://mpdf.github.io,.github/CONTRIBUTING.md,README.md,369311,1524518,80,26,100,100
onokumus/metismenu,https://mm.onokumus.com/,.github/contributing.md,README.md,782415,1528393,71,23,100,100
orchestral/testbench,https://packages.tools/testbench,CONTRIBUTING.md,README.md,650530,1528859,80,27,100,100
phpstan/phpstan,https://phpstan.org/,,,445348,1531859,71,19,50,50
sebastianbergmann/phpunit,https://phpunit.de/,,,445466,1532225,73,23,50,50
cakephp/phinx,https://phinx.org,CONTRIBUTING.md,README.md,472432,1539666,68,25,100,100
slimphp/Slim,http://slimframework.com,CONTRIBUTING.md,README.md,560436,1544414,84,28,100,100
wp-cli/wp-cli,https://wp-cli.org/,,,3494505,1572425,70,19,50,50
TeXitoi/structopt,,,README.md,3448588,1601072,0,22,20,20
andybalholm/brotli,,,README.md,2613797,1639746,0,26,20,20
