project_id,repository_id,project_name,aggregate_health_score
429671,1957,orgmanager/orgmanager,
152902,2476,paultag/python-charlie,
1024242,7038,Daniel15/prometheus-net.SystemMetrics,
513379,7082,danielbachhuber/dictator,
839598,7494,devlead/Devlead.Console.Template,
1152361,10413,es-shims/obsolete-string-at,
37547,10909,dcarley/puppet-erlang,
433749,11860,pamil/prophecy-common,
3246215,13309,talsafran/freshmaker,
1670162,14024,zkat/mona,
3242604,18049,alexanderadam/fitnesspark_api,
1700459,18432,cistov/oy,
185500,18447,coen-hyde/Shanty-Mongo,
876057,20589,blachniet/SurfStat,
750804,24202,neocotic/Backbone.Do,
441195,25016,ihabunek/phormium,
1587915,28137,mayank/lgr,
1339429,28951,nolanlawson/async-rect,
1339503,29953,stanleyxu2005/electron-utils,
1320382,31945,bugsnag/gulp-bugsnag,
1663614,32128,ipld/js-ipld-graph-builder,
2466457,32981,github/webpack-config-github,
1262880,33253,alphagov/govuk-country-and-territory-autocomplete,
1890437,35395,kimmobrunfeldt/concurrently,
579484,35692,LukasReschke/ID3Parser,
373087,36058,mzdr/micro,
1659277,36660,steelbrain/mariasql-promise,
420218,37011,digiaonline/lumen-oauth2,
1372491,37570,redhat-developer/rsp-client,
1050954,38094,TycheOrg/Tyche,
2163275,43065,ashwamegh/vue-link-preview,
39234,43899,tarsius/orglink,
43041,44269,purcell/emacs-shfmt,
966214,47497,dotcypress/Tumbaga,
89878,47929,petems/petems-hddtemp,
1895800,49659,koddsson/coworking-with,
2320921,49971,Trott/isTypedArray,
571532,1000085,kuzmany/mautic-act-on-bundle,
269885,1000088,galvani/plugin-messagebird,
1497614,1000211,mikegillis677/actions-on-lambda,
435226,1000220,PatchRanger/cartesian-iterator,
3120292,1000317,TonyBogdanov/tb-form,
49759,1000413,ahkui/Assembly,
3102420,1000506,kermorgant/smf-dummy-package,
111123,1000536,arkadiusjonczek/seo,
264366,1000559,freearhey/sparql,
234344,1000602,ed-fruty/php-environment,
155092,1000615,bookin/yii2-sidecar-gitter,
536837,1000721,exfriend/skypium,
495970,1001065,Shchepotin/laravel-api,
632083,1001076,wvdongen/cakephp-sparkpost,
3104944,1001113,ssx/geo-uk-postcode,
616292,1001232,vjrngn/file-explorer,
3120677,1001325,nunomazer/gitlab-client,
164968,1001401,ByZer0/laravel-query-log,
608149,1001444,twmbx/silhouette,
211190,1001503,DearMadMan/laravel-image-tool,
304698,1001640,JapSeyz/dot-migrations,
526020,1001661,shinde-rahul/qr_code_attendance,
1404517,1001840,cocoastorm/vue-bootstrap-3,
794546,1001928,mikepsinn/qm-redirector,
602188,1002131,TitasGailius/php-bits,
366649,1002261,igor875126/smithclientcurl,
2271932,1002291,ruanitto/adonis-oauth2-provider,
522942,1002310,dgtal/booking-api,
310468,1002424,jimblue/statamic-addon-mapbox,
601306,1002576,tigron/skeleton-package-openapi,
453297,1002701,primasio/primas-api-sdk-php,
440804,1002810,philwinkle/Philwinkle_Fixerio,
1360307,1003750,biigpongsatorn/begeta-prototype,
3124777,1003990,voronkovich/symfony-console-app,
357334,1004034,hollodk/cms,
123973,1004041,avinsol/test-bundle,
632919,1004060,afjlambert/workon,
375577,1004107,nbj/heartbeating-job-runner,
646890,1004114,mashware/ZenMail,
252271,1004197,Fbeen/SettingsBundle,
269877,1004252,galmi/xacml,
651238,1004369,pepperreport/apdex,
254246,1004463,fertandil87/pChart,
3105998,1005076,stefthoen/tico,
614305,1005298,vikkio88/slime-framework,
461548,1005861,horejsek/python-pytest-data,
3124662,1005974,vongola12324/laravel-auth-management,
545643,1006143,Crinsane/LaravelGettext,
144723,1006191,beyondcode/nova-laravel-update-card,
454409,1006248,professorhaseeb/smartOutput,
36763,1006748,adamdburton/nanoftpd,
475666,1006772,rorichster/WhatsNew,
3091292,1007010,ahmadrio/ptdot-button-back,
697438,1007517,mpmdean/pymcaspec,
363134,1007990,mitchwilliamson/oauth2-youtube,
2387274,1008175,sample-text-here/is-is-useless,
3362532,1008779,monban/ucg,
3106201,1009020,dev-and-web/daw-php-pagination,
481012,1009040,rumeau/belongsto-depend,
3119473,1009051,thujohn/packagist-l4,
502406,1009173,cmizzi/laravel-command-alias,
324660,1009283,mikemand/pagination,
415460,1009324,ngmy/phpinfocmp,
603779,1009332,TiDJ/laravel-custom-html,
25790,1009492,absalomedia/kilns,
651217,1009543,amirulahmad/laravel-imageupload-intervention,
569006,1009550,austinkregel/formmodel,
602492,1009748,tedslittlerobot/l4-support,
222187,1009756,djamesfar/bake,
445713,1009785,phuclh/nova-vnd-field,
181950,1009789,chx2/EasyDocs,
166137,1009811,bobbybouwmann/entry,
629030,1009855,wolfrednicolas/wolfred-twilio,
181476,1009900,chrispecoraro/wikipedia-tools,
520474,1009911,IsraelOrtuno/page,
78236,1009914,gabrielkoerich/service-manager,
566409,1009919,jpcaparas/box-laravel,
370525,1010029,mrsimonbennett/commander,
228321,1010040,dowilcox/BladeView,
753380,1010051,sagarrabadiya/bootstrap_handy_validations,
1053394,1010074,danrovito/StrRandom,
563937,1010120,jonasof/array-circle-fetch,
804825,1010209,studio-net/toast-notifications,
604740,1010261,ToxaGeek/laravel-wg-api,
3082188,1010355,jacob-hyde/Printify-PHP-SDK,
569024,1010399,metabitco/transform,
365245,1010435,Modelizer/multi-tenant,
431343,1010443,oakwood/wp-theme,
292260,1010466,InteractionDesignFoundation/laravel-real-email-validation,
515661,1011009,Darovi/Commander,
597737,1011321,1f991/patreon-php,
1236564,1012709,chemerisuk/cordova-plugin-firebase-config,
775158,1012885,daviddt/jquery-plugin,
1219738,1013762,meisterplayer/media-dash,
1996936,1013830,smashingpat/bundel,
3460762,1014444,sora0077/PredicateKit,
675425,1014937,jakeheis/Git,
3460790,1015259,isaac-weisberg/HalfFive,
3460805,1015516,mitsuse/screen-container,
981371,1015710,gibachan/XmlDict,
3460801,1015837,brentleyjones/xcconfigs,
1667423,1015978,ferranpujolcamins/mixxx-controller-script-sequencer,
58207,1016523,AIbnuHIbban/Laravel-with-Livewire-Setup,
2080200,1016641,hellobloom/share-kit-react,
310450,1016763,jildertmiedema/windows-phone-push,
965361,1017160,StardewConfigMenu/StardewConfigFramework,
2284860,1017415,deshiknaves/cypress-msw-interceptor,
1299530,1017470,GaborWnuk/react-native-imagepreview,
1818318,1017716,jcfrancisco/carlo-js,
1141525,1018011,Commander-lol/Sideburns,
1323913,1018118,lechinoix/react-snake,
3086121,1018472,yondifon/laravel-graphiql,
2374112,1019087,Nexapp/react-native-scrollable-with-collapsible-header,
2241560,1019163,echobind/launchbox,
3079666,1019711,glendemon/phpexcel-wrapper,
1589929,1019958,mondora/gemfury-publish,
3081392,1021021,masif088/libtol,
1501253,1021728,RajnishDashora/All-Doer,
3109728,1021756,suqld/otrs,
2162072,1022049,MatiseAms/create-matise-nuxt,
3035577,1022546,Nasajon/gclick_sdk,
3035594,1022562,ricardovezetiv/pythonpro-libpythonpro,
3035599,1022568,FireHead90544/stack.py,
3035580,1022575,valknight/loadstar,
3035585,1022577,EwetoyeIbrahim/flask-odoo-graphql,
3035597,1022586,aboucaud/galcheat,
3035601,1022587,walnutgeek/azfiles,
254228,1025090,ferrl/framework,
1386316,1026631,krutoo/packmar.js,
435205,1026638,sima-land/yii2-logstock,
2045167,1026695,ark120202/dota-data,
3162104,1026779,dianas11xx/MoodipyTest,
1781256,1026845,uktrade/trade-elements,
655319,1027199,caiyunapp/caiyun-weather-api-python-sdk,
2052273,1027464,egemenhalici1/react-input-with-popup,
3118425,1028238,therealgambo/ramlfications-php,
448201,1028576,pjkui/kindeditor,
309021,66,katzj/test-python-package,
3231943,69,tidelift/dotyaml,
3343932,207,tiegz/kadoku,
641761,256,Kami/python-yubico-client,
3432097,349,OpenSourceOrg/rust-opensource,
2402317,362,todogroup/repolinter,
1908628,484,ipfs-inactive/npm-go-ipfs-dep,
1954274,563,ipfs-shipyard/ipfs-deploy,
3313031,798,malditogeek/redisrecord,
3347016,816,maclover7/trix,
769181,929,samjacobclift/help-wanted-gh-issues,
3247246,939,barisbalic/gamertag,
1479613,975,bengourley/slugg,
2003853,1051,splashinn/nog,
380365,1170,olizilla/asciify,
3287704,1290,djpowers/musicgraph,
3337597,1386,kdaigle/strapper,
3346842,1693,hendrixfan/triangle,
1616458,1967,anthonyringoet/heap-server,
1132305,1999,martinvd/prepend-file-cli,
159236,2009,willingc/circuitpython_kernel,
3210202,2178,sclinede/blood_contracts,
1587562,2204,nelsonic/github-scraper,
868019,3075,JakeWharton/ViewPagerIndicator,
1172106,3311,jamesgpearce/monomi,
489179,3334,jparise/python-reloader,
1451792,3364,jpeddicord/askalono,
627363,3412,willnorris/wordpress-license,
57195,3438,50Wliu/language-sourcepawn,
3517340,3453,88250/city-geo,
326054,3879,Akasurde/Mahadiscom,
642890,3932,AkihiroSuda/z42,
1653874,3989,akyoto/load-class,
3264927,4386,amatsuda/jb,
1618702,4517,andrewda/hltv-livescore,
2564938,4580,postalsys/imapflow,
112233,4710,andybons/ABVariants,
23025,4853,ararslan/Jackknife.jl,
379380,5339,astorije/chai-immutable,
1659353,5374,axic/mango-admin,
128909,5454,b3none/steam-id-converter,
1929845,5554,BaseMax/FilterInputJs,
1167037,5830,bbondy/abp-filter-parser,
3092905,6056,pborreli/composer-service,
2441753,6217,borderless/unfurl,
1851096,6309,boopathi/react-svg-loader,
3283583,6388,bogdanvlviv/minitest-mock_expectations,
3439710,6421,brauner/rlxc,
1281727,6450,bsclifton/poker.js,
1336126,6579,cblecker/hyper-quit,
1903889,6691,cezaraugusto/mklicense,
1612035,6750,cheshire137/gulp-ruby-haml,
1747008,6831,chicoxyzzy/rx-mobx,
3319696,6855,colby-swandale/rubocop-github-annotations-formatter,
1625639,6916,d3viant0ne/hyperterm-base16-tomorrow-dark,
3419403,6956,cyphar/initrs,
1655896,7179,dasilvacontin/ludumpad,
336450,7290,datapythonista/mnist,
974817,7291,daveaglick/Scripty,
1718790,7330,denar90/psi-ngrok,
1781991,7558,devversion/travis-after-modes,
378870,7595,Dexus/pem,
1246133,7597,Dexus-Forks/cordova-plugin-ironSource,
203665,7634,disposable-email-domains/python-disposable-email-domains,
899840,7673,dlemstra/Magick.NET,
3386538,7771,dynamitechetan/razorpay_flutter,
500169,7901,endocrimes/Jay,
1706011,8067,evantahler/nodePhidgets,
1152038,8121,FagnerMartinsBrack/str-replace,
183441,8139,feiskyer/python-cri,
3358937,8147,Fivell/yatran,
2460323,8241,webtorrent/fs-chunk-store,
98340,8285,freak4pc/UIView-Positioning,
1601884,8293,frewsxcv/graphosaurus,
2291193,8392,GantMan/jail-monkey,
169679,8511,GwendolenLynch/Carbon,
1625391,8539,gyandeeps/hypernpm,
1457596,8652,helfer/graphql-disable-introspection,
703586,8872,icecrime/RateLimiting,
379925,9210,jayphelps/core-decorators,
261012,9303,jayvdb/flake8-putty,
1308829,9366,jdalton/docdown,
1588668,9694,jdorfman/g20,
36073,9762,jglovier/fizzy,
3423059,9811,jimmidyson/rcm,
3312564,9843,jisaacks/recurse-delete,
707534,9889,laf/russound,
973219,9903,Krzysztof-Cieslak/RemoveObj,
2149731,9945,lahmatiy/open-in-editor,
84118,9996,lee-dohm/tabs-to-spaces,
3214608,10157,thattommyhall/capistrano-elb,
472864,10217,rodnaph/morgan,
1826480,10470,lucasbento/react-native-thumbnail-video,
3430,10505,Lukasa/requests-ftp,
1698890,10544,makoscafee/gulp-gae,
1594463,10614,marcosmoura/generator-scaffold,
605977,10630,Mariatta/tic_tac_taco_pizza,
794134,10683,leggetter/pusher-js-client-auth,
1936958,10831,matchai/ts-quick,
302053,11037,bd808/python-iptools,
3302551,11591,mmozuras/poper,
315930,11680,nasirhjafri/libyear,
1503782,11688,ncoden/angular-pseudo-class,
2124860,11721,ndelangen/corejs-upgrade-webpack-plugin,
263282,11742,nicolaiarocci/flask-mimerender,
856440,11786,nmilcoff/EasyTipView,
1389962,11799,novemberborn/ksuid,
215346,11800,olasitarska/django-gulp-rev,
3278992,11892,olivierlacan/mandrillus,
127371,11995,ParthS007/background,
1501384,12015,parkr/all-your-github-are-belong-to-us,
751012,12138,paulfalgout/backbone-moment,
3242841,12480,pboling/flag_shih_tzu,
1942840,12528,pbugnion/gmaps,
496011,12615,schlessera/wp-cli-psysh,
1801841,12679,shockey/workfrom,
1374023,12706,simskij/dotty-cli,
405055,12896,stevemao/github-remove-all-releases,
1831974,13215,styfle/react-server-example-tsx,
1838052,13270,swissspidy/local-webfont,
474511,13403,tapaswenipathak/pyQTopic,
700310,13497,The-Compiler/pytest-vw,
395132,13526,TheSavior/rewire-global,
2243949,13750,electron-modules/network-interface,
1512865,13789,app-bootstrap/autoresponsive_react_native_sample_android_ci,
1432918,13982,yavorsky/bundle-utils,
3225866,14192,despo/cyprus-street-names,
1223497,14220,muan/emojilib,
2416689,14781,cwaring/vuepress-plugin-ipfs,
413595,14842,daviddias/webrtc-explorer,
756135,14971,decentralion/chartographer,
3395905,15040,dignifiedquire/async-tar,
1849975,15142,hacdias/electron-menubar,
1932115,15199,hugomrdias/prettier-stylelint,
1784665,15398,marcooliveira/node-twitter-pic,
1782922,15442,nicola/tubemaps,
1726461,15577,travisperson/react-hexviewer,
2492798,15708,vasco-santos/dns-over-http-resolver,
3401077,15990,Aaron1011/cargo-urlcrate,
1906019,16154,AquiGorka/kanpo,
608826,16226,AuHau/toggl-cli,
388849,16243,balupton/simple-server,
292043,16274,cboddy/i3-workspace-names-daemon,
1942401,16320,davidar/pandiff,
2060870,16387,dankelleher/insomnia-plugin-aws-iam,
3066631,16589,Luzifer/git-changerelease,
498498,16703,marten-seemann/OXID_recaptcha,
1630176,16754,nginnever/ippm,
259399,17265,Seenivasanseeni/FirstPIP,
1871503,17342,vasa-develop/redux-cross-fetch,
411315,17509,vmx/jslens,
2084078,17574,zebateira/react-use-system-theme,
1259753,17598,yangwao/skCube-data-collector,
1600998,18000,aheckmann/gm,
105415,18148,apemsel/AttributedString,
1172720,18258,atsuya/parallel-mocha,
3220217,18292,braintreeps/cocoapods-archive,
800400,18480,dodo/node-slug,
1550360,18546,teemow/node-dawanda,
404861,18618,tim-smart/async-array,
808992,18728,tmpvar/weld,
3294920,18957,vesan/omnifocus-trello,
748388,18969,teropa/angular-virtual-dom,
3271010,19112,agoddard/knife-ghost,
3289881,19155,azet/NetApp.rb,
3350600,19178,c10l/vagrant-butcher,
3355551,19288,kisoku/whisk,
3212802,19315,joemiller/bunchr,
3218742,19384,lozzd/cisco-config-parse,
63577,19439,KrisBuytaert/puppet-packetbeat,
712977,19455,mconigliaro/smtptester,
3291227,19468,lusis/Noah,
3270938,19542,mdxp/knife-backup,
1668932,19656,adufilie/MobxPromise,
140539,19753,agoodm/binconvert,
67094,19834,akrabat/slim3-skeleton,
771397,19937,aliok/ion-affix,
3208714,1,librariesio/bibliothecary,
414100,92,andrew/node-xbox-controller,
3195534,402,splitrb/split,
2596183,411,ipfs/go-ipfs,
2043341,692,apache/echarts,
3206499,1253,marcandre/backports,
761240,1526,timruffles/mobile-drag-drop,
575805,1708,SocialiteProviders/Manager,
485923,1910,Moya/Moya,
3226246,1931,danger/danger,
2065335,2128,rtfpessoa/diff2html,
2416910,2686,RichardLitt/standard-readme,
3231839,2971,bkeepers/dotenv,
751030,3504,afeld/backbone-nested,
2218639,3618,ahmadawais/create-guten-block,
1863628,3816,ai/nanoid,
2634950,3911,containerd/nerdctl,
67532,4013,alcaeus/mongo-php-adapter,
67614,4030,alcohol/iso4217,
2268840,4137,alexellis/k3sup,
542313,4468,amjith/fuzzyfinder,
777257,4565,andris9/jStorage,
1144051,4723,appleboy/react-recaptcha,
2094413,4888,arcanis/pnp-webpack-plugin,
3461029,4980,ashfurrow/Nimble-Snapshots,
3395475,5074,ashleygwilliams/assert_approx_eq,
1265411,5268,aweary/react-perimeter,
1732153,5512,balloob/react-sidebar,
123213,5862,berkerpeksag/astor,
2297649,5873,bevacqua/dragula,
2185514,6140,bnb/bitandbang,
1395217,6202,blakeembrey/change-case,
2684647,6490,caarlos0/env,
383953,6612,ahmadnassri/node-har-validator,
1582849,6843,clauderic/react-sortable-hoc,
1152620,6862,cpojer/js-codemod,
747554,6901,crisbeto/angular-svg-round-progressbar,
3213220,7316,deivid-rodriguez/byebug,
660962,7369,DenisCarriere/geocoder,
2580366,7428,denysdovhan/wtfjs,
1972562,7429,spaceship-prompt/spaceship-prompt,
623599,7628,di/vladiate,
1410579,7675,diegohaz/constate,
292028,7879,enkore/i3pystatus,
1891901,8152,feross/simple-peer,
2551808,8671,hiroppy/fusuma,
3414116,8800,Hoverbear/getset,
2149299,8894,iarna/iarna-toml,
1855081,9017,iddan/react-native-canvas,
3308857,9120,indirect/rails3-generators,
2091989,9371,jamiebuilds/react-loadable,
331226,9957,lchrusciel/ApiTestCase,
3224143,10301,tobias/credit_card_validator,
357767,10388,ljharb/qs,
86165,10449,lk-geimfari/mimesis,
387874,10762,MarshallOfSound/electron-devtools-installer,
3431804,10913,matklad/once_cell,
690704,11121,mitsuhiko/pipsi,
263448,11142,pallets-eco/flask-openid,
1721987,11272,mikeal/r2,
2762448,11642,mvdan/sh,
386296,11937,papandreou/node-cldr,
356077,12151,paulmillr/chokidar,
1230873,12202,PatrickJS/angular-starter,
2255016,12556,sallar/stringz,
3495048,12632,sferik/t,
188261,12713,skywinder/GaugeKit,
715733,12751,sivel/speedtest-cli,
45258,12817,sobolevn/git-secret,
1444709,12852,sokra/rawact,
3292923,12874,st0012/object_tracer,
1549769,13018,staltz/xstream,
180037,13250,sunshinejr/SwiftyUserDefaults,
1996848,13315,swapagarwal/geeksay,
45429,13572,tianon/gosu,
612183,13661,timofurrer/try,
1148742,13737,xudafeng/autoresponsive-react,
2411689,13847,xtuc/webassemblyjs,
2164579,14115,zpao/qrcode.react,
3281089,14157,arthurnn/memcached,
2149498,14434,achingbrain/pm2-web,
1461244,14563,alanshaw/markdown-pdf,
1130039,15242,jbenet/transformer,
3450437,15609,Stebalien/tempfile,
3498064,15762,whyrusleeping/gx,
464420,16399,koalalorenzo/python-digitalocean,
2801475,16852,moul/assh,
1680786,17386,victorb/ngProgress,
378978,18159,astro/node-expat,
2503858,18298,bcoe/c8,
3209473,19043,zapnap/resque_mailer,
3228175,19255,danielsdeleo/deep_merge,
3254935,19588,rodjek/puppet-lint,
285143,1411324,burnash/gspread,
1167136,1411336,mathjax/MathJax,
79769,1411399,huggingface/datasets,
225276,1495934,doctrine/orm,
148297,1505205,FortAwesome/Font-Awesome,
271943,1506653,doctrine-extensions/DoctrineExtensions,
278591,1508819,guzzle/guzzle,
2048407,1513437,select2/select2,
329180,1518244,laravel/framework,
366744,1524252,Seldaek/monolog,
369311,1524518,mpdf/mpdf,
782415,1528393,onokumus/metismenu,
650530,1528859,orchestral/testbench,
445348,1531859,phpstan/phpstan,
445466,1532225,sebastianbergmann/phpunit,
472432,1539666,cakephp/phinx,
560436,1544414,slimphp/Slim,
3494505,1572425,wp-cli/wp-cli,
3448588,1601072,TeXitoi/structopt,
2613797,1639746,andybalholm/brotli,
