project_id,repository_id,project_name,repository_url,score_last_calculated,security_scan_score,scaled_security_scan_score
429671,1957,orgmanager,https://github.com/orgmanager/orgmanager,,5.8/10,58.0
152902,2476,python-charlie,https://github.com/paultag/python-charlie,,4.7/10,47.0
1024242,7038,prometheus-net.SystemMetrics,https://github.com/Daniel15/prometheus-net.SystemMetrics,,4.3/10,43.0
513379,7082,dictator,https://github.com/danielbachhuber/dictator,,,
839598,7494,Devlead.Console.Template,https://github.com/devlead/Devlead.Console.Template,,4.1/10,41.0
1152361,10413,obsolete-string-at,https://github.com/ljharb/string-at,,4.5/10,45.0
37547,10909,puppet-erlang,https://github.com/dcarley/puppet-erlang,,4.5/10,45.0
433749,11860,prophecy-common,https://github.com/pamil/prophecy-common,,4.0/10,40.0
3246215,13309,freshmaker,https://github.com/talsafran/freshmaker,,4.5/10,45.0
1670162,14024,mona,https://github.com/zkat/mona,,4.7/10,47.0
3242604,18049,fitnesspark_api,https://github.com/alexanderadam/fitnesspark_api,,5.5/10,55.0
1700459,18432,oy,https://github.com/cistov/oy,,4.5/10,45.0
185500,18447,Shanty-Mongo,https://github.com/coen-hyde/Shanty-Mongo,,4.7/10,47.0
876057,20589,SurfStat,https://github.com/blachniet/SurfStat,,3.5/10,35.0
750804,24202,Backbone.Do,https://github.com/neocotic/Backbone.Do,,4.3/10,
441195,25016,phormium,https://github.com/ihabunek/phormium,,4.9/10,49.0
1587915,28137,lgr,https://github.com/mayank/fwrite-logger,,4.7/10,47.0
1339429,28951,async-rect,https://github.com/nolanlawson/async-rect,,4.7/10,47.0
1339503,29953,electron-utils,https://github.com/stanleyxu2005/electron-lib,,4.4/10,44.0
1320382,31945,gulp-bugsnag,https://github.com/bugsnag/gulp-bugsnag,,5.3/10,53.0
1663614,32128,js-ipld-graph-builder,https://github.com/wanderer/merkle-trie,,4.9/10,49.0
2466457,32981,webpack-config-github,https://github.com/github/webpack-config-github,,5.9/10,59.0
1262880,33253,govuk-country-and-territory-autocomplete,https://github.com/alphagov/openregister-location-picker,,6.5/10,65.0
1890437,35395,concurrently,https://github.com/kimmobrunfeldt/concurrently,,4.4/10,44.0
579484,35692,ID3Parser,https://github.com/LukasReschke/ID3Parser,,5.7/10,57.0
373087,36058,micro,https://github.com/mzdr/micro,,4.8/10,48.0
1659277,36660,mariasql-promise,https://github.com/steelbrain/mariasql-promise,,5.4/10,54.0
420218,37011,lumen-oauth2,https://github.com/digiaonline/lumen-oauth2,,4.9/10,49.0
1372491,37570,rsp-client,https://github.com/sudhirverma/ssp-client,,5.3/10,53.0
1050954,38094,Tyche,https://github.com/TycheOrg/Tyche,,4.7/10,47.0
2163275,43065,vue-link-preview,https://github.com/ashwamegh/link-preview-vue,,5.8/10,58.0
39234,43899,orglink,https://github.com/tarsius/orglink,,5.4/10,54.0
43041,44269,emacs-shfmt,https://github.com/purcell/emacs-shfmt,,4.6/10,46.0
966214,47497,Tumbaga,https://github.com/dotCypress/Tumbaga,,4.7/10,47.0
89878,47929,petems-hddtemp,https://github.com/petems/petems-hddtemp,,4.9/10,49.0
1895800,49659,coworking-with,https://github.com/koddsson/coworking-with,,4.1/10,41.0
2320921,49971,isTypedArray,https://github.com/Trott/isTypedArray,,5.8/10,58.0
571532,1000085,mautic-act-on-bundle,https://github.com/kuzmany/mautic-act-on-bundle,,4.6/10,46.0
269885,1000088,plugin-messagebird,https://github.com/galvani/plugin-messagebird,,4.6/10,46.0
1497614,1000211,actions-on-lambda,https://github.com/mikegillis677/actions-on-lambda,,4.4/10,44.0
435226,1000220,cartesian-iterator,https://github.com/PatchRanger/cartesian-iterator,,5.5/10,55.0
3120292,1000317,tb-form,https://github.com/TonyBogdanov/tb-form,,4.4/10,44.0
49759,1000413,Assembly,https://github.com/ahkui/Assembly,,4.4/10,44.0
3102420,1000506,smf-dummy-package,https://github.com/kermorgant/smf-dummy-package,,4.4/10,44.0
111123,1000536,seo,https://github.com/arkadiusjonczek/seo,,4.6/10,46.0
264366,1000559,sparql,https://github.com/freearhey/sparql,,4.6/10,46.0
234344,1000602,php-environment,https://github.com/ed-fruty/php-environment,,4.4/10,44.0
155092,1000615,yii2-sidecar-gitter,https://github.com/bookin/yii2-sidecar-gitter,,4.4/10,44.0
536837,1000721,skypium,https://github.com/exfriend/skypium,,4.5/10,45.0
495970,1001065,laravel-api,https://github.com/Shchepotin/laravel-api,,4.9/10,49.0
632083,1001076,cakephp-sparkpost,https://github.com/wvdongen/cakephp-sparkpost,,5.4/10,54.0
3104944,1001113,geo-uk-postcode,https://github.com/ssx/geo-uk-postcode,,4.7/10,47.0
616292,1001232,file-explorer,https://github.com/vjrngn/file-explorer,,4.6/10,46.0
3120677,1001325,gitlab-client,https://github.com/torzer/gitlab-client,,4.4/10,44.0
164968,1001401,laravel-query-log,https://github.com/ByZer0/laravel-query-log,,4.4/10,44.0
608149,1001444,silhouette,https://github.com/twmbx/silhouette,,4.4/10,44.0
211190,1001503,laravel-image-tool,https://github.com/DearMadMan/laravel-image-tool,,4.7/10,47.0
304698,1001640,dot-migrations,https://github.com/JapSeyz/dot-migrations,,5.7/10,57.0
526020,1001661,qr_code_attendance,https://github.com/shinde-rahul/qr_code_attendance,,4.4/10,44.0
1404517,1001840,vue-bootstrap-3,https://github.com/khoanguyen96/vue-bootstrap3,,4.7/10,47.0
794546,1001928,qm-redirector,https://github.com/mikepsinn/qm-redirector,,4.6/10,
602188,1002131,php-bits,https://github.com/TitasGailius/php-bits,,4.4/10,44.0
366649,1002261,smithclientcurl,https://github.com/coffee-addon/smithclientcurl,,4.5/10,45.0
2271932,1002291,adonis-oauth2-provider,https://github.com/ruanitto/adonis-oauth2-provider,,4.4/10,44.0
522942,1002310,booking-api,https://github.com/dgtal/booking-api,,4.4/10,44.0
310468,1002424,statamic-addon-mapbox,https://github.com/jimblue/statamic-addon-mapbox,,,
601306,1002576,skeleton-package-openapi,https://github.com/tigron/skeleton-package-openapi,,4.4/10,44.0
453297,1002701,primas-api-sdk-php,https://github.com/primasio/primas-api-sdk-php,,4.4/10,44.0
440804,1002810,Philwinkle_Fixerio,https://github.com/philwinkle/Philwinkle_Fixerio,,4.7/10,47.0
1360307,1003750,begeta-prototype,https://github.com/biigpongsatorn/begeta-prototype,,4.7/10,47.0
3124777,1003990,symfony-console-app,https://github.com/voronkovich/symfony-console-app,,4.4/10,44.0
357334,1004034,cms,https://github.com/hollodk/cms,,4.5/10,45.0
123973,1004041,test-bundle,https://github.com/avinsol/test-bundle,,4.4/10,44.0
632919,1004060,workon,https://github.com/afjlambert/workon,,4.4/10,44.0
375577,1004107,heartbeating-job-runner,https://github.com/nbj/heartbeating-job-runner,,4.5/10,45.0
646890,1004114,ZenMail,https://github.com/mashware/ZenMail,,4.4/10,44.0
252271,1004197,SettingsBundle,https://github.com/Fbeen/SettingsBundle,,4.5/10,45.0
269877,1004252,xacml,https://github.com/galmi/xacml,,4.4/10,44.0
651238,1004369,apdex,https://github.com/pepperreport/apdex,,5.2/10,52.0
254246,1004463,pChart,https://github.com/fertandil87/pChart,,4.4/10,44.0
3105998,1005076,tico,https://github.com/stefthoen/tico,,4.4/10,44.0
614305,1005298,slime-framework,https://github.com/vikkio88/slime-framework,,4.6/10,46.0
461548,1005861,python-pytest-data,https://github.com/horejsek/python-pytest-data,,5.5/10,55.0
3124662,1005974,laravel-auth-management,https://github.com/vongola12324/laravel-auth-management,,4.8/10,48.0
545643,1006143,LaravelGettext,https://github.com/Crinsane/LaravelGettext,,4.5/10,45.0
144723,1006191,nova-laravel-update-card,https://github.com/beyondcode/nova-laravel-update-card,,4.5/10,45.0
454409,1006248,smartOutput,https://github.com/professorhaseeb/smartOutput,,4.6/10,46.0
36763,1006748,nanoftpd,https://github.com/adamdburton/nanoftpd,,4.4/10,44.0
475666,1006772,WhatsNew,https://github.com/rorichster/WhatsNew,,4.4/10,44.0
3091292,1007010,ptdot-button-back,https://github.com/opanegro/ptdot-button-back,,4.5/10,45.0
697438,1007517,pymcaspec,https://github.com/mpmdean/pymcaspec,,4.3/10,43.0
363134,1007990,oauth2-youtube,https://github.com/mitchwilliamson/oauth2-youtube,,4.4/10,44.0
2387274,1008175,is-is-useless,https://github.com/sample-text-here/is-is-useless,,4.4/10,44.0
3362532,1008779,ucg,https://github.com/monban/ucg,,4.6/10,46.0
3106201,1009020,daw-php-pagination,https://github.com/dev-and-web/daw-php-pagination,,4.5/10,45.0
481012,1009040,belongsto-depend,https://github.com/rumeau/belongsto-depend,,4.4/10,44.0
3119473,1009051,packagist-l4,https://github.com/thujohn/packagist-l4,,4.4/10,44.0
502406,1009173,laravel-command-alias,https://github.com/cmizzi/laravel-command-alias,,4.5/10,45.0
324660,1009283,pagination,https://github.com/mikemand/pagination,,4.5/10,45.0
415460,1009324,phpinfocmp,https://github.com/ngmy/phpinfocmp,,4.7/10,47.0
603779,1009332,laravel-custom-html,https://github.com/TiDJ/laravel-custom-html,,4.6/10,46.0
25790,1009492,kilns,https://github.com/absalomedia/kilns,,4.7/10,47.0
651217,1009543,laravel-imageupload-intervention,https://github.com/amirulahmad/laravel-imageupload-intervention,,4.4/10,44.0
569006,1009550,formmodel,https://github.com/austinkregel/formmodel,,4.8/10,48.0
602492,1009748,l4-support,https://github.com/tedslittlerobot/l4-support,,5.0/10,50.0
222187,1009756,bake,https://github.com/djamesfar/bake,,5.0/10,50.0
445713,1009785,nova-vnd-field,https://github.com/phuclh/nova-vnd-field,,5.0/10,50.0
181950,1009789,EasyDocs,https://github.com/chx2/EasyDocs,,4.7/10,47.0
166137,1009811,entry,https://github.com/blackbirddev/entry,,5.3/10,53.0
629030,1009855,wolfred-twilio,https://github.com/wolfrednicolas/wolfred-twilio,,4.4/10,44.0
181476,1009900,wikipedia-tools,https://github.com/chrispecoraro/wikipedia-tools,,4.5/10,45.0
520474,1009911,page,https://github.com/IsraelOrtuno/page,,4.4/10,44.0
78236,1009914,service-manager,https://github.com/gabrielkoerich/service-manager,,4.4/10,44.0
566409,1009919,box-laravel,https://github.com/jpcaparas/box-laravel,,5.5/10,55.0
370525,1010029,commander,https://github.com/mrsimonbennett/commander,,4.4/10,44.0
228321,1010040,BladeView,https://github.com/dowilcox/BladeView,,5.5/10,55.0
753380,1010051,bootstrap_handy_validations,https://github.com/sagarrabadiya/bootstrap_handy_validations,,4.4/10,
1053394,1010074,StrRandom,https://github.com/danrovito/StrRandom,,4.7/10,47.0
563937,1010120,array-circle-fetch,https://github.com/jonasof/array-circle-fetch,,4.4/10,44.0
804825,1010209,toast-notifications,https://github.com/cmizzi/toast-notifications.git,,,
604740,1010261,laravel-wg-api,https://github.com/ToxaGeek/laravel-wg-api,,4.4/10,44.0
3082188,1010355,Printify-PHP-SDK,https://github.com/jacob-hyde/Printify-PHP-SDK,,5.4/10,54.0
569024,1010399,transform,https://github.com/kbcomputers/transform,,4.5/10,45.0
365245,1010435,multi-tenant,https://github.com/Modelizer/multi-tenant,,4.4/10,44.0
431343,1010443,wp-theme,https://github.com/oakwood/wp-theme,,4.4/10,44.0
292260,1010466,laravel-real-email-validation,https://github.com/InteractionDesignFoundation/laravel-real-email-validation,,5.2/10,52.0
515661,1011009,Commander,https://github.com/Darovi/Commander,,4.7/10,47.0
597737,1011321,patreon-php,https://github.com/1f991/patreon-php,,4.3/10,43.0
1236564,1012709,cordova-plugin-firebase-config,https://github.com/chemerisuk/cordova-plugin-firebase-remoteconfig,,4.7/10,47.0
775158,1012885,jquery-plugin,https://github.com/daviddt/jquery-plugin,,4.4/10,
1219738,1013762,media-dash,https://github.com/meisterplayer/media-dash,,5.2/10,52.0
1996936,1013830,bundel,https://github.com/smashingpat/bundel,,4.4/10,44.0
3460762,1014444,PredicateKit,https://github.com/sora0077/PredicateKit,,4.4/10,44.0
675425,1014937,Git,https://github.com/jakeheis/Git,,4.4/10,44.0
3460790,1015259,HalfFive,https://github.com/isaac-weisberg/HalfFive,,4.5/10,45.0
3460805,1015516,screen-container,https://github.com/mitsuse/screen-container,,4.5/10,45.0
981371,1015710,XmlDict,https://github.com/gibachan/XmlDict,,4.4/10,44.0
3460801,1015837,xcconfigs,https://github.com/brentleyjones/xcconfigs,,4.6/10,46.0
1667423,1015978,mixxx-controller-script-sequencer,https://github.com/ferranpujolcamins/mixxx-controller-script-sequencer,,4.4/10,44.0
58207,1016523,Laravel-with-Livewire-Setup,https://github.com/AIbnuHIbban/Laravel-with-Livewire-Setup,,3.4/10,34.0
2080200,1016641,share-kit-react,https://github.com/hellobloom/share-kit-react,,4.6/10,46.0
310450,1016763,windows-phone-push,https://github.com/jildertmiedema/windows-phone-push,,4.4/10,44.0
965361,1017160,StardewConfigFramework,https://github.com/StardewConfigMenu/StardewConfigFramework,,3.8/10,38.0
2284860,1017415,cypress-msw-interceptor,https://github.com/deshiknaves/cypress-msw-interceptor,,5.7/10,57.0
1299530,1017470,react-native-imagepreview,https://github.com/GaborWnuk/react-native-imagepreview,,4.5/10,45.0
1818318,1017716,carlo-js,https://github.com/jcfrancisco/carlo-js,,4.4/10,44.0
1141525,1018011,Sideburns,https://github.com/BuyPro/Sideburns,,4.6/10,46.0
1323913,1018118,react-snake,https://github.com/lechinoix/react-snake,,4.6/10,46.0
3086121,1018472,laravel-graphiql,https://github.com/yondifon/laravel-graphiql,,6.5/10,65.0
2374112,1019087,react-native-scrollable-with-collapsible-header,https://github.com/Nexapp/react-native-scrollable-with-collapsable-header,,4.5/10,45.0
2241560,1019163,launchbox,https://github.com/echobind/launchbox,,5.1/10,51.0
3079666,1019711,phpexcel-wrapper,https://github.com/glendemon/phpexcel-wrapper,,4.4/10,44.0
1589929,1019958,gemfury-publish,https://github.com/mondora/gemfury-publish,,5.8/10,58.0
3081392,1021021,libtol,https://github.com/masif088/libtol,,4.5/10,45.0
1501253,1021728,All-Doer,https://github.com/RajnishDashora/All-Doer,,4.4/10,44.0
3109728,1021756,otrs,https://github.com/suqld/otrs,,4.5/10,45.0
2162072,1022049,create-matise-nuxt,https://github.com/matiseams/create-matise-nuxt,,4.4/10,44.0
3035577,1022546,gclick_sdk,https://github.com/Nasajon/gclick_sdk,,3.5/10,35.0
3035594,1022562,pythonpro-libpythonpro,https://github.com/ricardovezetiv/libpythonpro,,5.7/10,57.0
3035599,1022568,stack.py,https://github.com/FireHead90544/stack,,4.5/10,45.0
3035580,1022575,loadstar,https://github.com/valknight/loadstar,,4.4/10,44.0
3035585,1022577,flask-odoo-graphql,https://github.com/EwetoyeIbrahim/flask-odoo-graphql,,,
3035597,1022586,galcheat,https://github.com/aboucaud/galcheat,,4.5/10,45.0
3035601,1022587,azfiles,https://github.com/walnutgeek/azfiles,,5.5/10,55.0
254228,1025090,framework,https://github.com/ferrl/framework,,4.5/10,45.0
1386316,1026631,packmar.js,https://github.com/krutoo/packmar.js,,3.8/10,38.0
435205,1026638,yii2-logstock,https://github.com/pastuhov/yii2-logstock,,5.6/10,56.0
2045167,1026695,dota-data,https://github.com/ark120202/dota-data,,3.5/10,35.0
3162104,1026779,MoodipyTest,https://github.com/dianas11xx/MoodipyTest,,4.4/10,44.0
1781256,1026845,trade-elements,https://github.com/uktrade/trade-elements,,4.7/10,47.0
655319,1027199,caiyun-weather-api-python-sdk,https://github.com/caiyunapp/caiyun-weather-api-python-sdk,,4.6/10,46.0
2052273,1027464,react-input-with-popup,https://github.com/egemenhalici1/react-input-with-popup,,4.5/10,45.0
3118425,1028238,ramlfications-php,https://github.com/therealgambo/ramlfications-php,,4.4/10,44.0
448201,1028576,kindeditor,https://github.com/pjkui/kindeditor,,4.5/10,45.0
309021,66,test-python-package,https://github.com/katzj/test-python-package,,4.7/10,47.0
3231943,69,dotyaml,https://github.com/dependencyci/dotyaml,,5.1/10,51.0
3343932,207,kadoku,https://github.com/tiegz/kadoku,,4.5/10,45.0
641761,256,python-yubico-client,https://github.com/Kami/python-yubico-client,,4.8/10,48.0
3432097,349,rust-opensource,https://github.com/OpenSourceOrg/rust-opensource,,4.7/10,47.0
2402317,362,repolinter,https://github.com/todogroup/repolinter,,5.4/10,54.0
1908628,484,npm-go-ipfs-dep,https://github.com/ipfs/npm-go-ipfs-dep,,4.2/10,42.0
1954274,563,ipfs-deploy,https://github.com/agentofuser/ipfs-deploy,,4.5/10,45.0
3313031,798,redisrecord,https://github.com/malditogeek/redisrecord,,4.6/10,46.0
3347016,816,trix,https://github.com/maclover7/trix,,5.2/10,52.0
769181,929,help-wanted-gh-issues,https://github.com/royka/help-wanted-gh-issues,,,
3247246,939,gamertag,https://github.com/barisbalic/gamertag,,4.4/10,44.0
1479613,975,slugg,https://github.com/bengourley/slugg,,4.7/10,47.0
2003853,1051,nog,https://github.com/splashinn/nog,,5.6/10,56.0
380365,1170,asciify,https://github.com/olizilla/asciify,,4.9/10,49.0
3287704,1290,musicgraph,https://github.com/djpowers/musicgraph,,4.6/10,46.0
3337597,1386,strapper,https://github.com/kdaigle/strapper,,4.7/10,47.0
3346842,1693,triangle,https://github.com/hendrixfan/triangle,,4.1/10,41.0
1616458,1967,heap-server,https://github.com/anthonyringoet/heap-server,,4.9/10,49.0
1132305,1999,prepend-file-cli,https://github.com/martinvd/prepend-file-cli,,4.7/10,47.0
159236,2009,circuitpython_kernel,https://github.com/willingc/circuitpython_kernel,,5.7/10,57.0
3210202,2178,blood_contracts,https://github.com/sclinede/blood_contracts,,4.6/10,46.0
1587562,2204,github-scraper,https://github.com/nelsonic/fuata,,5.0/10,50.0
868019,3075,ViewPagerIndicator,https://github.com/JakeWharton/ViewPagerIndicator,,3.7/10,37.0
1172106,3311,monomi,https://github.com/jamesgpearce/monomi,,4.7/10,47.0
489179,3334,python-reloader,https://github.com/jparise/python-reloader,,4.8/10,48.0
1451792,3364,askalono,https://github.com/amzn/askalono,,4.9/10,49.0
627363,3412,wordpress-license,https://github.com/willnorris/wordpress-license,,4.8/10,48.0
57195,3438,language-sourcepawn,https://github.com/50Wliu/language-sourcepawn,,5.4/10,54.0
3517340,3453,city-geo,https://github.com/88250/city-geo,,5.5/10,55.0
326054,3879,Mahadiscom,https://github.com/Akasurde/Mahadiscom,,5.4/10,54.0
642890,3932,z42,https://github.com/AkihiroSuda/z42,,4.4/10,44.0
1653874,3989,load-class,https://github.com/blitzprog/load-class,,4.4/10,44.0
3264927,4386,jb,https://github.com/amatsuda/jb,,4.5/10,45.0
1618702,4517,hltv-livescore,https://github.com/andrewda/hltv-livescore,,5.6/10,56.0
2564938,4580,imapflow,https://github.com/andris9/imapflow,,7.2/10,72.0
112233,4710,ABVariants,https://github.com/andybons/ABVariants,,5.4/10,54.0
23025,4853,Jackknife.jl,https://github.com/ararslan/Jackknife.jl,,5.7/10,57.0
379380,5339,chai-immutable,https://github.com/astorije/chai-immutable,,6.0/10,60.0
1659353,5374,mango-admin,https://github.com/axic/mango-admin,,4.7/10,47.0
128909,5454,steam-id-converter,https://github.com/b3none/steam-id-converter,,4.8/10,48.0
1929845,5554,FilterInputJs,https://github.com/BaseMax/FilterInputJs,,5.7/10,57.0
1167037,5830,abp-filter-parser,https://github.com/bbondy/abp-filter-parser,,5.2/10,52.0
3092905,6056,composer-service,https://github.com/pborreli/composer-service,,4.3/10,43.0
2441753,6217,unfurl,https://github.com/blakeembrey/node-scrappy,,4.2/10,42.0
1851096,6309,react-svg-loader,https://github.com/boopathi/react-svg-loader,,4.3/10,43.0
3283583,6388,minitest-mock_expectations,https://github.com/bogdanvlviv/minitest-mock_expectations,,3.9/10,39.0
3439710,6421,rlxc,https://github.com/brauner/rlxc,,3.9/10,39.0
1281727,6450,poker.js,https://github.com/bsclifton/poker.js,,5.8/10,58.0
1336126,6579,hyper-quit,https://github.com/cblecker/hyper-quit,,4.7/10,47.0
1903889,6691,mklicense,https://github.com/cezaraugusto/mklicense,,5.9/10,59.0
1612035,6750,gulp-ruby-haml,https://github.com/moneypenny/gulp-ruby-haml,,4.8/10,48.0
1747008,6831,rx-mobx,https://github.com/chicoxyzzy/rx-mobservable,,4.7/10,47.0
3319696,6855,rubocop-github-annotations-formatter,https://github.com/colby-swandale/rubocop-github-annotations-formatter,,3.8/10,38.0
1625639,6916,hyperterm-base16-tomorrow-dark,https://github.com/d3viant0ne/hyperterm-base16-tomorrow-dark,,4.7/10,47.0
3419403,6956,initrs,https://github.com/cyphar/initrs,,5.6/10,56.0
1655896,7179,ludumpad,https://github.com/dasilvacontin/ludumpad,,4.6/10,46.0
336450,7290,mnist,https://github.com/datapythonista/mnist,,5.1/10,51.0
974817,7291,Scripty,https://github.com/daveaglick/Scripty,,4.1/10,41.0
1718790,7330,psi-ngrok,https://github.com/denar90/psi-ngrok,,4.9/10,49.0
1781991,7558,travis-after-modes,https://github.com/DevVersion/travis-after-modes,,4.6/10,46.0
378870,7595,pem,https://github.com/Dexus/pem,,4.7/10,47.0
1246133,7597,cordova-plugin-ironSource,https://github.com/Dexus/cordova-plugin-ironSource,,4.7/10,47.0
203665,7634,python-disposable-email-domains,https://github.com/di/disposable-email-domains,,3.6/10,36.0
899840,7673,Magick.NET,https://github.com/dlemstra/Magick.NET,,4.1/10,41.0
3386538,7771,razorpay_flutter,https://github.com/dynamitechetan/razorpay_flutter,,4.7/10,47.0
500169,7901,Jay,https://github.com/czechboy0/Jay,,4.5/10,45.0
1706011,8067,nodePhidgets,https://github.com/evantahler/nodePhidgets,,5.3/10,53.0
1152038,8121,str-replace,https://github.com/FagnerMartinsBrack/str-replace,,4.7/10,47.0
183441,8139,python-cri,https://github.com/feiskyer/python-cri,,4.7/10,47.0
3358937,8147,yatran,https://github.com/Fivell/yatran,,4.7/10,47.0
2460323,8241,fs-chunk-store,https://github.com/feross/fs-chunk-store,,5.3/10,53.0
98340,8285,UIView-Positioning,https://github.com/freak4pc/UIView-Positioning,,5.2/10,52.0
1601884,8293,graphosaurus,https://github.com/frewsxcv/graphosaurus,,4.8/10,48.0
2291193,8392,jail-monkey,https://github.com/GantMan/jail-monkey,,4.4/10,44.0
169679,8511,Carbon,https://github.com/CarbonDate/Carbon,,4.7/10,47.0
1625391,8539,hypernpm,https://github.com/gyandeeps/hypernpm,,4.5/10,45.0
1457596,8652,graphql-disable-introspection,https://github.com/helfer/graphql-disable-introspection,,5.6/10,56.0
703586,8872,RateLimiting,https://github.com/icecrime/RateLimiting,,4.6/10,46.0
379925,9210,core-decorators,https://github.com/jayphelps/core-decorators.js,,4.6/10,46.0
261012,9303,flake8-putty,https://github.com/jayvdb/flake8-putty,,3.0/10,30.0
1308829,9366,docdown,https://github.com/jdalton/docdown,,4.9/10,49.0
1588668,9694,g20,https://github.com/jdorfman/g20,,5.0/10,50.0
36073,9762,fizzy,https://github.com/jglovier/fizzy,,4.7/10,47.0
3423059,9811,rcm,https://github.com/jimmidyson/rcm,,4.9/10,49.0
3312564,9843,recurse-delete,https://github.com/jisaacks/recurse-delete,,4.7/10,47.0
707534,9889,russound,https://github.com/laf/russound,,4.8/10,48.0
973219,9903,RemoveObj,https://github.com/Krzysztof-Cieslak/RemoveObj,,4.3/10,43.0
2149731,9945,open-in-editor,https://github.com/lahmatiy/open-in-editor,,4.8/10,48.0
84118,9996,tabs-to-spaces,https://github.com/lee-dohm/tabs-to-spaces,,4.9/10,49.0
3214608,10157,capistrano-elb,https://github.com/thattommyhall/capistrano-elb,,4.7/10,47.0
472864,10217,morgan,https://github.com/rodnaph/morgan,,4.7/10,47.0
1826480,10470,react-native-thumbnail-video,https://github.com/lucasbento/react-native-thumbnail-video,,5.5/10,55.0
3430,10505,requests-ftp,https://github.com/Lukasa/requests-ftp,,5.1/10,51.0
1698890,10544,gulp-gae,https://github.com/MAKOSCAFEE/Oppia-gulp-optimizer,,4.7/10,47.0
1594463,10614,generator-scaffold,https://github.com/marcosmoura/generator-scaffold,,4.8/10,48.0
605977,10630,tic_tac_taco_pizza,https://github.com/Mariatta/tic_tac_taco_pizza,,4.7/10,47.0
794134,10683,pusher-js-client-auth,https://github.com/leggetter/pusher-js-client-auth.git,,,
1936958,10831,ts-quick,https://github.com/matchai/ts-quick,,5.5/10,55.0
302053,11037,python-iptools,https://github.com/bd808/python-iptools,,4.7/10,47.0
3302551,11591,poper,https://github.com/mmozuras/poper,,5.8/10,58.0
315930,11680,libyear,https://github.com/nasirhjafri/libyear,,4.1/10,41.0
1503782,11688,angular-pseudo-class,https://github.com/ncoden/angular-pseudo-class,,4.6/10,46.0
2124860,11721,corejs-upgrade-webpack-plugin,https://github.com/ndelangen/corejs-upgrade-webpack-plugin,,5.5/10,55.0
263282,11742,flask-mimerender,https://github.com/nicolaiarocci/flask-mimerender,,4.7/10,47.0
856440,11786,EasyTipView,https://github.com/nmilcoff/EasyTipView,,4.7/10,47.0
1389962,11799,ksuid,https://github.com/novemberborn/ksuid,,3.5/10,35.0
215346,11800,django-gulp-rev,https://github.com/olasitarska/django-gulp-rev,,5.7/10,57.0
3278992,11892,mandrillus,https://github.com/olivierlacan/mandrillus,,5.7/10,57.0
127371,11995,background,https://github.com/kennethreitz/background,,3.5/10,35.0
1501384,12015,all-your-github-are-belong-to-us,https://github.com/parkr/all-your-github-are-belong-to-us,,4.7/10,47.0
751012,12138,backbone-moment,https://github.com/paulfalgout/backbone-moment.git,,,
3242841,12480,flag_shih_tzu,https://github.com/pboling/flag_shih_tzu,,4.8/10,48.0
1942840,12528,gmaps,https://github.com/pbugnion/gmaps,,5.0/10,50.0
496011,12615,wp-cli-psysh,https://github.com/schlessera/wp-cli-psysh,,4.4/10,44.0
1801841,12679,workfrom,https://github.com/kyleshockey/workfrom,,4.1/10,41.0
1374023,12706,dotty-cli,https://github.com/0x12b/dotty-cli,,4.5/10,45.0
405055,12896,github-remove-all-releases,https://github.com/stevemao/github-remove-all-releases,,4.7/10,47.0
1831974,13215,react-server-example-tsx,https://github.com/styfle/react-server-example-tsx,,6.2/10,62.0
1838052,13270,local-webfont,https://github.com/swissspidy/local-webfont,,5.3/10,53.0
474511,13403,pyQTopic,https://github.com/tapasweni-pathak/pyQTopic,,5.1/10,51.0
700310,13497,pytest-vw,https://github.com/The-Compiler/pytest-vw,,4.7/10,47.0
395132,13526,rewire-global,https://github.com/TheSavior/rewire-global,,5.0/10,50.0
2243949,13750,network-interface,https://github.com/xudafeng/network-interface,,4.8/10,48.0
1512865,13789,autoresponsive_react_native_sample_android_ci,https://github.com/xudafeng/autoresponsive_react_native_sample_android_ci,,4.7/10,47.0
1432918,13982,bundle-utils,https://github.com/yavorsky/bundle-utils,,6.2/10,62.0
3225866,14192,cyprus-street-names,https://github.com/despo/cyprus-street-names,,5.6/10,56.0
1223497,14220,emojilib,https://github.com/muan/emojilib,,5.1/10,51.0
2416689,14781,vuepress-plugin-ipfs,https://github.com/cwaring/vuepress-plugin-ipfs,,5.6/10,56.0
413595,14842,webrtc-explorer,https://github.com/diasdavid/webrtc-explorer,,4.7/10,47.0
756135,14971,chartographer,https://github.com/palantir/chartographer,,3.9/10,
3395905,15040,async-tar,https://github.com/dignifiedquire/async-tar,,4.6/10,46.0
1849975,15142,electron-menubar,https://github.com/hacdias/electron-menubar,,5.3/10,53.0
1932115,15199,prettier-stylelint,https://github.com/hugomrdias/prettier-stylelint,,4.4/10,44.0
1784665,15398,node-twitter-pic,https://github.com/marcooliveira/node-twitter-pic,,4.4/10,44.0
1782922,15442,tubemaps,https://github.com/nicola/tubemaps,,4.9/10,49.0
1726461,15577,react-hexviewer,https://github.com/travisperson/react-hexviewer,,4.7/10,47.0
2492798,15708,dns-over-http-resolver,https://github.com/vasco-santos/dns-over-http-resolver,,6.0/10,60.0
3401077,15990,cargo-urlcrate,https://github.com/Aaron1011/cargo-urlcrate,,4.8/10,48.0
1906019,16154,kanpo,https://github.com/AquiGorka/kanpo,,5.8/10,58.0
608826,16226,toggl-cli,https://github.com/auhau/toggl-cli,,5.6/10,56.0
388849,16243,simple-server,https://github.com/balupton/simple-server,,4.8/10,48.0
292043,16274,i3-workspace-names-daemon,https://github.com/cboddy/i3-workspace-names-daemon,,5.7/10,57.0
1942401,16320,pandiff,https://github.com/davidar/pandiff,,4.4/10,44.0
2060870,16387,insomnia-plugin-aws-iam,https://github.com/dankelleher/insomnia-plugin-aws-iam,,5.2/10,52.0
3066631,16589,git-changerelease,https://github.com/Luzifer/git-changerelease,,5.0/10,50.0
498498,16703,OXID_recaptcha,https://github.com/marten-seemann/OXID_recaptcha,,4.6/10,46.0
1630176,16754,ippm,https://github.com/nginnever/ippm,,4.7/10,47.0
259399,17265,FirstPIP,https://github.com/Seenivasanseeni/FirstPIP,,4.4/10,44.0
1871503,17342,redux-cross-fetch,https://github.com/vasa-develop/redux-cross-fetch,,4.4/10,44.0
411315,17509,jslens,https://github.com/vmx/jslens,,4.7/10,47.0
2084078,17574,react-use-system-theme,https://github.com/zebateira/react-use-system-theme,,5.4/10,54.0
1259753,17598,skCube-data-collector,https://github.com/yangwao/skCube_data_collector,,4.2/10,42.0
1600998,18000,gm,https://github.com/aheckmann/gm,,5.2/10,52.0
105415,18148,AttributedString,https://github.com/apemsel/AttributedString,,4.7/10,47.0
1172720,18258,parallel-mocha,https://github.com/atsuya/parallel-mocha,,4.5/10,45.0
3220217,18292,cocoapods-archive,https://github.com/braintreeps/cocoapods-archive,,4.7/10,47.0
800400,18480,node-slug,https://github.com/dodo/node-slug,,4.7/10,
1550360,18546,node-dawanda,https://github.com/teemow/node-dawanda,,4.7/10,47.0
404861,18618,async-array,https://github.com/Tim-Smart/async-array,,4.7/10,47.0
808992,18728,weld,https://github.com/tmpvar/weld,,4.7/10,
3294920,18957,omnifocus-trello,https://github.com/vesan/omnifocus-trello,,4.7/10,47.0
748388,18969,angular-virtual-dom,https://github.com/teropa/angular-virtual-dom,,4.7/10,
3271010,19112,knife-ghost,https://github.com/agoddard/knife-ghost,,4.7/10,47.0
3289881,19155,NetApp.rb,https://github.com/Gregor-Mendel-Institute/NetApp.rb,,4.7/10,47.0
3350600,19178,vagrant-butcher,https://github.com/cassianoleal/vagrant-butcher,,4.8/10,48.0
3355551,19288,whisk,https://github.com/kisoku/whisk,,4.5/10,45.0
3212802,19315,bunchr,https://github.com/joemiller/bunchr,,5.0/10,50.0
3218742,19384,cisco-config-parse,https://github.com/lozzd/cisco-config-parse,,4.4/10,44.0
63577,19439,puppet-packetbeat,https://github.com/krisbuytaert/puppet-packetbeat,,4.4/10,44.0
712977,19455,smtptester,https://github.com/mconigliaro/smtptester,,5.8/10,58.0
3291227,19468,Noah,https://github.com/lusis/Noah,,3.7/10,37.0
3270938,19542,knife-backup,https://github.com/mdxp/knife-backup,,4.7/10,47.0
1668932,19656,MobxPromise,https://github.com/adufilie/MobxPromise,,4.6/10,46.0
140539,19753,binconvert,https://github.com/agoodm/binconvert,,4.7/10,47.0
67094,19834,slim3-skeleton,https://github.com/akrabat/slim3-skeleton,,4.8/10,48.0
771397,19937,ion-affix,https://github.com/aliok/ion-affix.git,,,
3208714,1,bibliothecary,https://github.com/librariesio/bibliothecary,,6.5/10,65.0
414100,92,node-xbox-controller,https://github.com/andrew/node-xbox-controller,,4.7/10,47.0
3195534,402,split,https://github.com/splitrb/split,,6.1/10,61.0
2596183,411,go-ipfs,https://github.com/ipfs/go-ipfs,,6.4/10,64.0
2043341,692,echarts,https://github.com/apache/incubator-echarts,,6.2/10,62.0
3206499,1253,backports,https://github.com/marcandre/backports,,6.0/10,60.0
761240,1526,mobile-drag-drop,https://github.com/timruffles/ios-html5-drag-drop-shim.git,,,
575805,1708,Manager,https://github.com/SocialiteProviders/Manager,,5.6/10,56.0
485923,1910,Moya,https://github.com/Moya/Moya,,5.8/10,58.0
3226246,1931,danger,https://github.com/danger/danger,,4.8/10,48.0
2065335,2128,diff2html,https://github.com/rtfpessoa/diff2html,,6.1/10,61.0
2416910,2686,standard-readme,https://github.com/RichardLitt/standard-readme,,5.5/10,55.0
3231839,2971,dotenv,https://github.com/bkeepers/dotenv,,5.3/10,53.0
751030,3504,backbone-nested,https://github.com/afeld/backbone-nested.git,,,
2218639,3618,create-guten-block,https://github.com/ahmadawais/create-guten-block,,6.3/10,63.0
1863628,3816,nanoid,https://github.com/ai/nanoid,,5.4/10,54.0
2634950,3911,nerdctl,https://github.com/containerd/nerdctl,,6.8/10,68.0
67532,4013,mongo-php-adapter,https://github.com/alcaeus/mongo-php-adapter,,3.7/10,37.0
67614,4030,iso4217,https://github.com/alcohol/iso4217,,5.2/10,52.0
2268840,4137,k3sup,https://github.com/alexellis/k3sup,,4.7/10,47.0
542313,4468,fuzzyfinder,https://github.com/amjith/fuzzyfinder,,5.6/10,56.0
777257,4565,jStorage,https://github.com/andris9/jStorage.git,,,
1144051,4723,react-recaptcha,https://github.com/appleboy/react-recaptcha,,5.7/10,57.0
2094413,4888,pnp-webpack-plugin,https://github.com/arcanis/pnp-webpack-plugin,,5.6/10,56.0
3461029,4980,Nimble-Snapshots,https://github.com/ashfurrow/Nimble-Snapshots,,5.5/10,55.0
3395475,5074,assert_approx_eq,https://github.com/ashleygwilliams/assert_approx_eq,,4.9/10,49.0
1265411,5268,react-perimeter,https://github.com/aweary/react-perimeter,,5.3/10,53.0
1732153,5512,react-sidebar,https://github.com/balloob/react-sidebar,,4.9/10,49.0
123213,5862,astor,https://github.com/berkerpeksag/astor,,6.1/10,61.0
2297649,5873,dragula,https://github.com/bevacqua/dragula,,5.5/10,55.0
2185514,6140,bitandbang,https://github.com/bnb/bitandbang,,5.8/10,58.0
1395217,6202,change-case,https://github.com/blakeembrey/change-case,,6.8/10,68.0
2684647,6490,env,https://github.com/caarlos0/env,,5.6/10,56.0
383953,6612,node-har-validator,https://github.com/ahmadnassri/node-har-validator,,5.2/10,52.0
1582849,6843,react-sortable-hoc,https://github.com/clauderic/react-sortable-hoc,,6.6/10,66.0
1152620,6862,js-codemod,https://github.com/cpojer/js-codemod,,5.3/10,53.0
747554,6901,angular-svg-round-progressbar,https://github.com/crisbeto/angular-svg-round-progressbar.git,,,
3213220,7316,byebug,https://github.com/deivid-rodriguez/byebug,,4.5/10,45.0
660962,7369,geocoder,https://github.com/DenisCarriere/geocoder,,5.6/10,56.0
2580366,7428,wtfjs,https://github.com/denysdovhan/wtfjs,,4.5/10,45.0
1972562,7429,spaceship-prompt,https://github.com/denysdovhan/spaceship-prompt,,6.1/10,61.0
623599,7628,vladiate,https://github.com/di/vladiate,,3.1/10,31.0
1410579,7675,constate,https://github.com/diegohaz/constate,,5.6/10,56.0
292028,7879,i3pystatus,https://github.com/enkore/i3pystatus,,5.0/10,50.0
1891901,8152,simple-peer,https://github.com/feross/simple-peer,,6.1/10,61.0
2551808,8671,fusuma,https://github.com/hiroppy/fusuma,,6.5/10,65.0
3414116,8800,getset,https://github.com/Hoverbear/getset,,4.5/10,45.0
2149299,8894,iarna-toml,https://github.com/iarna/iarna-toml,,5.0/10,50.0
1855081,9017,react-native-canvas,https://github.com/iddan/react-native-canvas,,6.4/10,64.0
3308857,9120,rails3-generators,https://github.com/indirect/rails3-generators,,4.8/10,48.0
2091989,9371,react-loadable,https://github.com/thejameskyle/react-loadable,,4.8/10,48.0
331226,9957,ApiTestCase,https://github.com/lchrusciel/ApiTestCase,,3.7/10,37.0
3224143,10301,credit_card_validator,https://github.com/tobias/credit_card_validator,,4.7/10,47.0
357767,10388,qs,https://github.com/ljharb/qs,,5.4/10,54.0
86165,10449,mimesis,https://github.com/lk-geimfari/mimesis,,5.1/10,51.0
387874,10762,electron-devtools-installer,https://github.com/MarshallOfSound/electron-devtools-installer,,5.2/10,52.0
3431804,10913,once_cell,https://github.com/matklad/once_cell,,5.7/10,57.0
690704,11121,pipsi,https://github.com/mitsuhiko/pipsi,,5.5/10,55.0
263448,11142,flask-openid,https://github.com/mitsuhiko/flask-openid,,4.6/10,46.0
1721987,11272,r2,https://github.com/mikeal/r2,,5.1/10,51.0
2762448,11642,sh,https://github.com/mvdan/sh,,4.8/10,48.0
386296,11937,node-cldr,https://github.com/papandreou/node-cldr,,5.5/10,55.0
356077,12151,chokidar,https://github.com/paulmillr/chokidar,,6.5/10,65.0
1230873,12202,angular-starter,https://github.com/AngularClass/angular-starter,,3.9/10,39.0
2255016,12556,stringz,https://github.com/sallar/stringz,,5.3/10,53.0
3495048,12632,t,https://github.com/sferik/t,,5.2/10,52.0
188261,12713,GaugeKit,https://github.com/skywinder/GaugeKit,,5.0/10,50.0
715733,12751,speedtest-cli,https://github.com/sivel/speedtest-cli,,4.7/10,47.0
45258,12817,git-secret,https://github.com/sobolevn/git-secret,,5.1/10,51.0
1444709,12852,rawact,https://github.com/sokra/rawact,,5.8/10,58.0
3292923,12874,object_tracer,https://github.com/st0012/object_tracer,,3.6/10,36.0
1549769,13018,xstream,https://gitlab.com/j3a-solutions/bs-xstream,,,
180037,13250,SwiftyUserDefaults,https://github.com/radex/SwiftyUserDefaults,,5.0/10,50.0
1996848,13315,geeksay,https://github.com/swapagarwal/geeksay,,5.3/10,53.0
45429,13572,gosu,https://github.com/tianon/gosu,,5.1/10,51.0
612183,13661,try,https://github.com/timofurrer/try,,5.1/10,51.0
1148742,13737,autoresponsive-react,https://github.com/xudafeng/autoresponsive-react,,5.2/10,52.0
2411689,13847,webassemblyjs,https://github.com/xtuc/webassemblyjs,,7.4/10,74.0
2164579,14115,qrcode.react,https://github.com/zpao/qrcode.react,,5.3/10,53.0
3281089,14157,memcached,https://github.com/evan/memcached,,4.7/10,47.0
2149498,14434,pm2-web,https://github.com/achingbrain/pm2-web,,4.7/10,47.0
1461244,14563,markdown-pdf,https://github.com/alanshaw/markdown-pdf,,5.1/10,51.0
1130039,15242,transformer,https://github.com/jbenet/transformer,,4.7/10,47.0
3450437,15609,tempfile,https://github.com/Stebalien/tempfile,,5.2/10,52.0
3498064,15762,gx,https://github.com/whyrusleeping/gx,,5.6/10,56.0
464420,16399,python-digitalocean,https://github.com/koalalorenzo/python-digitalocean,,4.2/10,42.0
2801475,16852,assh,https://github.com/moul/assh,,6.5/10,65.0
1680786,17386,ngProgress,https://github.com/VictorBjelkholm/ngProgress,,4.8/10,48.0
378978,18159,node-expat,https://github.com/astro/node-expat,,4.5/10,45.0
2503858,18298,c8,https://github.com/bcoe/c8,,6.3/10,63.0
3209473,19043,resque_mailer,https://github.com/zapnap/resque_mailer,,4.9/10,49.0
3228175,19255,deep_merge,https://github.com/danielsdeleo/deep_merge,,5.2/10,52.0
3254935,19588,puppet-lint,https://github.com/rodjek/puppet-lint,,4.2/10,42.0
285143,1411324,gspread,https://github.com/burnash/gspread,,4.5/10,45.0
1167136,1411336,MathJax,https://github.com/mathjax/MathJax,,5.3/10,53.0
79769,1411399,datasets,https://github.com/huggingface/datasets,,5.3/10,53.0
225276,1495934,orm,https://github.com/doctrine/orm,,6.6/10,66.0
148297,1505205,Font-Awesome,https://github.com/FortAwesome/Font-Awesome,,5.3/10,53.0
271943,1506653,DoctrineExtensions,https://github.com/doctrine-extensions/DoctrineExtensions,,6.7/10,67.0
278591,1508819,guzzle,https://github.com/guzzle/guzzle,,6.4/10,64.0
2048407,1513437,select2,https://github.com/select2/select2,,4.5/10,45.0
329180,1518244,framework,https://github.com/laravel/framework,,5.2/10,52.0
366744,1524252,monolog,https://github.com/Seldaek/monolog,,5.9/10,59.0
369311,1524518,mpdf,https://github.com/mpdf/mpdf,,3.6/10,36.0
782415,1528393,metismenu,https://github.com/onokumus/metisMenu,,5.0/10,
650530,1528859,testbench,https://github.com/orchestral/testbench,,6.2/10,62.0
445348,1531859,phpstan,https://github.com/phpstan/phpstan,,6.6/10,66.0
445466,1532225,phpunit,https://github.com/sebastianbergmann/phpunit,,5.8/10,58.0
472432,1539666,phinx,https://github.com/cakephp/phinx,,6.1/10,61.0
560436,1544414,Slim,https://github.com/slimphp/Slim,,5.8/10,58.0
3494505,1572425,wp-cli,https://github.com/wp-cli/wp-cli,,7.0/10,70.0
3448588,1601072,structopt,https://github.com/TeXitoi/structopt,,6.1/10,61.0
2613797,1639746,brotli,https://github.com/andybalholm/brotli,,4.9/10,49.0
587809,490620,numpy/numpy,https://github.com/numpy/numpy,01/07/2022-12:05:07,4.8/10,
3191,495570,numba/numba,https://github.com/numba/numba,01/07/2022-12:05:08,4.9/10,
129682,474993,bokeh/bokeh,https://github.com/bokeh/bokeh,01/07/2022-12:05:59,5.8/10,
709152,493045,scipy/scipy,https://github.com/scipy/scipy,01/07/2022-12:06:45,5.0/10,
305994,495545,jupyterhub/jupyterhub,https://github.com/jupyterhub/jupyterhub,01/07/2022-12:07:34,6.1/10,
3519,37296,sympy/sympy,https://github.com/sympy/sympy,01/07/2022-12:08:20,4.1/10,
3121,310326,matplotlib/matplotlib,https://github.com/matplotlib/matplotlib,01/07/2022-12:09:19,7.5/10,
190179,1489158,composer/composer,https://github.com/composer/composer,01/07/2022-12:09:39,6.1/10,
375988,3144166,angular/angular,https://github.com/angular/angular,01/07/2022-12:11:08,6.0/10,
2565864,4396061,streamlit/streamlit,https://github.com/streamlit/streamlit,01/07/2022-12:11:35,7.3/10,
10878,232490,moby/moby,https://github.com/moby/moby,01/07/2022-12:12:11,6.9/10,
512157,493021,django/django,https://github.com/django/django,01/07/2022-12:13:00,5.7/10,
16102,493067,tensorflow/tensorflow,https://github.com/tensorflow/tensorflow,01/07/2022-12:13:56,5.6/10,
1171747,3569714,mojs/mojs,https://github.com/mojs/mojs,01/07/2022-12:14:13,4.8/10,
79957,337182,electron/electron,https://github.com/electron/electron,01/07/2022-12:14:53,6.7/10,
343790,326941,webpack/webpack,https://github.com/webpack/webpack,01/07/2022-12:15:42,6.5/10,
3555,495592,tqdm/tqdm,https://github.com/tqdm/tqdm,01/07/2022-12:16:23,5.9/10,
709461,2175294,scrapy/scrapy,https://github.com/scrapy/scrapy,01/07/2022-12:16:41,5.5/10,
3504,1411293,sqlalchemy/sqlalchemy,https://github.com/sqlalchemy/sqlalchemy,01/07/2022-12:17:01,5.3/10,
29046,232298,ansible/ansible,https://github.com/ansible/ansible,01/07/2022-12:17:48,5.3/10,
3197683,31344,rails/rails,https://github.com/rails/rails,01/07/2022-12:18:15,5.3/10,
508457,2182930,pytorch/pytorch,https://github.com/pytorch/pytorch,01/07/2022-12:19:10,4.5/10,
26773,151787,kubernetes/kubernetes,https://github.com/kubernetes/kubernetes,01/07/2022-12:19:53,6.6/10,
