language,number_occurrence
JavaScript,1669040
Python,767621
Java,520688
PHP,484491
Ruby,318936
TypeScript,259937
C++,228274
C#,200174
Go,164608
C,163714
Shell,146512
Swift,96846
Rust,83705
Objective-C/Objective-C++,81776
Dart,66239
Kotlin,50360
R,34685
Haskell,25670
Scala,24526
CoffeeScript,23664
Vim script,21999
Elixir,19525
Lua,19242
MATLAB,16521
Perl,16142
Clojure,14267
SCSS or Sass,11798
HCL,10472
PowerShell,9948
Assembly,8844
Groovy,6740
Julia,6597
Erlang,5546
Elm,5422
Processing(Java),5293
Puppet,5001
Common Lisp,4561
OCaml,4528
Batchfile (.bat),3634
D,3457
F#,3218
Pascal,3213
Verilog (VHDL),5713
GDScript,3018
Haxe,2960
Visual Basic,2840
EJS (template lang),2701
Racket,2636
Solidity,2495
Scheme,2487
ActionScript,2425
ShaderLab,2237
XSLT,2203
Prolog,2143
Roff,2079
PureScript,2026
Nim,2024
Blade,1891
Mathematica,1866
Fortran,1863
Hack,1652
Nix,1572
PLpgSQL,1435
QML,1425
Crystal,1409
OpenSCAD,1312
GLSL,1163
Tcl,1049
Smalltalk,1043
AutoHotkey,1029
Handlebars(template lang),1025
Eagle,1012
Less,810
Logos,753
PureBasic,747
Game Maker Language,727
PLSQL,1097
SourcePawn,714
PostScript,664
ColdFusion,633
LiveScript,580
SystemVerilog,579
Coq,554
Standard ML,552
OpenEdge ABL,546
Liquid,544
SaltStack,538
Vala,530
Twig,525
Reason,482
AppleScript,478
Apex,462
Pug,442
Zig,422
Idris,413
Gherkin,406
Perl 6,398
FreeMarker,387
SuperCollider,385
AMPL,362
Ada,361
NSIS,344
Scilab,336
Stylus,315
Agda,303
BitBake,299
API Blueprint,290
RobotFramework,289
NetLogo,287
Lex,285
AutoIt,285
Nextflow,284
Stata,278
WebAssembly,277
Awk,271
G-code,267
XML,263
Rebol,254
Lean,250
GAP,237
mcfunction,235
Brainfuck,233
Ballerina,231
M4,218
XQuery,216
ABAP,213
DIGITAL Command Language,212
SQF,212
Ren'Py,205
Smali,204
AGS Script,190
SAS,188
Pure Data,178
Protocol Buffer,177
Gnuplot,175
LLVM,174
LookML,173
DM,173
IDL,171
Xtend,170
LabVIEW,166
ANTLR,164
Markdown,162
Jsonnet,159
LilyPond,158
CLIPS,157
Web Ontology Language,155
MoonScript,152
COBOL,151
RAML,149
Objective-J,143
M,141
GCC Machine Description,141
Pawn,137
1C Enterprise,132
Forth,132
Component Pascal,130
Io,130
GDB,127
Alloy,122
Squirrel,120
Pony,116
Hy,115
HLSL,110
Meson,107
ChucK,103
nesC,103
Xojo,103
Isabelle,99
TLA,96
Glyph,88
Modelica,86
KRL,85
CartoCSS,83
Cython,82
xBase,81
VCL,77
ATS,77
UnrealScript,72
MAXScript,72
YASnippet,70
Monkey,69
AngelScript,69
Limbo,68
Common Workflow Language,67
SQL,65
Thrift,64
Eiffel,64
Inform 7,63
Brightscript,62
POV-Ray SDL,62
YARA,61
AspectJ,61
PigLatin,61
wdl,60
SMT,60
Gosu,59
Stan,55
NewLisp,55
q,53
Turing,53
Chapel,52
Propeller Spin,51
Mercury,50
Rascal,48
RPC,48
J,47
Oz,47
APL,47
MQL4,46
Red,45
XS,45
ECL,43
BlitzBasic,43
Modula-2,42
Ceylon,42
REALbasic,42
Cirru,41
Factor,41
Papyrus,41
Terra,41
Clean,39
MQL5,38
IGOR Pro,38
Bro,38
Pike,37
LSL,37
Grammatical Framework,36
GAMS,36
XC,36
BlitzMax,35
Nemerle,35
Slash,34
Mako,33
E,30
LOLCODE,30
Arc,29
F*,28
ooc,28
P4,28
Sage,28
Uno,27
XProc,27
Cap'n Proto,25
sed,24
HyPhy,24
Frege,24
Lasso,23
Volt,23
Zephir,22
Bison,22
Boo,21
RenderScript,21
PicoLisp,20
Csound,28
JSONiq,20
Latte,20
Slim,20
Ragel,19
CWeb,19
HiveQL,19
Bluespec,17
NCL,16
FLUX,15
PogoScript,15
Kit,15
Mask,15
DataWeave,15
Mirah,14
Jolie,14
PowerBuilder,13
Rouge,13
Metal,13
Shen,13
LFE,12
NetLinx,12
Modula-3,12
SRecode Template,12
Cool,12
CSON,12
Augeas,11
Dogescript,10
eC,10
Marko,10
UrWeb,10
Nu,10
Oxygene,9
Pep8,9
mupad,9
Asymptote,9
wisp,9
EmberScript,8
REXX,8
Dylan,7
Jasmin,7
Cycript,6
KiCad Layout,6
Logtalk,5
RMarkdown,5
ZIL,5
Ioke,5
Opa,5
X10,4
WebIDL,4
TXL,4
Nearley,4
Parrot,4
Zimpl,4
Self,4
Slice,4
Filebench WML,3
Module Management System,3
MTML,3
Genshi,3
Genie,3
Fancy,3
Clarion,3
Redcode,3
Pan,3
Grace,2
Harbour,2
Nit,2
Turtle,1
Moocode,1
LoomScript,1
Ring,1
EQ,1
Fantom,1
Golo,1
Tea,1
Gradle,1
GraphQL,1
Opal,1
