language,number_occurrence
HTML,519336
CSS,222155
Jupyter Notebook,137661
Vue,46151
Dockerfile,31089
TeX,24171
Makefile,20987
Emacs Lisp,11994
CMake,5903
Smarty,2994
ASP,2809
ApacheConf,1479
Nginx,909
Yacc,842
Rich Text Format,813
Max (visual lang),674
QMake,144
Inno Setup,93
Gettext Catalog,35
Haml,34
Diff,32
DTrace,30
YAML,20
TI Program,11
Text,10
JSON,5
reStructuredText,5
Org,3
INI,2
Click,2
SVG,2
RUNOFF,1
KiCad Schematic,1
