,id,full_name,description,fork,created_at,updated_at,pushed_at,homepage,size,stargazers_count,language,has_issues,has_wiki,has_pages,forks_count,mirror_url,open_issues_count,default_branch,subscribers_count,uuid,source_name,license,repository_organisation_id,private,contributions_count,has_readme,has_changelog,has_contributing,has_license,has_coc,has_threat_model,has_audit,status,last_synced_at,rank,host_type,host_domain,name,scm,fork_policy,pull_requests_enabled,logo_url,repository_user_id,keywords
21,31344,rails/rails,Ruby on Rails,False,2008-04-11 02:19:47.000000,2021-11-18 23:03:18.719418,2021-11-18 22:42:20.000000,https://rubyonrails.org,234993.0,49435,Ruby,True,False,False,19869,,618.0,main,2443.0,8514,,MIT,59.0,False,374,README.md,,CONTRIBUTING.md,MIT-LICENSE,CODE_OF_CONDUCT.md,,,,2021-11-18 23:03:18.717185,25.0,GitHub,,,git,,,,,"['activejob', 'activerecord', 'framework', 'html', 'mvc', 'rails', 'ruby']"
5,37296,sympy/sympy,A computer algebra system written in pure Python,False,2010-04-30 20:37:14.000000,2021-12-31 14:57:50.211109,2021-12-31 13:56:41.000000,https://sympy.org/,150202.0,8722,Python,True,True,False,3556,,4302.0,master,287.0,640534,,Other,161.0,False,458,README.md,,CONTRIBUTING.md,LICENSE,CODE_OF_CONDUCT.md,,,,2021-12-31 14:57:50.209371,16.0,GitHub,,,git,,,https://labs.quansight.org/galleries/projects/sympy.thumbnail.png,,"['computer-algebra', 'hacktoberfest', 'math', 'python', 'science']"
23,151787,kubernetes/kubernetes,Production-Grade Container Scheduling and Management,False,2014-06-06 22:56:04.000000,2021-12-16 20:16:24.000000,2021-12-16 20:16:58.000000,https://kubernetes.io,1041641.0,83668,Go,True,False,False,30621,,2466.0,master,3287.0,20580498,,Apache-2.0,295.0,False,375,README.md,CHANGELOG.md,CONTRIBUTING.md,LICENSE,code-of-conduct.md,,,,2021-12-16 11:07:57.154396,20.0,GitHub,,,git,,,,,"['cncf', 'containers', 'go', 'kubernetes']"
20,232298,ansible/ansible,"Ansible is a radically simple IT automation platform that makes your applications and systems easier to deploy and maintain. Automate everything from code deployment to network configuration to cloud management, in a language that approaches plain English, using SSH, with no agents to install on remote systems. https://docs.ansible.com.",False,2012-03-06 14:58:02.000000,2021-11-18 22:09:10.000000,2021-11-18 19:05:32.000000,https://www.ansible.com/,208576.0,50778,Python,True,False,False,21273,,1559.0,devel,1993.0,3638964,,GPL-3.0,460.0,False,383,README.rst,changelogs/CHANGELOG.rst,.github/CONTRIBUTING.md,COPYING,.github/CODE_OF_CONDUCT.md,,,,2021-08-07 12:56:26.483131,12.0,GitHub,,,git,,,,,"['ansible', 'hacktoberfest', 'python']"
11,232490,moby/moby,Moby Project - a collaborative project for the container ecosystem to assemble container-based systems,False,2013-01-18 18:10:57.000000,2021-12-04 17:16:49.000000,2021-12-03 15:50:25.000000,https://mobyproject.org/,175643.0,61717,Go,True,True,False,17838,,4181.0,master,3044.0,7691631,,Apache-2.0,466.0,False,416,README.md,CHANGELOG.md,CONTRIBUTING.md,LICENSE,,,,,2021-12-04 16:30:37.377530,22.0,GitHub,,,git,,,,,"['containers', 'docker', 'go']"
6,310326,matplotlib/matplotlib,matplotlib: plotting with Python,False,2011-02-19 03:17:12.000000,2021-12-31 15:06:29.084497,2021-12-31 10:15:08.000000,https://matplotlib.org/stable,424786.0,14781,Python,True,True,False,6193,,1754.0,main,572.0,1385122,,,6507.0,False,429,README.rst,,.github/CONTRIBUTING.md,LICENSE/LICENSE,CODE_OF_CONDUCT.md,,,,2021-12-31 15:06:29.081775,21.0,GitHub,,,git,,,https://labs.quansight.org/galleries/new_projects/matplotlib.thumbnail.svg,,"['data-science', 'data-visualization', 'gtk', 'hacktoberfest', 'matplotlib', 'plotting', 'python', 'qt', 'tk', 'wx']"
16,326941,webpack/webpack,"A bundler for javascript and friends. Packs many modules into a few bundled assets. Code Splitting allows for loading parts of the application on demand. Through ""loaders"", modules can be CommonJs, AMD, ES6 modules, CSS, Images, JSON, Coffeescript, LESS, ... and your custom stuff.",False,2012-03-10 10:08:14.000000,2021-11-18 16:26:25.392575,2021-11-18 03:03:46.000000,https://webpack.js.org,57613.0,59807,JavaScript,True,True,False,8091,,277.0,main,1554.0,3678731,,MIT,814.0,False,441,README.md,,CONTRIBUTING.md,LICENSE,CODE_OF_CONDUCT.md,,,,2021-11-18 16:26:25.390010,26.0,GitHub,,,git,,,,,"['amd', 'build-tool', 'commonjs', 'compiler', 'es2015', 'es6', 'esm', 'javascript', 'javascript-compiler', 'javascript-modules', 'loaders', 'module-bundler', 'plugins', 'web', 'web-performance', 'webpack']"
15,337182,electron/electron,":electron: Build cross-platform desktop apps with JavaScript, HTML, and CSS",False,2013-04-12 01:47:36.000000,2021-11-18 16:25:13.885023,2021-11-18 16:07:36.000000,https://electronjs.org,106770.0,98920,C++,True,False,False,12916,,1375.0,main,2960.0,9384267,,MIT,111.0,False,396,README.md,,CONTRIBUTING.md,LICENSE,CODE_OF_CONDUCT.md,,,,2021-11-18 16:25:13.883408,23.0,GitHub,,,git,,,,,"['c-plus-plus', 'chrome', 'css', 'electron', 'html', 'javascript', 'nodejs', 'v8', 'works-with-codespaces']"
2,474993,bokeh/bokeh,"Interactive Data Visualization in the browser, from  Python",False,2012-03-26 15:40:01.000000,2021-12-31 15:40:57.013771,2021-12-31 12:38:54.000000,https://bokeh.org,254449.0,15841,Python,True,True,False,3859,,708.0,branch-3.0,461.0,3834332,,BSD-3-Clause,13992.0,False,404,README.md,CHANGELOG,.github/CONTRIBUTING.md,LICENSE.txt,CODE_OF_CONDUCT.md,,,,2021-12-31 15:40:57.009477,19.0,GitHub,,,git,,,https://labs.quansight.org/galleries/new_projects/bokeh.thumbnail.svg,,"['bokeh', 'data-visualisation', 'interactive-plots', 'javascript', 'jupyter', 'notebooks', 'numfocus', 'plots', 'plotting', 'python', 'visualisation', 'visualization']"
0,490620,numpy/numpy,The fundamental package for scientific computing with Python.,False,2010-09-13 23:02:39.000000,2021-12-30 14:21:25.856037,2021-12-30 10:22:14.000000,https://numpy.org,103687.0,19197,Python,True,True,False,6329,,2299.0,main,558.0,908607,,BSD-3-Clause,1670.0,False,483,README.md,,.github/CONTRIBUTING.md,LICENSE.txt,.github/CODE_OF_CONDUCT.md,,,,2021-12-30 14:21:25.846953,24.0,GitHub,,,git,,,https://labs.quansight.org/galleries/projects/numpylogo.thumbnail.svg,,"['numpy', 'python']"
12,493021,django/django,The Web framework for perfectionists with deadlines.,False,2012-04-28 02:47:18.000000,2021-11-18 15:51:00.941006,2021-11-18 15:37:40.000000,https://www.djangoproject.com/,212367.0,60744,Python,False,False,False,25943,,152.0,main,2307.0,4164482,,Other,1057.0,False,408,README.rst,,CONTRIBUTING.rst,LICENSE,.github/CODE_OF_CONDUCT.md,,,,2021-07-16 08:17:20.401575,14.0,GitHub,,,git,,,,,"['apps', 'django', 'framework', 'models', 'orm', 'python', 'templates', 'views', 'web']"
3,493045,scipy/scipy,SciPy library main repository,False,2011-03-09 18:52:03.000000,2021-12-31 14:39:14.606986,2021-12-31 13:54:47.000000,https://scipy.org,141170.0,9007,Python,True,True,False,4041,,1832.0,master,332.0,1460385,,BSD-3-Clause,1671.0,False,442,README.rst,,CONTRIBUTING.rst,LICENSE.txt,.github/CODE_OF_CONDUCT.md,,,,2021-12-31 14:39:14.604125,23.0,GitHub,,,git,,,https://labs.quansight.org/galleries/projects/scipy.thumbnail.png,,"['algorithms', 'closember', 'python', 'scientific-computing', 'scipy']"
13,493067,tensorflow/tensorflow,An Open Source Machine Learning Framework for Everyone,False,2015-11-07 01:19:20.000000,2021-11-18 15:48:12.070516,2021-11-18 15:45:40.000000,https://tensorflow.org,807891.0,160671,C++,True,False,False,85818,,2820.0,master,7976.0,45717250,,Apache-2.0,2559.0,False,417,README.md,,CONTRIBUTING.md,LICENSE,CODE_OF_CONDUCT.md,,,,2021-11-18 15:48:12.067674,19.0,GitHub,,,git,,,,,"['deep-learning', 'deep-neural-networks', 'distributed', 'machine-learning', 'ml', 'neural-network', 'python', 'tensorflow']"
4,495545,jupyterhub/jupyterhub,Multi-user server for Jupyter notebooks,False,2014-06-12 23:22:10.000000,2021-12-31 14:55:37.765612,2021-12-27 21:53:26.000000,https://jupyterhub.readthedocs.io,22468.0,6503,Python,True,True,False,1651,,191.0,main,274.0,20785986,,Other,1662.0,False,231,README.md,,CONTRIBUTING.md,COPYING.md,CODE_OF_CONDUCT.md,,,,2021-12-31 14:55:37.758164,15.0,GitHub,,,git,,,https://labs.quansight.org/galleries/projects/jupyterhub.thumbnail.svg,,"['ipython', 'jupyter-notebook', 'jupyterhub', 'multi-user', 'python']"
1,495570,numba/numba,NumPy aware dynamic Python compiler using LLVM,False,2012-03-08 11:12:43.000000,2021-12-31 15:25:16.561547,2021-12-30 19:35:14.000000,http://numba.pydata.org/,66854.0,7125,Python,True,True,True,868,,1369.0,master,206.0,3659275,,BSD-2-Clause,19576.0,False,245,README.rst,CHANGE_LOG,CONTRIBUTING.md,LICENSE,,,,,2021-12-31 15:25:16.559764,15.0,GitHub,,,git,,,https://labs.quansight.org/galleries/projects/numba-blue-horizontal-rgb.thumbnail.svg,,"['compiler', 'cuda', 'llvm', 'numpy', 'parallel', 'python', 'rocm']"
17,495592,tqdm/tqdm,"A Fast, Extensible Progress Bar for Python and CLI",False,2015-06-03 13:13:14.000000,2021-11-18 21:57:37.471632,2021-11-16 10:09:57.000000,https://tqdm.github.io,5899.0,20065,Python,True,True,True,1041,,323.0,master,195.0,36804486,,Other,765.0,False,102,README.rst,,CONTRIBUTING.md,,CODE_OF_CONDUCT.md,,,,2021-11-18 21:57:37.469774,20.0,GitHub,,,git,,,,,"['cli', 'closember', 'console', 'discord', 'gui', 'jupyter', 'keras', 'meter', 'pandas', 'parallel', 'progress', 'progress-bar', 'progressbar', 'progressmeter', 'python', 'rate', 'telegram', 'terminal', 'time', 'utilities']"
19,1411293,sqlalchemy/sqlalchemy,The Database Toolkit for Python,False,2018-11-27 03:35:03.000000,2021-11-18 22:14:32.876085,2021-11-18 20:51:13.000000,https://www.sqlalchemy.org,79734.0,4496,Python,True,True,False,743,,199.0,main,81.0,159271175,,MIT,67050.0,False,418,README.dialects.rst,CHANGES,.github/CONTRIBUTING.md,LICENSE,.github/CODE_OF_CONDUCT.md,,,,2021-08-12 14:10:35.306274,15.0,GitHub,,,git,,,,,"['python', 'sql', 'sqlalchemy']"
7,1489158,composer/composer,Dependency Manager for PHP,False,2011-06-08 08:53:00.000000,2021-08-17 00:48:24.551930,2021-08-13 18:02:47.000000,https://getcomposer.org/,19305.0,25484,PHP,True,False,False,6133,,221.0,master,609.0,1864363,,MIT,489.0,False,390,README.md,CHANGELOG.md,.github/CONTRIBUTING.md,LICENSE,CODE_OF_CONDUCT.md,,,,2021-08-17 00:48:24.532725,14.0,GitHub,,,git,,,,,"['dependency-manager', 'package-manager', 'packages', 'php', 'composer']"
18,2175294,scrapy/scrapy,"Scrapy, a fast high-level web crawling & scraping framework for Python.",False,2010-02-22 02:01:14.000000,2021-11-18 22:14:20.716196,2021-11-18 10:14:55.000000,https://scrapy.org,21857.0,42159,Python,True,True,False,9401,,793.0,master,1819.0,529502,,Other,5999.0,False,381,README.rst,,CONTRIBUTING.md,LICENSE,CODE_OF_CONDUCT.md,,,,2021-11-18 22:14:20.714555,18.0,GitHub,,,git,,,,,"['crawler', 'crawling', 'framework', 'hacktoberfest', 'python', 'scraping']"
22,2182930,pytorch/pytorch,Tensors and Dynamic neural networks in Python with strong GPU acceleration,False,2016-08-13 05:26:41.000000,2021-11-06 18:50:46.000000,2021-11-06 18:50:25.000000,https://pytorch.org,673863.0,51945,C++,True,True,False,14204,,10312.0,master,1597.0,65600975,,Other,8027.0,False,342,README.md,,CONTRIBUTING.md,LICENSE,CODE_OF_CONDUCT.md,,,,2021-11-03 17:02:47.930677,12.0,GitHub,,,git,,,,,"['autograd', 'deep-learning', 'gpu', 'machine-learning', 'neural-network', 'numpy', 'python', 'tensor']"
9,3144166,angular/angular,The modern web developer’s platform,False,2014-09-18 16:12:01.000000,2021-10-28 19:06:22.000000,2021-10-28 18:44:38.000000,https://angular.io,313656.0,77297,TypeScript,True,False,False,20286,,1880.0,master,3161.0,24195339,,MIT,333.0,False,0,,,,,,,,,2021-09-13 10:14:31.534529,10.0,GitHub,,,git,,,,,"['angular', 'javascript', 'pwa', 'typescript', 'web', 'web-framework', 'web-performance']"
14,3569714,mojs/mojs,The motion graphics toolbelt for the web,False,2014-06-26 08:49:14.000000,2021-11-18 16:17:56.497807,2021-09-28 08:23:45.000000,https://mojs.github.io,142608.0,17153,CoffeeScript,True,True,False,930,,35.0,master,420.0,21234201,,MIT,16904.0,False,20,README.md,,CONTRIBUTING.md,LICENSE.md,CODE_OF_CONDUCT.md,,,,2021-11-18 16:17:56.495771,14.0,GitHub,,,git,,,,,"['animation', 'burst', 'design', 'es6', 'graphics', 'javascript', 'library', 'mo-js', 'modern', 'mojs', 'motion', 'motion-graphics', 'shape', 'svg', 'swirl', 'timeline', 'toolbelt', 'web', 'webpack']"
10,4396061,streamlit/streamlit,Streamlit — The fastest way to build data apps in Python,False,2019-08-24 00:14:52.000000,2021-10-05 16:54:27.000000,2021-10-05 17:13:32.000000,https://streamlit.io,125582.0,16086,Python,True,True,False,1416,,569.0,develop,260.0,204086862,,Apache-2.0,,False,0,,,,,,,,,,,GitHub,,,git,,,,,"['data-analysis', 'data-science', 'data-visualization', 'deep-learning', 'developer-tools', 'machine-learning', 'python', 'streamlit']"
