,id,name,platform,created_at,updated_at,description,keywords,homepage,licenses,repository_url,repository_id,normalized_licenses,versions_count,rank,latest_release_published_at,latest_release_number,pm_id,keywords_array,dependents_count,language,status,last_synced_at,dependent_repos_count,runtime_dependencies_count,score,score_last_calculated,latest_stable_release_number,latest_stable_release_published_at,license_set_by_admin,license_normalized,deprecation_reason,featured,openteams_rank,display_name,project_group_id
12,3197683,activesupport,Rubygems,2021-08-18 12:26:31.675240,2021-12-08 17:39:23.980728,"A toolkit of support libraries and Ruby core extensions extracted from the Rails framework. Rich support for multibyte strings, internationalization, time zones, and testing.",,https://rubyonrails.org,MIT,https://github.com/rails/rails,31344,['MIT'],380,38,2021-09-15 21:55:55.219000,7.0.0.alpha1,,[],12036,Ruby,,2021-09-15 23:00:54.156875,59363,4.0,74,2021-10-22 14:31:34.505148,6.1.4,2021-06-24 20:40:00.953000,False,False,,False,0,Activesupport,263857.0
29,3519,sympy,Conda,2021-02-09 20:41:19.212415,2021-12-31 14:57:50.657080,SymPy is a Python library for symbolic mathematics. It aims to become a full-featured computer algebra system (CAS) while keeping the code as simple as possible in order to be comprehensible and easily extensible.,,https://sympy.org,BSD-3-Clause,https://github.com/sympy/sympy,37296,['BSD-3-Clause'],14,29,2021-04-12 19:23:09.000000,1.8,,[],45,Python,,2021-09-07 13:30:33.964733,188,3.0,71,2021-10-19 11:54:50.603037,1.7.1,2020-12-16 16:55:49.000000,False,False,,True,0,Sympy,
44,26773,k8s.io/kubernetes,Go,2021-02-09 22:45:31.131499,2021-12-16 20:21:29.051531,,,https://github.com/kubernetes/kubernetes,Apache-2.0,https://github.com/kubernetes/kubernetes,151787,['Apache-2.0'],848,36,2021-11-17 17:25:54.000000,v1.23.0-beta.0,,[],1088,Go,,2021-10-24 19:09:51.685110,1282,,64,2021-09-29 07:12:49.186770,v1.22.4,2021-11-17 15:41:42.000000,False,False,,False,0,K8s.Io/Kubernetes,282192.0
59,29046,ansible,Conda,2021-02-09 22:57:00.875250,2021-12-09 09:30:41.908141,"Ansible is a radically simple IT automation platform that makes your applications and systems easier to deploy. Includes support for OpenStack (shade) and EC2 (AWS), extra batteries included.",,http://github.com/ansible/ansible,GPL-3.0-only,https://github.com/ansible/ansible,232298,['GPL-3.0-only'],53,25,2021-09-01 01:23:41.000000,4.5.0,,[],3,Python,,2021-09-07 13:32:17.758981,1,2.0,74,2021-10-19 20:04:04.098591,4.5.0,2021-09-01 01:23:41.000000,False,False,,False,0,Ansible,279903.0
65,10878,github.com/docker/docker,Go,2021-02-09 20:50:50.762807,2021-12-04 17:55:07.478132,,,https://github.com/docker/docker,Apache-2.0,https://github.com/docker/docker,232490,['Apache-2.0'],198,36,2021-11-18 00:21:59.000000,v20.10.11+incompatible,,[],2605,Go,,2021-11-20 18:02:03.585130,3472,,93,2021-10-20 11:46:22.634309,v20.10.11+incompatible,2021-11-18 00:21:59.000000,False,False,,False,0,Github.Com/Docker/Docker,242385.0
68,3121,matplotlib,Conda,2021-02-09 20:41:09.053575,2021-12-31 15:06:29.652192,"matplotlib is a python 2D plotting library which produces publication quality figures in a variety of hardcopy formats and interactive environments across platforms. matplotlib can be used in Python scripts, the Python and IPython shell (ala MATLAB or Mathematica), web application servers, and six graphical user interface toolkits.",,http://matplotlib.org/,LicenseRef-PSF-based,https://github.com/matplotlib/matplotlib/,310326,['Other'],27,33,2021-08-03 15:17:43.000000,3.4.2,,[],212,Python,,2021-09-07 13:30:10.803894,2007,2.0,79,2021-10-19 20:03:40.532810,3.4.2,2021-08-03 15:17:43.000000,False,True,,False,0,Matplotlib,
94,343790,webpack,NPM,2021-02-19 15:32:25.676722,2021-12-08 00:18:58.088297,"Packs CommonJs/AMD modules for the browser. Allows to split your codebase into multiple bundles, which can be loaded on demand. Support loaders to preprocess files, i.e. json, jsx, es7, css, less, ... and your custom stuff.",,https://github.com/webpack/webpack,MIT,https://github.com/webpack/webpack,326941,['MIT'],744,37,2021-05-27 21:12:50.612000,5.38.1,,[],160850,JavaScript,,2021-06-10 00:32:39.194918,343135,23.0,80,2021-10-19 09:35:44.440114,5.38.1,2021-05-27 21:12:50.612000,False,False,,False,0,Webpack,246295.0
103,79957,electron,Conda,2021-02-10 08:43:03.252438,2021-12-08 19:22:14.011740,"Build cross platform desktop apps with JavaScript, HTML, and CSS",,https://github.com/electron/electron,MIT,https://github.com/electron/electron,337182,['MIT'],1,24,2021-02-24 08:16:43.269122,1.6.15,,[],0,C++,,2021-09-07 13:44:23.179376,0,,75,2021-09-29 07:08:30.505362,1.6.15,2021-02-24 08:16:43.269122,False,False,,False,0,Electron,264588.0
106,129682,bokeh,Pypi,2021-02-10 23:42:29.270386,2021-12-31 15:40:58.515435,Interactive plots and applications in the browser from Python,,https://github.com/bokeh/bokeh,BSD-3-Clause,https://github.com/bokeh/bokeh,474993,['BSD-3-Clause'],107,34,2021-10-06 23:16:28.000000,2.4.1rc1,,[],435,Python,,2021-10-07 00:41:49.901553,1390,7.0,79,2021-10-19 18:13:22.854544,2.4.0,2021-09-15 14:27:02.000000,False,False,,True,0,Bokeh,
116,587809,numpy,Pypi,2021-02-26 15:15:20.572712,2021-12-30 14:21:26.107537,NumPy is the fundamental package for array computing with Python.,,https://www.numpy.org,BSD,https://github.com/numpy/numpy,490620,['BSD-3-Clause'],92,38,2021-08-15 20:07:03.000000,1.21.2,,[],15569,Python,,2021-10-08 18:55:45.378715,44971,,85,2021-10-19 11:37:53.698578,1.21.2,2021-08-15 20:07:03.000000,False,True,,True,0,Numpy,268391.0
119,512157,Django,Pypi,2021-02-25 18:42:23.024512,2021-12-08 23:14:20.165991,"A high-level Python Web framework that encourages rapid development and clean, pragmatic design.",,https://www.djangoproject.com/,BSD-3-Clause,https://github.com/django/django,493021,['BSD-3-Clause'],251,35,2021-02-19 09:35:36.000000,3.2b1,,[],4178,Python,,2021-03-11 23:24:03.408513,28908,5.0,0,,3.1.7,2021-02-19 09:08:09.000000,False,False,,False,0,Django,268321.0
124,709152,scipy,Pypi,2021-03-12 08:17:09.716306,2021-12-31 14:39:16.532699,SciPy: Scientific Library for Python,,https://www.scipy.org,BSD,https://github.com/scipy/scipy,493045,['BSD-3-Clause'],57,34,2021-02-18 02:35:14.000000,1.6.1,,[],3002,Python,,2021-03-14 13:48:03.854485,20871,1.0,75,2021-10-19 12:36:34.626916,1.6.1,2021-02-18 02:35:14.000000,False,True,,False,0,Scipy,
134,16102,tensorflow,Conda,2021-02-09 22:04:17.385593,2021-12-09 03:31:43.266300,"TensorFlow provides multiple APIs.The lowest level API, TensorFlow Core provides you with complete programming control.",,http://tensorflow.org/,Apache 2.0,https://github.com/tensorflow/tensorflow,493067,['Apache-2.0'],35,31,2021-05-28 07:34:12.000000,2.5.0,,[],33,C++,,2021-09-07 13:31:02.472907,283,5.0,84,2021-10-19 20:03:49.942937,2.5.0,2021-05-28 07:34:12.000000,False,True,,False,0,Tensorflow,272603.0
138,305994,jupyterhub,Pypi,2021-02-19 12:47:36.236114,2021-12-31 14:55:39.344688,JupyterHub: A multi-user server for Jupyter notebooks,,https://jupyter.org,BSD,https://github.com/jupyterhub/jupyterhub,495545,['BSD-3-Clause'],42,27,2020-12-11 11:09:47.000000,1.3.0,,"['Interactive', 'Interpreter', 'Shell', 'Web']",82,Python,,2021-03-12 01:45:18.673222,71,15.0,65,2021-10-19 12:00:54.426015,1.3.0,2020-12-11 11:09:47.000000,False,True,,True,0,Jupyterhub,
140,3191,numba,Conda,2021-02-09 20:41:10.151783,2021-12-31 15:25:17.130824,"Numba is an Open Source NumPy-aware optimizing compiler for Python sponsored by Anaconda, Inc. It uses the remarkable LLVM compiler infrastructure to compile Python syntax to machine code.""",,http://numba.pydata.org,BSD-2-Clause,https://github.com/numba/numba,495570,['BSD-2-Clause'],31,27,2021-10-25 18:23:58.000000,0.54.1,,[],97,Python,,2021-11-21 17:52:35.196839,297,7.0,71,2021-10-19 11:54:50.306071,0.54.1,2021-10-25 18:23:58.000000,False,False,,True,0,Numba,
141,3555,tqdm,Conda,2021-02-09 20:41:20.018693,2021-11-19 18:16:20.738815,,,https://pypi.python.org/pypi/tqdm,MPL-2.0 AND MIT,https://github.com/tqdm/tqdm,495592,"['MPL-2.0', 'MIT']",94,30,2021-08-19 13:51:39.000000,4.62.1,,[],141,Python,,2021-09-07 13:30:48.515650,499,1.0,81,2021-10-19 20:03:46.415983,4.62.1,2021-08-19 13:51:39.000000,False,True,,False,0,Tqdm,
145,3504,sqlalchemy,Conda,2021-02-09 20:41:17.261417,2021-11-18 22:14:32.881840,SQLAlchemy is the Python SQL toolkit and Object Relational Mapper that gives application developers the full power and flexibility of SQL.,,http://www.sqlalchemy.org/,MIT,https://github.com/sqlalchemy/sqlalchemy,1411293,['MIT'],57,30,2021-07-22 10:08:25.000000,1.4.22,,[],96,Python,,2021-09-07 13:30:35.161311,193,3.0,84,2021-10-19 20:03:45.818736,1.4.22,2021-07-22 10:08:25.000000,False,False,,False,0,Sqlalchemy,
146,190179,composer/composer,Packagist,2021-02-19 05:47:59.519783,2021-11-19 18:08:55.804251,"Composer helps you declare, manage and install dependencies of PHP projects. It ensures you have the right stack everywhere.",,,MIT,https://github.com/composer/composer,1489158,['MIT'],118,33,2021-07-23 08:35:47.000000,2.1.5,,"['package', 'dependency', 'autoload']",1915,PHP,,2021-08-06 14:01:24.707241,2951,14.0,85,2021-10-23 17:58:32.195402,2.1.5,2021-07-23 08:35:47.000000,False,False,,False,0,Composer/Composer,
149,709461,Scrapy,Pypi,2021-03-12 08:20:06.712806,2021-11-19 18:02:18.290227,A high-level Web Crawling and Web Scraping framework,,https://scrapy.org,BSD,https://github.com/scrapy/scrapy,2175294,['BSD-3-Clause'],80,32,2020-11-17 12:04:15.000000,2.4.1,,[],103,Python,,2021-03-14 13:48:50.174637,946,15.0,73,2021-10-19 12:36:37.114170,2.4.1,2020-11-17 12:04:15.000000,False,True,,False,0,Scrapy,
151,508457,LibTorch,CocoaPods,2021-02-25 16:54:16.173982,2021-11-19 16:56:50.751617,The PyTorch C++ library for iOS,,https://github.com/pytorch/pytorch,BSD,,2182930,['BSD-3-Clause'],13,28,2021-10-22 16:51:30.211341,1.10.0,,[],0,C++,,2021-10-22 16:51:39.146346,9,,86,2021-11-06 21:00:59.511512,1.10.0,2021-10-22 16:51:30.211341,False,True,,False,0,Lib Torch,
206,375988,zone.js,NPM,2021-02-19 20:04:24.764762,2021-11-19 16:24:59.086660,Zones for JavaScript,,https://github.com/angular/angular#readme,MIT,https://github.com/angular/angular,3144166,['MIT'],104,33,2021-02-16 18:37:27.014000,0.11.4,,[],18365,TypeScript,,2021-06-27 04:40:38.845227,34500,1.0,0,,0.11.4,2021-02-16 18:37:27.014000,False,False,,False,0,Zone.Js,
224,1171747,mo-js,NPM,2021-04-04 02:24:33.038666,2021-11-19 17:05:27.696959,motion graphics toolbelt for the web,,https://github.com/legomushroom/mojs,MIT,https://github.com/legomushroom/mojs,3569714,['MIT'],15,25,2017-08-30 00:23:32.948000,0.288.2,,"['motion', 'effects', 'animation', 'motion graphics']",20,CoffeeScript,,2021-04-06 19:32:40.794157,22,1.0,59,2021-10-24 09:38:01.436014,0.288.2,2017-08-30 00:23:32.948000,False,False,,False,0,Mo Js,
240,2565864,streamlit-component-lib,NPM,2021-04-21 22:05:14.594997,2021-10-27 07:22:22.907572,Support code for Streamlit Components,,https://github.com/streamlit/streamlit#readme,Apache-2.0,https://github.com/streamlit/streamlit,4396061,['Apache-2.0'],6,17,2021-03-18 16:56:04.786000,1.2.0,,['streamlit'],0,Python,,2021-04-21 22:05:37.421282,15,5.0,0,,1.2.0,2021-03-18 16:56:04.786000,False,False,,False,0,Streamlit Component Lib,
