project_id,license,permissiveness_score
429671,MPL-2.0,80
1167037,MPL-2.0,80
1601884,MPL-2.0,80
152902,GPL-3.0,75
579484,GPL-3.0,75
435226,GPL-3.0,75
1667423,GPL-3.0,75
3162104,GPL-3.0,75
1659353,GPL-3.0,75
1929845,GPL-3.0,75
3419403,GPL-3.0,75
707534,GPL-3.0,75
1801841,GPL-3.0,75
498498,GPL-3.0,75
1024242,MIT,90
839598,MIT,90
1152361,MIT,90
3242604,MIT,90
1700459,MIT,90
876057,MIT,90
750804,MIT,90
1587915,MIT,90
1320382,MIT,90
2466457,MIT,90
1262880,MIT,90
1890437,MIT,90
373087,MIT,90
1659277,MIT,90
420218,MIT,90
1372491,MIT,90
1050954,MIT,90
2163275,MIT,90
2320921,MIT,90
1497614,MIT,90
234344,MIT,90
536837,MIT,90
495970,MIT,90
164968,MIT,90
608149,MIT,90
211190,MIT,90
304698,MIT,90
794546,MIT,90
522942,MIT,90
601306,MIT,90
440804,MIT,90
123973,MIT,90
646890,MIT,90
651238,MIT,90
461548,MIT,90
3124662,MIT,90
144723,MIT,90
454409,MIT,90
363134,MIT,90
3106201,MIT,90
3119473,MIT,90
502406,MIT,90
324660,MIT,90
415460,MIT,90
603779,MIT,90
25790,MIT,90
651217,MIT,90
569006,MIT,90
181950,MIT,90
166137,MIT,90
181476,MIT,90
78236,MIT,90
1053394,MIT,90
804825,MIT,90
604740,MIT,90
3082188,MIT,90
292260,MIT,90
515661,MIT,90
597737,MIT,90
1236564,MIT,90
3460762,MIT,90
981371,MIT,90
310450,MIT,90
965361,MIT,90
2284860,MIT,90
2241560,MIT,90
3079666,MIT,90
1589929,MIT,90
2162072,MIT,90
3035580,MIT,90
3035585,MIT,90
3035597,MIT,90
254228,MIT,90
1386316,MIT,90
435205,MIT,90
1781256,MIT,90
309021,MIT,90
3231943,MIT,90
3343932,MIT,90
1908628,MIT,90
3313031,MIT,90
3347016,MIT,90
3287704,MIT,90
3337597,MIT,90
3346842,MIT,90
1616458,MIT,90
1132305,MIT,90
3210202,MIT,90
1172106,MIT,90
489179,MIT,90
57195,MIT,90
3264927,MIT,90
1618702,MIT,90
112233,MIT,90
23025,MIT,90
379380,MIT,90
128909,MIT,90
3092905,MIT,90
1851096,MIT,90
3283583,MIT,90
1903889,MIT,90
1612035,MIT,90
1747008,MIT,90
3319696,MIT,90
1655896,MIT,90
974817,MIT,90
1718790,MIT,90
1781991,MIT,90
1246133,MIT,90
203665,MIT,90
500169,MIT,90
1152038,MIT,90
3358937,MIT,90
2460323,MIT,90
98340,MIT,90
2291193,MIT,90
169679,MIT,90
1625391,MIT,90
1457596,MIT,90
379925,MIT,90
261012,MIT,90
1308829,MIT,90
1588668,MIT,90
36073,MIT,90
973219,MIT,90
2149731,MIT,90
84118,MIT,90
1826480,MIT,90
1698890,MIT,90
1594463,MIT,90
3302551,MIT,90
856440,MIT,90
751012,MIT,90
3242841,MIT,90
1831974,MIT,90
474511,MIT,90
700310,MIT,90
1512865,MIT,90
1432918,MIT,90
3225866,MIT,90
1223497,MIT,90
2416689,MIT,90
413595,MIT,90
1849975,MIT,90
1932115,MIT,90
1726461,MIT,90
2492798,MIT,90
3401077,MIT,90
292043,MIT,90
1942401,MIT,90
259399,MIT,90
2084078,MIT,90
1259753,MIT,90
105415,MIT,90
1172720,MIT,90
3220217,MIT,90
800400,MIT,90
3294920,MIT,90
748388,MIT,90
3271010,MIT,90
3350600,MIT,90
712977,MIT,90
1668932,MIT,90
140539,MIT,90
771397,MIT,90
414100,MIT,90
3195534,MIT,90
3206499,MIT,90
761240,MIT,90
575805,MIT,90
485923,MIT,90
3226246,MIT,90
2065335,MIT,90
2416910,MIT,90
3231839,MIT,90
751030,MIT,90
2218639,MIT,90
1863628,MIT,90
67532,MIT,90
67614,MIT,90
3461029,MIT,90
1265411,MIT,90
1732153,MIT,90
2297649,MIT,90
2185514,MIT,90
1395217,MIT,90
2684647,MIT,90
383953,MIT,90
1582849,MIT,90
1152620,MIT,90
747554,MIT,90
660962,MIT,90
1972562,MIT,90
623599,MIT,90
1410579,MIT,90
292028,MIT,90
1891901,MIT,90
3414116,MIT,90
2091989,MIT,90
331226,MIT,90
86165,MIT,90
387874,MIT,90
356077,MIT,90
1230873,MIT,90
2255016,MIT,90
3495048,MIT,90
188261,MIT,90
45258,MIT,90
1444709,MIT,90
3292923,MIT,90
1549769,MIT,90
180037,MIT,90
1996848,MIT,90
612183,MIT,90
2411689,MIT,90
1461244,MIT,90
3498064,MIT,90
2801475,MIT,90
1680786,MIT,90
378978,MIT,90
3209473,MIT,90
3228175,MIT,90
3254935,MIT,90
285143,MIT,90
225276,MIT,90
271943,MIT,90
278591,MIT,90
2048407,MIT,90
329180,MIT,90
366744,MIT,90
782415,MIT,90
650530,MIT,90
445348,MIT,90
472432,MIT,90
560436,MIT,90
3494505,MIT,90
2613797,MIT,90
1339429,Apache-2.0,97
1339503,Apache-2.0,97
89878,Apache-2.0,97
453297,Apache-2.0,97
2374112,Apache-2.0,97
3035599,Apache-2.0,97
2045167,Apache-2.0,97
2402317,Apache-2.0,97
1451792,Apache-2.0,97
326054,Apache-2.0,97
642890,Apache-2.0,97
1336126,Apache-2.0,97
899840,Apache-2.0,97
183441,Apache-2.0,97
703586,Apache-2.0,97
605977,Apache-2.0,97
1503782,Apache-2.0,97
3066631,Apache-2.0,97
3355551,Apache-2.0,97
3291227,Apache-2.0,97
3270938,Apache-2.0,97
2043341,Apache-2.0,97
2634950,Apache-2.0,97
2907293,Apache-2.0,97
1721987,Apache-2.0,97
715733,Apache-2.0,97
45429,Apache-2.0,97
1167136,Apache-2.0,97
79769,Apache-2.0,97
264366,GPL-2.0,60
36763,GPL-2.0,60
369311,GPL-2.0,60
3362532,AGPL-3.0,70
3035594,AGPL-3.0,70
3208714,AGPL-3.0,70
3460801,CC0-1.0,95
448201,LGPL-2.1,80
641761,BSD-3-Clause,90
3432097,BSD-3-Clause,90
2003853,BSD-3-Clause,90
336450,BSD-3-Clause,90
67094,BSD-3-Clause,90
542313,BSD-3-Clause,90
1144051,BSD-3-Clause,90
123213,BSD-3-Clause,90
357767,BSD-3-Clause,90
2762448,BSD-3-Clause,90
386296,BSD-3-Clause,90
1936958,ISC,85
2149299,ISC,85
2164579,ISC,85
2503858,ISC,85
302053,BSD-2-Clause,90
215346,BSD-2-Clause,90
3213220,BSD-2-Clause,90
777257,Unlicense,90
2580366,WTFPL,90
3281089,AFL-3.0,80
464420,LGPL-3.0,85
3197683,MIT,90
343790,MIT,90
79957,MIT,90
3555,MIT,90
3504,MIT,90
190179,MIT,90
375988,MIT,90
1171747,MIT,90
3519,BSD-3-Clause,90
129682,BSD-3-Clause,90
587809,BSD-3-Clause,90
512157,BSD-3-Clause,90
709152,BSD-3-Clause,90
305994,BSD-3-Clause,90
26773,Apache-2.0,97
10878,Apache-2.0,97
16102,Apache-2.0,97
2565864,Apache-2.0,97
29046,GPL-3.0,75
3121,PSF,90
3191,BSD-2-Clause,90
709461,0BSD,90
508457,0BSD,90
