license,permissiveness_score,legal_risk,copyleft
GPL-2.0,60,high,yes
MIT-0,95,low,no
MS-PL,60,high,yes
CC-BY-SA-4.0,80,medium,yes
EPL-1.0,60,high,yes
BSD-3-Clause-Clear,90,low,no
BSL-1.0,90,low,no
0BSD,90,low,no
Zlib,90,low,no
BSD-3-Clause,90,low,no
LPPL-1.3c,80,low,no
WTFPL,90,low,no
Unlicense,90,low,no
Vim,90,low,yes
OFL-1.1,80,low,yes
OSL-3.0,75,low,yes
CECILL-2.1,70,medium,yes
BSD-4-Clause,90,low,no
AGPL-3.0,70,high,yes
PostgreSQL,90,low,no
LGPL-2.1,80,medium,yes
LGPL-3.0,85,low,yes
GPL-3.0,75,medium,yes
CC-BY-4.0,80,medium,yes
NCSA,85,low,no
EUPL-1.2,75,medium,yes
MPL-2.0,80,low,yes
ODbL-1.0,85,low,yes
AFL-3.0,80,low,yes
ISC,85,low,yes
UPL-1.0,90,low,yes
MS-RL,70,high,yes
BSD-2-Clause,90,low,no
Apache-2.0,97,low,no
ECL-2.0,80,low,yes
EPL-2.0,80,low,yes
MIT,90,low,no
EUPL-1.1,70,high,yes
Artistic-2.0,90,low,no
CC0-1.0,95,low,no
PSF,90,low,no
