project_id,repository_id,project_name,platform,rank,score,subscribers_count,dependents_count,dependent_repos_count,forks_count,stargazers_count,contributions_count,popularity_health_score
429671,1957,orgmanager/orgmanager,Packagist,3,43,24.0,0,0,108,198,22,63.26
152902,2476,paultag/python-charlie,Pypi,7,41,2.0,0,0,1,2,1,38.02
1024242,7038,Daniel15/prometheus-net.SystemMetrics,NuGet,6,54,3.0,3,1,2,17,1,50.46
513379,7082,danielbachhuber/dictator,Packagist,7,53,23.0,0,0,22,270,7,59.74
839598,7494,devlead/Devlead.Console.Template,NuGet,6,56,1.0,0,0,0,21,1,35.46
1152361,10413,es-shims/obsolete-string-at,NPM,6,49,1.0,0,19,3,9,1,45.67
37547,10909,dcarley/puppet-erlang,Puppet,7,42,1.0,0,0,1,0,1,29.89
433749,11860,pamil/prophecy-common,Packagist,6,47,2.0,8,8,0,13,1,50.98
3246215,13309,talsafran/freshmaker,Rubygems,6,38,1.0,0,0,0,0,0,12.28
1670162,14024,zkat/mona,NPM,6,54,12.0,0,0,11,150,3,54.47
3242604,18049,alexanderadam/fitnesspark_api,Rubygems,6,44,1.0,0,0,0,3,0,17.51
1700459,18432,cistov/oy,NPM,7,34,1.0,0,0,0,2,0,16.99
185500,18447,coen-hyde/Shanty-Mongo,Packagist,6,0,15.0,0,0,55,206,0,32.03
876057,20589,blachniet/SurfStat,NuGet,4,53,1.0,0,0,1,0,0,13.51
750804,24202,neocotic/Backbone.Do,Bower,5,20,1.0,0,0,0,3,0,17.51
441195,25016,ihabunek/phormium,Packagist,4,51,6.0,0,0,8,57,0,29.1
1587915,28137,mayank/lgr,NPM,3,47,0.0,0,0,0,1,0,3.68
1339429,28951,nolanlawson/async-rect,NPM,5,0,1.0,0,0,0,4,0,17.83
1339503,29953,stanleyxu2005/electron-utils,NPM,4,0,0.0,0,0,0,1,0,3.68
1320382,31945,bugsnag/gulp-bugsnag,NPM,4,48,15.0,0,0,1,0,0,23.28
1663614,32128,ipld/js-ipld-graph-builder,NPM,5,35,18.0,0,1,13,40,0,36.57
2466457,32981,github/webpack-config-github,NPM,4,0,2.0,0,0,20,43,0,25.08
1262880,33253,alphagov/govuk-country-and-territory-autocomplete,NPM,5,0,23.0,0,0,18,24,0,31.93
1890437,35395,kimmobrunfeldt/concurrently,NPM,3,0,1.0,0,0,0,0,0,12.28
579484,35692,LukasReschke/ID3Parser,Packagist,3,48,0.0,0,2,8,2,0,13.06
373087,36058,mzdr/micro,Packagist,5,51,1.0,1,1,0,9,1,42.3
1659277,36660,steelbrain/mariasql-promise,NPM,5,48,1.0,0,0,0,13,0,18.81
420218,37011,digiaonline/lumen-oauth2,Packagist,5,63,13.0,4,1,4,30,6,65.61
1372491,37570,redhat-developer/rsp-client,NPM,5,48,10.0,0,0,15,4,0,28.93
1050954,38094,TycheOrg/Tyche,NuGet,5,46,2.0,0,0,3,5,0,23.22
2163275,43065,ashwamegh/vue-link-preview,NPM,5,0,1.0,0,0,4,4,0,19.68
39234,43899,tarsius/orglink,Emacs,5,25,3.0,0,0,3,29,0,26.13
43041,44269,purcell/emacs-shfmt,Emacs,5,21,1.0,0,0,2,21,0,20.65
966214,47497,dotcypress/Tumbaga,NuGet,4,55,1.0,0,0,1,1,1,33.57
89878,47929,petems/petems-hddtemp,Puppet,5,37,2.0,0,0,0,0,0,15.7
1895800,49659,koddsson/coworking-with,NPM,5,52,1.0,0,0,2,51,0,21.03
2320921,49971,Trott/isTypedArray,NPM,5,0,2.0,0,0,0,1,3,42.63
571532,1000085,kuzmany/mautic-act-on-bundle,Packagist,7,42,1.0,0,0,2,0,1,30.23
269885,1000088,galvani/plugin-messagebird,Packagist,7,36,2.0,0,0,0,2,1,36.79
1497614,1000211,mikegillis677/actions-on-lambda,NPM,5,0,1.0,0,0,0,1,1,32.34
435226,1000220,PatchRanger/cartesian-iterator,Packagist,4,51,1.0,1,2,3,2,2,48.41
3120292,1000317,TonyBogdanov/tb-form,Packagist,6,38,1.0,0,0,0,0,1,28.66
49759,1000413,ahkui/Assembly,Packagist,6,38,1.0,0,0,0,0,1,28.66
3102420,1000506,kermorgant/smf-dummy-package,Packagist,5,37,1.0,0,0,0,0,0,12.28
111123,1000536,arkadiusjonczek/seo,Packagist,3,50,1.0,0,0,2,0,1,30.23
264366,1000559,freearhey/sparql,Packagist,5,51,1.0,1,1,0,1,4,48.01
234344,1000602,ed-fruty/php-environment,Packagist,7,39,2.0,0,0,0,0,1,32.08
155092,1000615,bookin/yii2-sidecar-gitter,Packagist,7,38,1.0,0,0,0,0,1,28.66
536837,1000721,exfriend/skypium,Packagist,7,38,2.0,0,0,0,4,1,37.63
495970,1001065,Shchepotin/laravel-api,Packagist,7,52,5.0,0,0,3,6,5,52.61
632083,1001076,wvdongen/cakephp-sparkpost,Packagist,7,42,1.0,0,0,1,1,2,38.13
3104944,1001113,ssx/geo-uk-postcode,Packagist,7,41,2.0,0,0,1,1,1,36.99
616292,1001232,vjrngn/file-explorer,Packagist,7,44,2.0,0,0,0,0,1,32.08
3120677,1001325,nunomazer/gitlab-client,Packagist,7,37,2.0,2,1,0,0,1,40.13
164968,1001401,ByZer0/laravel-query-log,Packagist,7,40,2.0,0,0,0,0,1,32.08
608149,1001444,twmbx/silhouette,Packagist,3,39,1.0,0,0,1,2,1,34.6
211190,1001503,DearMadMan/laravel-image-tool,Packagist,7,39,1.0,0,1,0,0,1,33.57
304698,1001640,JapSeyz/dot-migrations,Packagist,7,45,2.0,0,0,1,2,2,42.58
526020,1001661,shinde-rahul/qr_code_attendance,Packagist,6,39,1.0,0,0,0,0,1,28.66
1404517,1001840,cocoastorm/vue-bootstrap-3,NPM,6,35,1.0,0,0,0,0,1,28.66
794546,1001928,mikepsinn/qm-redirector,Bower,7,18,1.0,0,1,0,0,1,33.57
602188,1002131,TitasGailius/php-bits,Packagist,6,46,0.0,0,0,0,0,1,16.38
366649,1002261,igor875126/smithclientcurl,Packagist,7,38,1.0,0,0,0,0,1,28.66
2271932,1002291,ruanitto/adonis-oauth2-provider,NPM,7,0,2.0,0,0,1,2,1,38.02
522942,1002310,dgtal/booking-api,Packagist,7,39,1.0,0,1,0,1,0,20.88
310468,1002424,jimblue/statamic-addon-mapbox,Packagist,5,64,1.0,0,0,0,0,1,28.66
601306,1002576,tigron/skeleton-package-openapi,Packagist,7,38,5.0,0,1,0,0,1,40.54
453297,1002701,primasio/primas-api-sdk-php,Packagist,3,38,3.0,0,0,0,2,1,38.52
440804,1002810,philwinkle/Philwinkle_Fixerio,Packagist,5,58,9.0,0,0,24,71,7,57.51
1360307,1003750,biigpongsatorn/begeta-prototype,NPM,7,46,2.0,0,0,0,0,1,32.08
3124777,1003990,voronkovich/symfony-console-app,Packagist,6,28,1.0,0,0,0,0,1,28.66
357334,1004034,hollodk/cms,Packagist,7,49,1.0,0,0,0,0,1,28.66
123973,1004041,avinsol/test-bundle,Packagist,7,38,1.0,0,0,0,0,1,28.66
632919,1004060,afjlambert/workon,Pypi,7,0,0.0,0,0,0,0,0,0.0
375577,1004107,nbj/heartbeating-job-runner,Packagist,5,49,1.0,0,0,1,0,0,13.51
646890,1004114,mashware/ZenMail,Packagist,7,39,1.0,0,0,0,0,1,28.66
252271,1004197,Fbeen/SettingsBundle,Packagist,7,40,2.0,0,0,0,0,1,32.08
269877,1004252,galmi/xacml,Packagist,7,39,1.0,0,1,1,2,1,39.51
651238,1004369,pepperreport/apdex,Packagist,7,43,2.0,0,0,2,0,2,38.22
254246,1004463,fertandil87/pChart,Packagist,6,38,1.0,0,0,1,0,1,29.89
3105998,1005076,stefthoen/tico,Packagist,6,39,2.0,0,0,0,0,1,32.08
614305,1005298,vikkio88/slime-framework,Packagist,7,39,1.0,1,5,0,0,1,38.81
461548,1005861,horejsek/python-pytest-data,Pypi,7,45,2.0,1,1,2,3,3,53.11
3124662,1005974,vongola12324/laravel-auth-management,Packagist,4,43,2.0,0,0,1,1,2,41.56
545643,1006143,Crinsane/LaravelGettext,Packagist,6,38,1.0,0,0,1,3,1,35.11
144723,1006191,beyondcode/nova-laravel-update-card,Packagist,6,43,2.0,0,0,3,34,1,40.85
454409,1006248,professorhaseeb/smartOutput,Packagist,3,40,2.0,0,0,0,0,1,32.08
36763,1006748,adamdburton/nanoftpd,Packagist,6,38,1.0,0,0,2,2,1,34.94
475666,1006772,rorichster/WhatsNew,Packagist,7,38,1.0,0,0,0,0,1,28.66
3091292,1007010,ahmadrio/ptdot-button-back,Packagist,4,48,0.0,0,0,0,0,1,16.38
697438,1007517,mpmdean/pymcaspec,Pypi,7,0,1.0,0,0,1,0,1,29.89
363134,1007990,mitchwilliamson/oauth2-youtube,Packagist,7,38,1.0,0,0,0,0,1,28.66
2387274,1008175,sample-text-here/is-is-useless,NPM,5,0,1.0,0,0,0,0,1,28.66
3362532,1008779,monban/ucg,Go,6,38,1.0,0,0,0,0,1,28.66
3106201,1009020,dev-and-web/daw-php-pagination,Packagist,5,55,1.0,0,0,0,0,1,28.66
481012,1009040,rumeau/belongsto-depend,Packagist,7,39,2.0,0,0,0,1,1,35.76
3119473,1009051,thujohn/packagist-l4,Packagist,7,40,1.0,0,0,0,7,1,34.73
502406,1009173,cmizzi/laravel-command-alias,Packagist,7,30,2.0,0,0,1,2,1,38.02
324660,1009283,mikemand/pagination,Packagist,4,45,1.0,0,0,1,4,3,42.3
415460,1009324,ngmy/phpinfocmp,Packagist,4,45,2.0,0,0,0,2,1,36.79
603779,1009332,TiDJ/laravel-custom-html,Packagist,6,54,2.0,0,0,1,9,2,44.15
25790,1009492,absalomedia/kilns,Packagist,7,43,2.0,0,0,0,0,3,38.94
651217,1009543,amirulahmad/laravel-imageupload-intervention,Packagist,7,40,1.0,0,0,0,0,1,28.66
569006,1009550,austinkregel/formmodel,Packagist,5,57,2.0,1,2,0,6,2,51.33
602492,1009748,tedslittlerobot/l4-support,Packagist,6,39,1.0,0,4,0,5,1,41.83
222187,1009756,djamesfar/bake,Packagist,7,39,1.0,0,0,0,0,0,12.28
445713,1009785,phuclh/nova-vnd-field,Packagist,5,50,0.0,0,0,0,0,1,16.38
181950,1009789,chx2/EasyDocs,Packagist,4,50,1.0,0,0,0,0,2,33.22
166137,1009811,bobbybouwmann/entry,Packagist,7,40,2.0,0,0,3,2,1,38.53
629030,1009855,wolfrednicolas/wolfred-twilio,Packagist,7,39,1.0,0,0,0,0,1,28.66
181476,1009900,chrispecoraro/wikipedia-tools,Packagist,7,0,1.0,0,0,1,0,1,29.89
520474,1009911,IsraelOrtuno/page,Packagist,5,37,2.0,0,0,0,0,1,32.08
78236,1009914,gabrielkoerich/service-manager,Packagist,7,31,1.0,1,1,0,2,1,40.74
566409,1009919,jpcaparas/box-laravel,Packagist,7,43,0.0,0,1,0,1,1,24.97
370525,1010029,mrsimonbennett/commander,Packagist,4,36,1.0,0,0,0,1,1,32.34
228321,1010040,dowilcox/BladeView,Packagist,6,42,4.0,0,0,6,15,1,43.47
753380,1010051,sagarrabadiya/bootstrap_handy_validations,Bower,7,18,2.0,0,0,0,1,1,35.76
1053394,1010074,danrovito/StrRandom,NuGet,4,51,1.0,0,0,0,0,1,28.66
563937,1010120,jonasof/array-circle-fetch,Packagist,7,39,1.0,0,0,0,0,1,28.66
804825,1010209,studio-net/toast-notifications,Bower,7,19,3.0,0,0,0,0,1,33.8
604740,1010261,ToxaGeek/laravel-wg-api,Packagist,6,38,1.0,0,0,0,0,1,28.66
3082188,1010355,jacob-hyde/Printify-PHP-SDK,Packagist,7,32,1.0,0,0,1,0,2,34.45
569024,1010399,metabitco/transform,Packagist,7,39,2.0,0,0,0,0,1,32.08
365245,1010435,Modelizer/multi-tenant,Packagist,6,38,1.0,0,0,1,0,1,29.89
431343,1010443,oakwood/wp-theme,Packagist,3,38,5.0,0,1,0,1,3,51.09
292260,1010466,InteractionDesignFoundation/laravel-real-email-validation,Packagist,5,48,10.0,0,0,0,0,2,42.11
515661,1011009,Darovi/Commander,Packagist,7,40,3.0,0,0,0,0,1,33.8
597737,1011321,1f991/patreon-php,Packagist,4,45,2.0,0,1,2,8,1,44.75
1236564,1012709,chemerisuk/cordova-plugin-firebase-config,NPM,6,53,3.0,0,0,26,19,4,51.15
775158,1012885,daviddt/jquery-plugin,Bower,7,20,1.0,0,0,0,0,1,28.66
1219738,1013762,meisterplayer/media-dash,NPM,6,52,9.0,0,0,0,0,3,44.15
1996936,1013830,smashingpat/bundel,NPM,7,0,1.0,0,0,0,0,1,28.66
3460762,1014444,sora0077/PredicateKit,Carthage,7,18,1.0,0,0,0,1,1,32.34
675425,1014937,jakeheis/Git,SwiftPM,7,18,1.0,0,0,0,6,1,34.6
3460790,1015259,isaac-weisberg/HalfFive,Carthage,6,18,0.0,0,0,0,3,1,21.6
3460805,1015516,mitsuse/screen-container,Carthage,7,29,0.0,0,0,0,0,1,16.38
981371,1015710,gibachan/XmlDict,NuGet,5,56,1.0,0,0,0,0,1,28.66
3460801,1015837,brentleyjones/xcconfigs,Carthage,5,17,0.0,0,0,0,0,1,16.38
1667423,1015978,ferranpujolcamins/mixxx-controller-script-sequencer,NPM,7,44,1.0,0,0,0,0,1,28.66
58207,1016523,AIbnuHIbban/Laravel-with-Livewire-Setup,Packagist,7,39,0.0,0,0,0,1,1,20.06
2080200,1016641,hellobloom/share-kit-react,NPM,6,0,8.0,2,1,0,0,4,53.34
310450,1016763,jildertmiedema/windows-phone-push,Packagist,3,46,1.0,1,0,1,3,1,37.57
965361,1017160,StardewConfigMenu/StardewConfigFramework,NuGet,5,54,2.0,0,0,1,1,1,36.99
2284860,1017415,deshiknaves/cypress-msw-interceptor,NPM,7,0,1.0,0,0,0,18,1,35.38
1299530,1017470,GaborWnuk/react-native-imagepreview,NPM,7,34,2.0,0,0,1,1,0,20.62
1818318,1017716,jcfrancisco/carlo-js,NPM,7,45,0.0,0,0,0,0,0,0.0
1141525,1018011,Commander-lol/Sideburns,NPM,5,56,1.0,1,2,0,0,1,37.4
1323913,1018118,lechinoix/react-snake,NPM,7,34,0.0,0,0,0,0,1,16.38
3086121,1018472,yondifon/laravel-graphiql,Packagist,7,31,1.0,1,0,0,1,1,34.8
2374112,1019087,Nexapp/react-native-scrollable-with-collapsible-header,NPM,7,0,14.0,0,0,3,5,2,50.37
2241560,1019163,echobind/launchbox,NPM,4,0,4.0,0,0,0,3,1,40.11
3079666,1019711,glendemon/phpexcel-wrapper,Packagist,7,39,1.0,0,0,1,0,1,29.89
1589929,1019958,mondora/gemfury-publish,NPM,6,51,16.0,0,0,3,0,4,48.59
3081392,1021021,masif088/libtol,Packagist,5,37,1.0,0,0,0,0,1,28.66
1501253,1021728,RajnishDashora/All-Doer,NPM,7,34,1.0,0,0,0,1,1,32.34
3109728,1021756,suqld/otrs,Packagist,6,50,6.0,0,0,5,5,2,48.46
2162072,1022049,MatiseAms/create-matise-nuxt,NPM,3,0,3.0,0,0,0,0,22,47.76
3035577,1022546,Nasajon/gclick_sdk,Pypi,7,45,6.0,0,0,0,0,0,19.82
3035594,1022562,ricardovezetiv/pythonpro-libpythonpro,Pypi,7,0,1.0,0,0,0,0,2,33.22
3035599,1022568,FireHead90544/stack.py,Pypi,7,41,1.0,0,0,0,1,1,32.34
3035580,1022575,valknight/loadstar,Pypi,7,32,1.0,0,0,0,0,1,28.66
3035585,1022577,EwetoyeIbrahim/flask-odoo-graphql,Pypi,7,32,1.0,0,1,0,1,1,37.25
3035597,1022586,aboucaud/galcheat,Pypi,7,40,2.0,0,0,1,1,2,41.56
3035601,1022587,walnutgeek/azfiles,Pypi,7,0,1.0,0,0,0,0,1,28.66
254228,1025090,ferrl/framework,Packagist,3,34,0.0,0,1,0,1,1,24.97
1386316,1026631,krutoo/packmar.js,NPM,4,52,1.0,0,0,1,7,1,35.96
435205,1026638,sima-land/yii2-logstock,Packagist,5,55,3.0,1,1,5,4,3,55.51
2045167,1026695,ark120202/dota-data,NPM,4,0,1.0,0,0,6,0,1,30.64
3162104,1026779,dianas11xx/MoodipyTest,Pypi,7,0,1.0,0,0,0,0,1,28.66
1781256,1026845,uktrade/trade-elements,NPM,7,56,40.0,0,1,2,5,2,56.83
655319,1027199,caiyunapp/caiyun-weather-api-python-sdk,Pypi,6,0,3.0,0,0,0,2,1,38.52
2052273,1027464,egemenhalici1/react-input-with-popup,NPM,7,0,1.0,0,0,0,0,0,12.28
3118425,1028238,therealgambo/ramlfications-php,Packagist,6,38,2.0,0,0,0,2,0,20.42
448201,1028576,pjkui/kindeditor,Packagist,3,43,4.0,0,0,9,27,1,43.89
309021,66,katzj/test-python-package,Pypi,9,53,2.0,0,0,1,0,20,47.04
3231943,69,tidelift/dotyaml,Rubygems,13,56,2.0,0,0,10,17,4,49.18
3343932,207,tiegz/kadoku,Rubygems,9,43,3.0,0,0,1,4,1,40.58
641761,256,Kami/python-yubico-client,Pypi,13,0,6.0,1,0,22,77,8,59.36
3432097,349,OpenSourceOrg/rust-opensource,Cargo,12,0,10.0,0,0,10,5,2,50.0
2402317,362,todogroup/repolinter,NPM,15,0,29.0,2,0,66,292,40,67.91
1908628,484,ipfs-inactive/npm-go-ipfs-dep,NPM,11,50,25.0,0,0,20,16,13,60.87
1954274,563,ipfs-shipyard/ipfs-deploy,NPM,10,0,21.0,0,0,81,848,19,62.94
3313031,798,malditogeek/redisrecord,Rubygems,8,41,2.0,0,0,0,19,1,38.83
3347016,816,maclover7/trix,Rubygems,15,51,5.0,0,16,126,181,10,66.39
769181,929,samjacobclift/help-wanted-gh-issues,Bower,9,35,0.0,0,0,0,0,1,16.38
3247246,939,barisbalic/gamertag,Rubygems,11,54,3.0,0,0,10,21,1,42.72
1479613,975,bengourley/slugg,NPM,15,62,6.0,0,0,12,369,7,56.68
2003853,1051,splashinn/nog,NPM,10,0,1.0,0,0,0,0,4,36.95
380365,1170,olizilla/asciify,NPM,9,0,4.0,107,88,4,123,3,65.8
3287704,1290,djpowers/musicgraph,Rubygems,10,45,1.0,0,0,3,5,1,36.18
3337597,1386,kdaigle/strapper,Rubygems,9,45,1.0,0,0,1,7,1,35.96
3346842,1693,hendrixfan/triangle,Rubygems,12,48,3.0,0,0,6,40,3,49.74
1616458,1967,anthonyringoet/heap-server,NPM,9,45,1.0,0,0,4,9,1,36.78
1132305,1999,martinvd/prepend-file-cli,NPM,11,0,1.0,26,3,1,5,1,47.24
159236,2009,willingc/circuitpython_kernel,Pypi,12,50,1.0,0,0,21,8,3,43.97
3210202,2178,sclinede/blood_contracts,Rubygems,14,51,1.0,0,0,4,82,1,37.85
1587562,2204,nelsonic/github-scraper,NPM,14,50,23.0,0,0,82,319,6,59.36
868019,3075,JakeWharton/ViewPagerIndicator,NuGet,14,70,696.0,1,0,4147,10235,15,68.68
1172106,3311,jamesgpearce/monomi,NPM,11,47,0.0,1,0,4,42,1,27.79
489179,3334,jparise/python-reloader,Pypi,13,51,13.0,1,1,26,135,5,64.58
1451792,3364,jpeddicord/askalono,NPM,14,63,10.0,0,0,17,205,11,59.5
627363,3412,willnorris/wordpress-license,Packagist,9,37,3.0,0,0,1,3,2,44.82
57195,3438,50Wliu/language-sourcepawn,Atom,11,59,3.0,0,0,6,10,3,49.0
3517340,3453,88250/city-geo,Go,11,0,6.0,0,0,83,218,1,46.23
326054,3879,Akasurde/Mahadiscom,Pypi,8,50,1.0,0,0,1,3,2,39.68
642890,3932,AkihiroSuda/z42,Pypi,8,0,2.0,0,0,0,1,1,35.76
1653874,3989,akyoto/load-class,NPM,8,48,2.0,0,0,0,1,1,35.76
3264927,4386,amatsuda/jb,Rubygems,15,61,28.0,1,5,30,1115,8,70.98
1618702,4517,andrewda/hltv-livescore,NPM,14,54,10.0,0,0,8,68,6,56.94
2564938,4580,postalsys/imapflow,NPM,14,0,3.0,1,0,10,86,4,54.03
112233,4710,andybons/ABVariants,CocoaPods,9,28,1.0,0,0,1,1,1,33.57
23025,4853,ararslan/Jackknife.jl,Julia,12,39,4.0,0,0,8,17,2,48.19
379380,5339,astorije/chai-immutable,NPM,10,0,4.0,272,323,15,160,13,72.56
1659353,5374,axic/mango-admin,NPM,10,38,2.0,0,0,13,22,1,41.08
128909,5454,b3none/steam-id-converter,Packagist,10,43,1.0,0,0,1,21,1,36.69
1929845,5554,BaseMax/FilterInputJs,NPM,12,57,3.0,0,0,5,35,2,47.33
1167037,5830,bbondy/abp-filter-parser,NPM,13,0,4.0,3,0,16,49,6,57.8
3092905,6056,pborreli/composer-service,Packagist,12,48,9.0,0,0,19,175,13,59.71
2441753,6217,borderless/unfurl,NPM,12,0,5.0,0,1,1,36,5,58.12
1851096,6309,boopathi/react-svg-loader,NPM,11,59,6.0,0,0,83,585,21,60.27
3283583,6388,bogdanvlviv/minitest-mock_expectations,Rubygems,11,58,1.0,1,0,1,12,1,38.82
3439710,6421,brauner/rlxc,Cargo,10,0,1.0,0,0,2,11,3,43.51
1281727,6450,bsclifton/poker.js,NPM,9,56,1.0,0,0,0,2,2,37.93
1336126,6579,cblecker/hyper-quit,NPM,10,0,2.0,0,0,1,21,1,40.11
1903889,6691,cezaraugusto/mklicense,NPM,11,42,3.0,0,0,5,145,3,50.09
1612035,6750,cheshire137/gulp-ruby-haml,NPM,12,47,3.0,0,0,14,27,5,52.21
1747008,6831,chicoxyzzy/rx-mobx,NPM,14,60,4.0,0,0,4,56,2,48.51
3319696,6855,colby-swandale/rubocop-github-annotations-formatter,Rubygems,10,44,1.0,0,0,0,9,1,34.93
1625639,6916,d3viant0ne/hyperterm-base16-tomorrow-dark,NPM,11,55,0.0,0,0,3,24,1,24.98
3419403,6956,cyphar/initrs,Cargo,9,0,2.0,0,0,0,15,1,38.69
1655896,7179,dasilvacontin/ludumpad,NPM,10,44,1.0,0,0,5,24,1,37.45
336450,7290,datapythonista/mnist,Pypi,15,0,2.0,4,19,46,105,4,62.87
974817,7291,daveaglick/Scripty,NuGet,12,62,45.0,0,0,72,619,13,63.02
1718790,7330,denar90/psi-ngrok,NPM,9,36,3.0,1,0,0,24,1,43.13
1781991,7558,devversion/travis-after-modes,NPM,8,46,0.0,2,0,0,0,1,19.52
378870,7595,Dexus/pem,NPM,11,0,10.0,450,2158,114,519,39,78.65
1246133,7597,Dexus-Forks/cordova-plugin-ironSource,NPM,11,53,5.0,0,0,1,5,2,47.2
203665,7634,disposable-email-domains/python-disposable-email-domains,Pypi,14,0,4.0,0,4,9,32,2,55.93
899840,7673,dlemstra/Magick.NET,NuGet,13,70,85.0,0,0,298,1970,24,65.52
3386538,7771,dynamitechetan/razorpay_flutter,Pub,12,60,6.0,0,0,17,26,2,49.89
500169,7901,endocrimes/Jay,CocoaPods,15,49,8.0,0,0,23,133,8,57.86
1706011,8067,evantahler/nodePhidgets,NPM,11,58,6.0,0,2,8,29,3,58.35
1152038,8121,FagnerMartinsBrack/str-replace,NPM,11,42,2.0,2,0,4,94,2,49.02
183441,8139,feiskyer/python-cri,Pypi,10,53,2.0,0,0,1,8,1,39.49
3358937,8147,Fivell/yatran,Rubygems,10,50,4.0,0,0,0,2,2,44.15
2460323,8241,webtorrent/fs-chunk-store,NPM,13,0,4.0,1,0,17,27,5,55.78
98340,8285,freak4pc/UIView-Positioning,CocoaPods,15,45,14.0,0,1,46,415,3,60.16
1601884,8293,frewsxcv/graphosaurus,NPM,14,51,25.0,0,0,41,351,3,56.25
2291193,8392,GantMan/jail-monkey,NPM,15,0,7.0,1,4,103,317,0,40.25
169679,8511,GwendolenLynch/Carbon,Packagist,11,0,6.0,24,13,2,76,150,75.34
1625391,8539,gyandeeps/hypernpm,NPM,11,54,1.0,0,0,4,17,3,44.06
1457596,8652,helfer/graphql-disable-introspection,NPM,14,0,4.0,3,1,6,129,2,57.29
703586,8872,icecrime/RateLimiting,Pypi,10,48,1.0,0,0,23,16,1,37.59
379925,9210,jayphelps/core-decorators,NPM,11,0,80.0,449,372,273,4381,22,80.78
261012,9303,jayvdb/flake8-putty,Pypi,13,59,2.0,1,6,7,38,4,59.85
1308829,9366,jdalton/docdown,NPM,11,44,9.0,2,0,28,195,7,60.95
1588668,9694,jdorfman/g20,NPM,10,52,0.0,0,0,1,11,3,30.88
36073,9762,jglovier/fizzy,Atom,12,53,1.0,0,0,18,29,4,46.15
3423059,9811,jimmidyson/rcm,Cargo,9,0,1.0,0,0,1,0,1,29.89
3312564,9843,jisaacks/recurse-delete,Rubygems,11,49,2.0,0,0,13,25,5,50.44
707534,9889,laf/russound,Pypi,9,52,3.0,0,2,2,3,3,53.75
973219,9903,Krzysztof-Cieslak/RemoveObj,NuGet,9,64,2.0,0,0,4,13,6,50.5
2149731,9945,lahmatiy/open-in-editor,NPM,14,0,5.0,0,0,20,191,8,56.56
84118,9996,lee-dohm/tabs-to-spaces,Atom,14,67,2.0,0,0,10,68,3,48.34
3214608,10157,thattommyhall/capistrano-elb,Rubygems,9,46,2.0,0,0,11,26,2,45.69
472864,10217,rodnaph/morgan,Packagist,10,49,1.0,0,0,0,11,1,35.07
1826480,10470,lucasbento/react-native-thumbnail-video,NPM,14,62,5.0,0,2,25,104,6,61.66
3430,10505,Lukasa/requests-ftp,Conda,14,55,9.0,0,5,24,69,13,67.2
1698890,10544,makoscafee/gulp-gae,NPM,9,43,0.0,0,0,0,0,1,16.38
1594463,10614,marcosmoura/generator-scaffold,NPM,12,48,4.0,0,0,5,21,2,48.17
605977,10630,Mariatta/tic_tac_taco_pizza,Pypi,10,0,0.0,0,0,1,6,1,23.55
794134,10683,leggetter/pusher-js-client-auth,Bower,8,22,2.0,0,0,1,7,1,39.39
1936958,10831,matchai/ts-quick,NPM,10,46,1.0,0,0,3,22,4,45.52
302053,11037,bd808/python-iptools,Pypi,14,48,7.0,10,9,17,65,5,68.03
3302551,11591,mmozuras/poper,Rubygems,13,57,2.0,0,0,12,77,6,51.61
315930,11680,nasirhjafri/libyear,Pypi,13,51,2.0,0,0,11,71,8,52.63
1503782,11688,ncoden/angular-pseudo-class,NPM,8,47,1.0,0,0,1,3,1,35.11
2124860,11721,ndelangen/corejs-upgrade-webpack-plugin,NPM,14,0,1.0,4,986,5,10,6,61.16
263282,11742,nicolaiarocci/flask-mimerender,Pypi,12,55,8.0,0,0,6,67,2,50.81
856440,11786,nmilcoff/EasyTipView,NuGet,8,57,2.0,1,0,6,68,1,43.8
1389962,11799,novemberborn/ksuid,NPM,10,47,2.0,2,0,14,131,4,53.18
215346,11800,olasitarska/django-gulp-rev,Pypi,9,48,0.0,0,1,3,13,2,34.12
3278992,11892,olivierlacan/mandrillus,Rubygems,9,52,1.0,1,0,1,2,2,41.62
127371,11995,ParthS007/background,Pypi,15,52,22.0,0,7,26,497,9,68.79
1501384,12015,parkr/all-your-github-are-belong-to-us,NPM,11,41,7.0,0,0,9,53,1,45.92
751012,12138,paulfalgout/backbone-moment,Bower,10,39,1.0,0,0,1,5,1,35.66
3242841,12480,pboling/flag_shih_tzu,Rubygems,15,62,10.0,2,1,59,461,36,70.7
1942840,12528,pbugnion/gmaps,NPM,15,56,26.0,0,0,144,719,14,62.54
496011,12615,schlessera/wp-cli-psysh,Packagist,11,50,3.0,0,0,0,16,1,40.46
1801841,12679,shockey/workfrom,NPM,9,43,1.0,0,0,2,5,1,36.0
1374023,12706,simskij/dotty-cli,NPM,9,45,1.0,0,0,0,0,0,12.28
405055,12896,stevemao/github-remove-all-releases,NPM,13,0,1.0,5,5,7,26,1,49.14
1831974,13215,styfle/react-server-example-tsx,NPM,13,0,3.0,0,0,36,260,4,52.08
1838052,13270,swissspidy/local-webfont,NPM,10,46,1.0,0,0,5,38,2,42.22
474511,13403,tapaswenipathak/pyQTopic,Pypi,13,57,4.0,0,0,16,38,6,54.21
700310,13497,The-Compiler/pytest-vw,Pypi,10,52,1.0,0,0,10,133,3,45.11
395132,13526,TheSavior/rewire-global,NPM,13,60,1.0,4,0,2,6,3,46.74
2243949,13750,electron-modules/network-interface,NPM,11,0,1.0,0,0,1,21,1,36.69
1512865,13789,app-bootstrap/autoresponsive_react_native_sample_android_ci,NPM,8,48,1.0,0,0,0,1,1,32.34
1432918,13982,yavorsky/bundle-utils,NPM,10,47,3.0,0,0,3,31,5,51.83
3225866,14192,despo/cyprus-street-names,Rubygems,10,48,2.0,0,0,1,4,1,38.86
1223497,14220,muan/emojilib,NPM,15,62,31.0,0,0,304,1369,97,66.58
2416689,14781,cwaring/vuepress-plugin-ipfs,NPM,11,0,2.0,0,0,1,11,1,39.73
413595,14842,daviddias/webrtc-explorer,NPM,13,0,20.0,2,0,33,265,3,58.93
756135,14971,decentralion/chartographer,Bower,14,39,24.0,0,0,6,46,4,56.69
3395905,15040,dignifiedquire/async-tar,Cargo,14,55,1.0,3,0,18,46,42,56.75
1849975,15142,hacdias/electron-menubar,NPM,12,53,0.0,0,2,3,37,2,36.02
1932115,15199,hugomrdias/prettier-stylelint,NPM,12,0,4.0,1,0,31,168,1,47.19
1784665,15398,marcooliveira/node-twitter-pic,NPM,9,46,1.0,0,0,1,1,1,33.57
1782922,15442,nicola/tubemaps,NPM,13,0,8.0,0,0,23,197,3,53.71
1726461,15577,travisperson/react-hexviewer,NPM,11,44,2.0,0,0,7,15,1,40.72
2492798,15708,vasco-santos/dns-over-http-resolver,NPM,11,0,1.0,1,178,1,4,2,52.52
3401077,15990,Aaron1011/cargo-urlcrate,Cargo,9,49,1.0,0,0,0,1,1,32.34
1906019,16154,AquiGorka/kanpo,NPM,9,47,1.0,0,0,0,1,2,36.91
608826,16226,AuHau/toggl-cli,Pypi,15,0,10.0,1,2,58,275,25,70.57
388849,16243,balupton/simple-server,NPM,14,48,1.0,15,7,9,33,2,54.84
292043,16274,cboddy/i3-workspace-names-daemon,Pypi,13,56,9.0,0,0,22,84,8,58.03
1942401,16320,davidar/pandiff,NPM,13,0,9.0,0,0,13,136,4,55.24
2060870,16387,dankelleher/insomnia-plugin-aws-iam,NPM,11,0,1.0,0,0,2,5,1,36.0
3066631,16589,Luzifer/git-changerelease,Go,9,48,1.0,0,0,0,1,1,32.34
498498,16703,marten-seemann/OXID_recaptcha,Packagist,9,47,3.0,0,0,3,5,1,41.32
1630176,16754,nginnever/ippm,NPM,9,33,1.0,0,0,1,6,1,35.83
259399,17265,Seenivasanseeni/FirstPIP,Pypi,8,45,1.0,0,0,0,0,1,28.66
1871503,17342,vasa-develop/redux-cross-fetch,NPM,10,54,1.0,0,0,0,0,1,28.66
411315,17509,vmx/jslens,NPM,11,0,8.0,2,1,1,25,2,57.72
2084078,17574,zebateira/react-use-system-theme,NPM,12,0,1.0,0,1,4,15,2,46.6
1259753,17598,yangwao/skCube-data-collector,NPM,13,59,4.0,0,0,4,14,2,47.87
1600998,18000,aheckmann/gm,NPM,15,50,114.0,1,3,609,6474,0,44.88
105415,18148,apemsel/AttributedString,Packagist,9,51,1.0,0,0,0,1,0,15.97
1172720,18258,atsuya/parallel-mocha,NPM,12,45,3.0,4,0,8,18,2,50.85
3220217,18292,braintreeps/cocoapods-archive,Rubygems,9,51,3.0,0,0,3,8,2,46.3
800400,18480,dodo/node-slug,Bower,13,30,15.0,0,4,94,1092,0,39.78
1550360,18546,teemow/node-dawanda,NPM,8,47,1.0,0,0,3,3,1,35.63
404861,18618,tim-smart/async-array,NPM,12,0,1.0,6,1,2,52,1,46.29
808992,18728,tmpvar/weld,Bower,11,25,13.0,0,0,39,681,0,31.92
3294920,18957,vesan/omnifocus-trello,Rubygems,13,55,13.0,0,0,21,81,0,31.36
748388,18969,teropa/angular-virtual-dom,Bower,10,25,11.0,0,0,13,227,0,31.17
3271010,19112,agoddard/knife-ghost,Rubygems,8,40,1.0,0,0,0,5,0,18.06
3289881,19155,azet/NetApp.rb,Rubygems,8,45,3.0,0,0,3,5,0,24.95
3350600,19178,c10l/vagrant-butcher,Rubygems,12,45,5.0,0,0,13,127,0,28.89
3355551,19288,kisoku/whisk,Rubygems,10,46,3.0,0,0,0,13,1,40.33
3212802,19315,joemiller/bunchr,Rubygems,11,53,4.0,0,0,7,89,0,27.89
3218742,19384,lozzd/cisco-config-parse,Rubygems,9,45,4.0,0,0,5,13,0,26.96
63577,19439,KrisBuytaert/puppet-packetbeat,Puppet,9,50,1.0,0,0,7,1,2,38.93
712977,19455,mconigliaro/smtptester,Pypi,9,44,2.0,0,0,2,3,1,38.88
3291227,19468,lusis/Noah,Rubygems,15,57,17.0,0,0,169,328,3,55.71
3270938,19542,mdxp/knife-backup,Rubygems,13,48,15.0,0,1,48,111,0,36.77
1668932,19656,adufilie/MobxPromise,NPM,10,41,1.0,3,0,5,3,1,39.3
140539,19753,agoodm/binconvert,Pypi,8,47,1.0,0,0,0,0,0,12.28
67094,19834,akrabat/slim3-skeleton,Packagist,13,45,40.0,0,0,110,347,0,33.8
771397,19937,aliok/ion-affix,Bower,10,26,5.0,0,1,30,84,0,33.84
3208714,1,librariesio/bibliothecary,Rubygems,19,74,14.0,3,3,33,71,15,71.4
414100,92,andrew/node-xbox-controller,NPM,18,0,13.0,4,4,55,255,14,72.1
3195534,402,splitrb/split,Rubygems,21,0,42.0,0,0,356,2526,142,67.54
2596183,411,ipfs/go-ipfs,Go,20,75,570.0,0,0,2343,12178,282,70.69
2043341,692,apache/echarts,NPM,24,0,2042.0,0,0,18133,48332,145,70.79
3206499,1253,marcandre/backports,Rubygems,23,69,12.0,141,2366,54,398,27,78.09
761240,1526,timruffles/mobile-drag-drop,Bower,18,60,21.0,0,0,142,519,20,63.03
575805,1708,SocialiteProviders/Manager,Packagist,19,65,10.0,205,370,69,311,36,77.91
485923,1910,Moya/Moya,CocoaPods,22,79,250.0,0,402,1761,13522,201,80.14
3226246,1931,danger/danger,Rubygems,21,71,49.0,5,2,422,4611,188,78.24
2065335,2128,rtfpessoa/diff2html,NPM,18,0,34.0,1,0,202,1799,34,67.56
2416910,2686,RichardLitt/standard-readme,NPM,20,0,77.0,0,0,1876,4231,21,65.31
3231839,2971,bkeepers/dotenv,Rubygems,28,76,65.0,1055,4693,445,5905,98,83.7
751030,3504,afeld/backbone-nested,Bower,16,53,17.0,0,0,86,450,14,61.69
2218639,3618,ahmadawais/create-guten-block,NPM,20,0,84.0,1,49,316,3003,22,77.39
1863628,3816,ai/nanoid,NPM,17,72,132.0,2,0,504,14224,81,71.38
2634950,3911,containerd/nerdctl,Go,16,60,33.0,0,0,116,1958,9,61.69
67532,4013,alcaeus/mongo-php-adapter,Packagist,22,70,26.0,116,85,106,457,21,78.21
67614,4030,alcohol/iso4217,Packagist,17,69,5.0,23,11,18,81,7,68.96
2268840,4137,alexellis/k3sup,Go,17,35,63.0,0,0,261,3869,39,66.23
542313,4468,amjith/fuzzyfinder,Pypi,18,70,12.0,10,1,31,356,3,63.99
777257,4565,andris9/jStorage,Bower,16,50,68.0,0,3,286,1536,22,72.04
1144051,4723,appleboy/react-recaptcha,NPM,21,0,6.0,28,69,100,601,26,75.09
2094413,4888,arcanis/pnp-webpack-plugin,NPM,21,0,4.0,1251,104087,13,233,4,69.26
3461029,4980,ashfurrow/Nimble-Snapshots,Carthage,16,68,10.0,0,7,87,303,38,70.81
3395475,5074,ashleygwilliams/assert_approx_eq,Cargo,17,64,2.0,111,17,7,21,4,63.07
1265411,5268,aweary/react-perimeter,NPM,16,0,9.0,3,1,28,1068,6,65.92
1732153,5512,balloob/react-sidebar,NPM,17,69,16.0,0,0,234,1473,22,62.95
123213,5862,berkerpeksag/astor,Pypi,21,62,25.0,201,1746,85,602,25,79.43
2297649,5873,bevacqua/dragula,NPM,18,0,374.0,0,0,1945,20890,33,67.66
2185514,6140,bnb/bitandbang,NPM,18,0,5.0,0,0,446,401,5,55.22
1395217,6202,blakeembrey/change-case,NPM,16,40,14.0,0,0,57,1587,14,61.45
2684647,6490,caarlos0/env,Go,23,79,24.0,94,149,151,2070,45,79.99
383953,6612,ahmadnassri/node-har-validator,NPM,16,0,2.0,353,319280,25,55,11,69.98
1582849,6843,clauderic/react-sortable-hoc,NPM,18,58,86.0,0,0,897,9648,60,67.42
1152620,6862,cpojer/js-codemod,NPM,16,53,28.0,9,2,121,1093,28,74.79
747554,6901,crisbeto/angular-svg-round-progressbar,Bower,18,55,32.0,0,13,169,739,8,69.85
3213220,7316,deivid-rodriguez/byebug,Rubygems,26,77,41.0,2536,19821,295,3155,65,82.74
660962,7369,DenisCarriere/geocoder,Pypi,22,0,55.0,28,137,265,1398,56,81.15
2580366,7428,denysdovhan/wtfjs,NPM,19,0,499.0,0,0,1623,23821,56,68.74
1972562,7429,spaceship-prompt/spaceship-prompt,NPM,21,0,99.0,0,1,874,15264,104,73.25
623599,7628,di/vladiate,Pypi,16,0,7.0,0,0,32,75,9,57.79
1410579,7675,diegohaz/constate,NPM,16,62,38.0,0,0,87,3451,11,62.56
292028,7879,enkore/i3pystatus,Pypi,16,64,25.0,0,0,179,421,125,66.34
1891901,8152,feross/simple-peer,NPM,18,58,145.0,0,0,871,5738,68,68.03
2551808,8671,hiroppy/fusuma,NPM,18,0,41.0,0,1,200,4991,17,68.88
3414116,8800,Hoverbear/getset,Cargo,18,0,6.0,75,98,18,213,12,73.15
2149299,8894,iarna/iarna-toml,NPM,20,0,5.0,183,7068,26,226,9,72.86
1855081,9017,iddan/react-native-canvas,NPM,16,0,19.0,0,0,152,798,12,61.6
3308857,9120,indirect/rails3-generators,Rubygems,16,68,5.0,3,40,52,329,28,73.11
2091989,9371,jamiebuilds/react-loadable,NPM,17,0,151.0,0,0,838,16155,90,68.53
331226,9957,lchrusciel/ApiTestCase,Packagist,22,66,12.0,35,35,35,376,24,76.22
3224143,10301,tobias/credit_card_validator,Rubygems,16,59,4.0,4,2,15,53,5,63.56
357767,10388,ljharb/qs,NPM,34,0,63.0,8111,384553,643,6533,48,83.22
86165,10449,lk-geimfari/mimesis,Conda,19,72,67.0,0,0,278,3347,96,67.64
387874,10762,MarshallOfSound/electron-devtools-installer,NPM,24,0,11.0,237,1167,121,836,16,76.86
3431804,10913,matklad/once_cell,Cargo,24,0,11.0,533,2176,53,848,26,78.11
690704,11121,mitsuhiko/pipsi,Pypi,16,0,43.0,0,1,151,2002,29,70.01
263448,11142,pallets-eco/flask-openid,Pypi,18,66,18.0,6,155,69,209,9,74.27
1721987,11272,mikeal/r2,NPM,22,0,63.0,66,105,165,4511,11,77.99
2762448,11642,mvdan/sh,Go,19,80,54.0,1,1,217,4213,47,73.73
386296,11937,papandreou/node-cldr,NPM,16,0,6.0,44,9,18,106,11,71.11
356077,12151,paulmillr/chokidar,NPM,33,0,84.0,9995,326894,524,8310,94,84.51
1230873,12202,PatrickJS/angular-starter,NPM,21,59,543.0,0,0,5170,10419,180,70.24
2255016,12556,sallar/stringz,NPM,17,0,3.0,8,37,11,196,9,68.56
3495048,12632,sferik/t,Homebrew,20,71,124.0,0,0,425,5337,54,67.5
188261,12713,skywinder/GaugeKit,CocoaPods,17,58,33.0,0,1,100,999,13,67.62
715733,12751,sivel/speedtest-cli,Pypi,23,77,311.0,21,133,1644,11418,10,79.05
45258,12817,sobolevn/git-secret,Conda,18,75,37.0,0,0,160,2541,34,65.24
1444709,12852,sokra/rawact,NPM,17,64,63.0,1,1,56,2571,7,68.95
3292923,12874,st0012/object_tracer,Rubygems,16,57,11.0,0,0,9,421,4,55.88
1549769,13018,staltz/xstream,NPM,18,69,48.0,2,0,135,2231,35,68.74
180037,13250,sunshinejr/SwiftyUserDefaults,CocoaPods,21,71,59.0,0,53,335,4510,37,75.68
1996848,13315,swapagarwal/geeksay,NPM,16,0,2.0,0,0,226,137,36,57.04
45429,13572,tianon/gosu,Conda,17,64,82.0,0,0,248,3827,10,63.26
612183,13661,timofurrer/try,Pypi,16,0,12.0,0,0,33,604,3,54.94
1148742,13737,xudafeng/autoresponsive-react,NPM,19,0,40.0,1,4,125,1458,6,70.31
2411689,13847,xtuc/webassemblyjs,NPM,20,0,8.0,3,573,73,613,26,75.38
2164579,14115,zpao/qrcode.react,NPM,17,0,23.0,0,0,254,2587,11,61.87
3281089,14157,arthurnn/memcached,Rubygems,18,72,12.0,25,13,116,426,44,76.76
2149498,14434,achingbrain/pm2-web,NPM,17,0,23.0,0,0,91,506,5,58.7
1461244,14563,alanshaw/markdown-pdf,NPM,17,58,32.0,1,0,242,2336,15,65.69
1130039,15242,jbenet/transformer,NPM,16,49,19.0,32,0,7,133,2,57.6
3450437,15609,Stebalien/tempfile,Cargo,22,0,7.0,344,1647,65,538,30,77.12
3498064,15762,whyrusleeping/gx,Homebrew,16,62,59.0,0,0,112,1847,26,65.22
464420,16399,koalalorenzo/python-digitalocean,Pypi,19,58,48.0,23,29,287,1138,73,80.59
2801475,16852,moul/assh,Go,20,73,51.0,0,0,134,2295,31,65.45
1680786,17386,victorb/ngProgress,NPM,18,67,38.0,0,2,247,1507,26,71.0
378978,18159,astro/node-expat,NPM,21,0,13.0,174,204,91,362,0,47.04
2503858,18298,bcoe/c8,NPM,17,0,14.0,1,0,51,1029,17,64.34
3209473,19043,zapnap/resque_mailer,Rubygems,17,65,11.0,0,0,106,613,27,62.42
3228175,19255,danielsdeleo/deep_merge,Rubygems,21,71,6.0,178,242,57,141,13,73.9
3254935,19588,rodjek/puppet-lint,Rubygems,17,63,44.0,0,0,207,761,69,66.49
285143,1411324,burnash/gspread,Pypi,28,75,161.0,106,316,850,5635,123,84.05
1167136,1411336,mathjax/MathJax,NPM,21,0,252.0,1,0,1125,8504,30,69.57
79769,1411399,huggingface/datasets,Conda,23,79,234.0,1,1,1316,11302,337,77.62
225276,1495934,doctrine/orm,Packagist,28,81,282.0,4538,5345,2341,8690,316,86.44
148297,1505205,FortAwesome/Font-Awesome,CocoaPods,25,76,1385.0,0,0,11687,66395,8,64.81
271943,1506653,doctrine-extensions/DoctrineExtensions,Packagist,28,76,95.0,352,466,1170,3574,334,84.83
278591,1508819,guzzle/guzzle,Packagist,31,67,465.0,19051,21261,2223,21166,0,52.99
2048407,1513437,select2/select2,NPM,21,0,749.0,0,0,6253,25097,405,71.24
329180,1518244,laravel/framework,Packagist,28,0,1050.0,9749,18984,8392,24653,0,53.43
366744,1524252,Seldaek/monolog,Packagist,30,73,331.0,4928,22339,1761,18971,383,86.93
369311,1524518,mpdf/mpdf,Packagist,26,80,142.0,299,397,859,3345,68,83.34
782415,1528393,onokumus/metismenu,Bower,23,71,115.0,0,429,470,1902,20,75.73
650530,1528859,orchestral/testbench,Packagist,27,80,29.0,5699,6766,115,1637,38,81.17
445348,1531859,phpstan/phpstan,Packagist,19,71,180.0,8017,6261,739,10383,0,52.06
445466,1532225,sebastianbergmann/phpunit,Packagist,23,73,345.0,83130,66776,2027,17807,0,52.96
472432,1539666,cakephp/phinx,Packagist,25,68,147.0,319,481,885,4200,263,85.01
560436,1544414,slimphp/Slim,Packagist,28,84,541.0,559,1429,1921,11075,206,86.08
3494505,1572425,wp-cli/wp-cli,Homebrew,19,70,184.0,0,0,916,4443,266,69.76
3448588,1601072,TeXitoi/structopt,Cargo,22,0,22.0,26,1342,123,2291,58,80.46
2613797,1639746,andybalholm/brotli,Go,26,0,5.0,484,885,25,341,5,70.53
3197683,31344,rails/rails,Rubygems,38,74,2443.0,12036,59363,19869,49435,374,88.2
3519,37296,sympy/sympy,Conda,29,71,287.0,45,188,3556,8722,458,85.5
26773,151787,kubernetes/kubernetes,Go,36,64,3287.0,1088,1282,30621,83668,375,87.71
29046,232298,ansible/ansible,Conda,25,74,1993.0,3,1,21273,50778,383,80.12
10878,232490,moby/moby,Go,36,93,3044.0,2605,3472,17838,61717,416,87.97
3121,310326,matplotlib/matplotlib,Conda,33,79,572.0,212,2007,6193,14781,429,86.76
343790,326941,webpack/webpack,NPM,37,80,1554.0,160850,343135,8091,59807,441,88.38
79957,337182,electron/electron,Conda,24,75,2960.0,0,0,12916,98920,396,71.93
129682,474993,bokeh/bokeh,Pypi,34,79,461.0,435,1390,3859,15841,404,86.61
587809,490620,numpy/numpy,Pypi,38,85,558.0,15569,44971,6329,19197,483,87.61
512157,493021,django/django,Pypi,35,0,2307.0,4178,28908,25943,60744,408,88.14
709152,493045,scipy/scipy,Pypi,34,75,332.0,3002,20871,4041,9007,442,86.98
16102,493067,tensorflow/tensorflow,Conda,31,84,7976.0,33,283,85818,160671,417,87.24
305994,495545,jupyterhub/jupyterhub,Pypi,27,65,274.0,82,71,1651,6503,231,84.6
3191,495570,numba/numba,Conda,27,71,206.0,97,297,868,7125,245,84.95
3555,495592,tqdm/tqdm,Conda,30,81,195.0,141,499,1041,20065,102,84.25
3504,1411293,sqlalchemy/sqlalchemy,Conda,30,84,81.0,96,193,743,4496,418,84.43
190179,1489158,composer/composer,Packagist,33,85,609.0,1915,2951,6133,25484,390,87.06
709461,2175294,scrapy/scrapy,Pypi,32,73,1819.0,103,946,9401,42159,381,87.05
508457,2182930,pytorch/pytorch,CocoaPods,28,86,1597.0,0,9,14204,51945,342,79.89
375988,3144166,angular/angular,NPM,33,0,3161.0,18365,34500,20286,77297,0,54.08
1171747,3569714,mojs/mojs,NPM,25,59,420.0,20,22,930,17153,20,80.25
2565864,4396061,streamlit/streamlit,NPM,17,0,260.0,0,15,1416,16086,0,45.04
