project_id,repository_id,project_name,datetime_score_last_calculated,aggregate_health_score
429671,1957.0,orgmanager/orgmanager,2022-01-14 11:41:00,67.0
152902,2476.0,paultag/python-charlie,2022-01-14 11:41:00,47.0
1024242,7038.0,Daniel15/prometheus-net.SystemMetrics,2022-01-14 11:41:00,56.0
513379,7082.0,danielbachhuber/dictator,2022-01-14 11:41:00,17.0
839598,7494.0,devlead/Devlead.Console.Template,2022-01-14 11:41:00,54.0
1152361,10413.0,es-shims/obsolete-string-at,2022-01-14 11:41:00,55.0
37547,10909.0,dcarley/puppet-erlang,2022-01-14 11:41:00,24.0
433749,11860.0,pamil/prophecy-common,2022-01-14 11:41:00,26.0
3246215,13309.0,talsafran/freshmaker,2022-01-14 11:41:00,19.0
1670162,14024.0,zkat/mona,2022-01-14 11:41:00,33.0
3242604,18049.0,alexanderadam/fitnesspark_api,2022-01-14 11:41:00,55.0
1700459,18432.0,cistov/oy,2022-01-14 11:41:00,46.0
185500,18447.0,coen-hyde/Shanty-Mongo,2022-01-14 11:41:00,28.0
876057,20589.0,blachniet/SurfStat,2022-01-14 11:41:00,43.0
750804,24202.0,neocotic/Backbone.Do,2022-01-14 11:41:00,50.0
441195,25016.0,ihabunek/phormium,2022-01-14 11:41:00,29.0
1587915,28137.0,mayank/lgr,2022-01-14 11:41:00,44.0
1339429,28951.0,nolanlawson/async-rect,2022-01-14 11:41:00,49.0
1339503,29953.0,stanleyxu2005/electron-utils,2022-01-14 11:41:00,46.0
1320382,31945.0,bugsnag/gulp-bugsnag,2022-01-14 11:41:00,50.0
1663614,32128.0,ipld/js-ipld-graph-builder,2022-01-14 11:41:00,31.0
2466457,32981.0,github/webpack-config-github,2022-01-14 11:41:00,55.0
1262880,33253.0,alphagov/govuk-country-and-territory-autocomplete,2022-01-14 11:41:00,66.0
1890437,35395.0,kimmobrunfeldt/concurrently,2022-01-14 11:41:00,44.0
579484,35692.0,LukasReschke/ID3Parser,2022-01-14 11:41:00,47.0
373087,36058.0,mzdr/micro,2022-01-14 11:41:00,55.0
1659277,36660.0,steelbrain/mariasql-promise,2022-01-14 11:41:00,52.0
420218,37011.0,digiaonline/lumen-oauth2,2022-01-14 11:41:00,67.0
1372491,37570.0,redhat-developer/rsp-client,2022-01-14 11:41:00,57.0
1050954,38094.0,TycheOrg/Tyche,2022-01-14 11:41:00,52.0
2163275,43065.0,ashwamegh/vue-link-preview,2022-01-14 11:41:00,56.0
39234,43899.0,tarsius/orglink,2022-01-14 11:41:00,26.0
43041,44269.0,purcell/emacs-shfmt,2022-01-14 11:41:00,22.0
966214,47497.0,dotcypress/Tumbaga,2022-01-14 11:41:00,24.0
89878,47929.0,petems/petems-hddtemp,2022-01-14 11:41:00,49.0
1895800,49659.0,koddsson/coworking-with,2022-01-14 11:41:00,25.0
2320921,49971.0,Trott/isTypedArray,2022-01-14 11:41:00,57.0
571532,1000085.0,kuzmany/mautic-act-on-bundle,2022-01-14 11:41:00,23.0
269885,1000088.0,galvani/plugin-messagebird,2022-01-14 11:41:00,26.0
1497614,1000211.0,mikegillis677/actions-on-lambda,2022-01-14 11:41:00,51.0
435226,1000220.0,PatchRanger/cartesian-iterator,2022-01-14 11:41:00,53.0
3120292,1000317.0,TonyBogdanov/tb-form,2022-01-14 11:41:00,21.0
49759,1000413.0,ahkui/Assembly,2022-01-14 11:41:00,21.0
3102420,1000506.0,kermorgant/smf-dummy-package,2022-01-14 11:41:00,17.0
111123,1000536.0,arkadiusjonczek/seo,2022-01-14 11:41:00,24.0
264366,1000559.0,freearhey/sparql,2022-01-14 11:41:00,44.0
234344,1000602.0,ed-fruty/php-environment,2022-01-14 11:41:00,49.0
155092,1000615.0,bookin/yii2-sidecar-gitter,2022-01-14 11:41:00,22.0
536837,1000721.0,exfriend/skypium,2022-01-14 11:41:00,50.0
495970,1001065.0,Shchepotin/laravel-api,2022-01-14 11:41:00,58.0
632083,1001076.0,wvdongen/cakephp-sparkpost,2022-01-14 11:41:00,31.0
3104944,1001113.0,ssx/geo-uk-postcode,2022-01-14 11:41:00,25.0
616292,1001232.0,vjrngn/file-explorer,2022-01-14 11:41:00,23.0
3120677,1001325.0,nunomazer/gitlab-client,2022-01-14 11:41:00,23.0
164968,1001401.0,ByZer0/laravel-query-log,2022-01-14 11:41:00,49.0
608149,1001444.0,twmbx/silhouette,2022-01-14 11:41:00,53.0
211190,1001503.0,DearMadMan/laravel-image-tool,2022-01-14 11:41:00,50.0
304698,1001640.0,JapSeyz/dot-migrations,2022-01-14 11:41:00,58.0
526020,1001661.0,shinde-rahul/qr_code_attendance,2022-01-14 11:41:00,21.0
1404517,1001840.0,cocoastorm/vue-bootstrap-3,2022-01-14 11:41:00,23.0
794546,1001928.0,mikepsinn/qm-redirector,2022-01-14 11:41:00,51.0
602188,1002131.0,TitasGailius/php-bits,2022-01-14 11:41:00,19.0
366649,1002261.0,igor875126/smithclientcurl,2022-01-14 11:41:00,22.0
2271932,1002291.0,ruanitto/adonis-oauth2-provider,2022-01-14 11:41:00,24.0
522942,1002310.0,dgtal/booking-api,2022-01-14 11:41:00,47.0
310468,1002424.0,jimblue/statamic-addon-mapbox,2022-01-14 11:41:00,9.0
601306,1002576.0,tigron/skeleton-package-openapi,2022-01-14 11:41:00,49.0
453297,1002701.0,primasio/primas-api-sdk-php,2022-01-14 11:41:00,53.0
440804,1002810.0,philwinkle/Philwinkle_Fixerio,2022-01-14 11:41:00,62.0
1360307,1003750.0,biigpongsatorn/begeta-prototype,2022-01-14 11:41:00,23.0
3124777,1003990.0,voronkovich/symfony-console-app,2022-01-14 11:41:00,22.0
357334,1004034.0,hollodk/cms,2022-01-14 11:41:00,22.0
123973,1004041.0,avinsol/test-bundle,2022-01-14 11:41:00,49.0
632919,1004060.0,afjlambert/workon,2022-01-14 11:41:00,16.0
375577,1004107.0,nbj/heartbeating-job-runner,2022-01-14 11:41:00,21.0
646890,1004114.0,mashware/ZenMail,2022-01-14 11:41:00,49.0
252271,1004197.0,Fbeen/SettingsBundle,2022-01-14 11:41:00,23.0
269877,1004252.0,galmi/xacml,2022-01-14 11:41:00,24.0
651238,1004369.0,pepperreport/apdex,2022-01-14 11:41:00,54.0
254246,1004463.0,fertandil87/pChart,2022-01-14 11:41:00,22.0
3105998,1005076.0,stefthoen/tico,2022-01-14 11:41:00,21.0
614305,1005298.0,vikkio88/slime-framework,2022-01-14 11:41:00,27.0
461548,1005861.0,horejsek/python-pytest-data,2022-01-14 11:41:00,61.0
3124662,1005974.0,vongola12324/laravel-auth-management,2022-01-14 11:41:00,56.0
545643,1006143.0,Crinsane/LaravelGettext,2022-01-14 11:41:00,24.0
144723,1006191.0,beyondcode/nova-laravel-update-card,2022-01-14 11:41:00,56.0
454409,1006248.0,professorhaseeb/smartOutput,2022-01-14 11:41:00,50.0
36763,1006748.0,adamdburton/nanoftpd,2022-01-14 11:41:00,40.0
475666,1006772.0,rorichster/WhatsNew,2022-01-14 11:41:00,22.0
3091292,1007010.0,ahmadrio/ptdot-button-back,2022-01-14 11:41:00,20.0
697438,1007517.0,mpmdean/pymcaspec,2022-01-14 11:41:00,24.0
363134,1007990.0,mitchwilliamson/oauth2-youtube,2022-01-14 11:41:00,49.0
2387274,1008175.0,sample-text-here/is-is-useless,2022-01-14 11:41:00,23.0
3362532,1008779.0,monban/ucg,2022-01-14 11:41:00,42.0
3106201,1009020.0,dev-and-web/daw-php-pagination,2022-01-14 11:41:00,49.0
481012,1009040.0,rumeau/belongsto-depend,2022-01-14 11:41:00,25.0
3119473,1009051.0,thujohn/packagist-l4,2022-01-14 11:41:00,50.0
502406,1009173.0,cmizzi/laravel-command-alias,2022-01-14 11:41:00,52.0
324660,1009283.0,mikemand/pagination,2022-01-14 11:41:00,55.0
415460,1009324.0,ngmy/phpinfocmp,2022-01-14 11:41:00,53.0
603779,1009332.0,TiDJ/laravel-custom-html,2022-01-14 11:41:00,60.0
25790,1009492.0,absalomedia/kilns,2022-01-14 11:41:00,54.0
651217,1009543.0,amirulahmad/laravel-imageupload-intervention,2022-01-14 11:41:00,49.0
569006,1009550.0,austinkregel/formmodel,2022-01-14 11:41:00,57.0
602492,1009748.0,tedslittlerobot/l4-support,2022-01-14 11:41:00,26.0
222187,1009756.0,djamesfar/bake,2022-01-14 11:41:00,20.0
445713,1009785.0,phuclh/nova-vnd-field,2022-01-14 11:41:00,20.0
181950,1009789.0,chx2/EasyDocs,2022-01-14 11:41:00,52.0
166137,1009811.0,bobbybouwmann/entry,2022-01-14 11:41:00,54.0
629030,1009855.0,wolfrednicolas/wolfred-twilio,2022-01-14 11:41:00,22.0
181476,1009900.0,chrispecoraro/wikipedia-tools,2022-01-14 11:41:00,49.0
520474,1009911.0,IsraelOrtuno/page,2022-01-14 11:41:00,21.0
78236,1009914.0,gabrielkoerich/service-manager,2022-01-14 11:41:00,51.0
566409,1009919.0,jpcaparas/box-laravel,2022-01-14 11:41:00,25.0
370525,1010029.0,mrsimonbennett/commander,2022-01-14 11:41:00,22.0
228321,1010040.0,dowilcox/BladeView,2022-01-14 11:41:00,32.0
753380,1010051.0,sagarrabadiya/bootstrap_handy_validations,2022-01-14 11:41:00,23.0
1053394,1010074.0,danrovito/StrRandom,2022-01-14 11:41:00,50.0
563937,1010120.0,jonasof/array-circle-fetch,2022-01-14 11:41:00,22.0
804825,1010209.0,studio-net/toast-notifications,2022-01-14 11:41:00,37.0
604740,1010261.0,ToxaGeek/laravel-wg-api,2022-01-14 11:41:00,48.0
3082188,1010355.0,jacob-hyde/Printify-PHP-SDK,2022-01-14 11:41:00,54.0
569024,1010399.0,metabitco/transform,2022-01-14 11:41:00,23.0
365245,1010435.0,Modelizer/multi-tenant,2022-01-14 11:41:00,21.0
431343,1010443.0,oakwood/wp-theme,2022-01-14 11:41:00,28.0
292260,1010466.0,InteractionDesignFoundation/laravel-real-email-validation,2022-01-14 11:41:00,57.0
515661,1011009.0,Darovi/Commander,2022-01-14 11:41:00,52.0
597737,1011321.0,1f991/patreon-php,2022-01-14 11:41:00,55.0
1236564,1012709.0,chemerisuk/cordova-plugin-firebase-config,2022-01-14 11:41:00,59.0
775158,1012885.0,daviddt/jquery-plugin,2022-01-14 11:41:00,22.0
1219738,1013762.0,meisterplayer/media-dash,2022-01-14 11:41:00,36.0
1996936,1013830.0,smashingpat/bundel,2022-01-14 11:41:00,21.0
3460762,1014444.0,sora0077/PredicateKit,2022-01-14 11:41:00,50.0
675425,1014937.0,jakeheis/Git,2022-01-14 11:41:00,23.0
3460790,1015259.0,isaac-weisberg/HalfFive,2022-01-14 11:41:00,21.0
3460805,1015516.0,mitsuse/screen-container,2022-01-14 11:41:00,20.0
981371,1015710.0,gibachan/XmlDict,2022-01-14 11:41:00,50.0
3460801,1015837.0,brentleyjones/xcconfigs,2022-01-14 11:41:00,48.0
1667423,1015978.0,ferranpujolcamins/mixxx-controller-script-sequencer,2022-01-14 11:41:00,43.0
58207,1016523.0,AIbnuHIbban/Laravel-with-Livewire-Setup,2022-01-14 11:41:00,21.0
2080200,1016641.0,hellobloom/share-kit-react,2022-01-14 11:41:00,29.0
310450,1016763.0,jildertmiedema/windows-phone-push,2022-01-14 11:41:00,51.0
965361,1017160.0,StardewConfigMenu/StardewConfigFramework,2022-01-14 11:41:00,55.0
2284860,1017415.0,deshiknaves/cypress-msw-interceptor,2022-01-14 11:41:00,59.0
1299530,1017470.0,GaborWnuk/react-native-imagepreview,2022-01-14 11:41:00,21.0
1818318,1017716.0,jcfrancisco/carlo-js,2022-01-14 11:41:00,15.0
1141525,1018011.0,Commander-lol/Sideburns,2022-01-14 11:41:00,26.0
1323913,1018118.0,lechinoix/react-snake,2022-01-14 11:41:00,23.0
3086121,1018472.0,yondifon/laravel-graphiql,2022-01-14 11:41:00,35.0
2374112,1019087.0,Nexapp/react-native-scrollable-with-collapsible-header,2022-01-14 11:41:00,56.0
2241560,1019163.0,echobind/launchbox,2022-01-14 11:41:00,58.0
3079666,1019711.0,glendemon/phpexcel-wrapper,2022-01-14 11:41:00,49.0
1589929,1019958.0,mondora/gemfury-publish,2022-01-14 11:41:00,58.0
3081392,1021021.0,masif088/libtol,2022-01-14 11:41:00,21.0
1501253,1021728.0,RajnishDashora/All-Doer,2022-01-14 11:41:00,23.0
3109728,1021756.0,suqld/otrs,2022-01-14 11:41:00,26.0
2162072,1022049.0,MatiseAms/create-matise-nuxt,2022-01-14 11:41:00,55.0
3035577,1022546.0,Nasajon/gclick_sdk,2022-01-14 11:41:00,16.0
3035594,1022562.0,ricardovezetiv/pythonpro-libpythonpro,2022-01-14 11:41:00,52.0
3035599,1022568.0,FireHead90544/stack.py,2022-01-14 11:41:00,55.0
3035580,1022575.0,valknight/loadstar,2022-01-14 11:41:00,49.0
3035585,1022577.0,EwetoyeIbrahim/flask-odoo-graphql,2022-01-14 11:41:00,37.0
3035597,1022586.0,aboucaud/galcheat,2022-01-14 11:41:00,59.0
3035601,1022587.0,walnutgeek/azfiles,2022-01-14 11:41:00,26.0
254228,1025090.0,ferrl/framework,2022-01-14 11:41:00,49.0
1386316,1026631.0,krutoo/packmar.js,2022-01-14 11:41:00,52.0
435205,1026638.0,sima-land/yii2-logstock,2022-01-14 11:41:00,62.0
2045167,1026695.0,ark120202/dota-data,2022-01-14 11:41:00,52.0
3162104,1026779.0,dianas11xx/MoodipyTest,2022-01-14 11:41:00,45.0
1781256,1026845.0,uktrade/trade-elements,2022-01-14 11:41:00,60.0
655319,1027199.0,caiyunapp/caiyun-weather-api-python-sdk,2022-01-14 11:41:00,26.0
2052273,1027464.0,egemenhalici1/react-input-with-popup,2022-01-14 11:41:00,22.0
3118425,1028238.0,therealgambo/ramlfications-php,2022-01-14 11:41:00,22.0
448201,1028576.0,pjkui/kindeditor,2022-01-14 11:41:00,55.0
309021,66.0,katzj/test-python-package,2022-01-14 11:41:00,53.0
3231943,69.0,tidelift/dotyaml,2022-01-14 11:41:00,60.0
3343932,207.0,tiegz/kadoku,2022-01-14 11:41:00,53.0
641761,256.0,Kami/python-yubico-client,2022-01-14 11:41:00,64.0
3432097,349.0,OpenSourceOrg/rust-opensource,2022-01-14 11:41:00,54.0
2402317,362.0,todogroup/repolinter,2022-01-14 11:41:00,74.0
1908628,484.0,ipfs-inactive/npm-go-ipfs-dep,2022-01-14 11:41:00,63.0
1954274,563.0,ipfs-shipyard/ipfs-deploy,2022-01-14 11:41:00,35.0
3313031,798.0,malditogeek/redisrecord,2022-01-14 11:41:00,52.0
3347016,816.0,maclover7/trix,2022-01-14 11:41:00,66.0
769181,929.0,samjacobclift/help-wanted-gh-issues,2022-01-14 11:41:00,6.0
3247246,939.0,barisbalic/gamertag,2022-01-14 11:41:00,27.0
1479613,975.0,bengourley/slugg,2022-01-14 11:41:00,34.0
2003853,1051.0,splashinn/nog,2022-01-14 11:41:00,62.0
380365,1170.0,olizilla/asciify,2022-01-14 11:41:00,38.0
3287704,1290.0,djpowers/musicgraph,2022-01-14 11:41:00,55.0
3337597,1386.0,kdaigle/strapper,2022-01-14 11:41:00,54.0
3346842,1693.0,hendrixfan/triangle,2022-01-14 11:41:00,55.0
1616458,1967.0,anthonyringoet/heap-server,2022-01-14 11:41:00,54.0
1132305,1999.0,martinvd/prepend-file-cli,2022-01-14 11:41:00,55.0
159236,2009.0,willingc/circuitpython_kernel,2022-01-14 11:41:00,39.0
3210202,2178.0,sclinede/blood_contracts,2022-01-14 11:41:00,53.0
1587562,2204.0,nelsonic/github-scraper,2022-01-14 11:41:00,38.0
868019,3075.0,JakeWharton/ViewPagerIndicator,2022-01-14 11:41:00,40.0
1172106,3311.0,jamesgpearce/monomi,2022-01-14 11:41:00,53.0
489179,3334.0,jparise/python-reloader,2022-01-14 11:41:00,65.0
1451792,3364.0,jpeddicord/askalono,2022-01-14 11:41:00,67.0
627363,3412.0,willnorris/wordpress-license,2022-01-14 11:41:00,29.0
57195,3438.0,50Wliu/language-sourcepawn,2022-01-14 11:41:00,63.0
3517340,3453.0,88250/city-geo,2022-01-14 11:41:00,33.0
326054,3879.0,Akasurde/Mahadiscom,2022-01-14 11:41:00,57.0
642890,3932.0,AkihiroSuda/z42,2022-01-14 11:41:00,53.0
1653874,3989.0,akyoto/load-class,2022-01-14 11:41:00,23.0
3264927,4386.0,amatsuda/jb,2022-01-14 11:41:00,64.0
1618702,4517.0,andrewda/hltv-livescore,2022-01-14 11:41:00,64.0
2564938,4580.0,postalsys/imapflow,2022-01-14 11:41:00,45.0
112233,4710.0,andybons/ABVariants,2022-01-14 11:41:00,56.0
23025,4853.0,ararslan/Jackknife.jl,2022-01-14 11:41:00,60.0
379380,5339.0,astorije/chai-immutable,2022-01-14 11:41:00,70.0
1659353,5374.0,axic/mango-admin,2022-01-14 11:41:00,51.0
128909,5454.0,b3none/steam-id-converter,2022-01-14 11:41:00,53.0
1929845,5554.0,BaseMax/FilterInputJs,2022-01-14 11:41:00,56.0
1167037,5830.0,bbondy/abp-filter-parser,2022-01-14 11:41:00,61.0
3092905,6056.0,pborreli/composer-service,2022-01-14 11:41:00,63.0
2441753,6217.0,borderless/unfurl,2022-01-14 11:41:00,32.0
1851096,6309.0,boopathi/react-svg-loader,2022-01-14 11:41:00,63.0
3283583,6388.0,bogdanvlviv/minitest-mock_expectations,2022-01-14 11:41:00,54.0
3439710,6421.0,brauner/rlxc,2022-01-14 11:41:00,27.0
1281727,6450.0,bsclifton/poker.js,2022-01-14 11:41:00,31.0
1336126,6579.0,cblecker/hyper-quit,2022-01-14 11:41:00,56.0
1903889,6691.0,cezaraugusto/mklicense,2022-01-14 11:41:00,67.0
1612035,6750.0,cheshire137/gulp-ruby-haml,2022-01-14 11:41:00,67.0
1747008,6831.0,chicoxyzzy/rx-mobx,2022-01-14 11:41:00,56.0
3319696,6855.0,colby-swandale/rubocop-github-annotations-formatter,2022-01-14 11:41:00,49.0
1625639,6916.0,d3viant0ne/hyperterm-base16-tomorrow-dark,2022-01-14 11:41:00,22.0
3419403,6956.0,cyphar/initrs,2022-01-14 11:41:00,50.0
1655896,7179.0,dasilvacontin/ludumpad,2022-01-14 11:41:00,60.0
336450,7290.0,datapythonista/mnist,2022-01-14 11:41:00,63.0
974817,7291.0,daveaglick/Scripty,2022-01-14 11:41:00,63.0
1718790,7330.0,denar90/psi-ngrok,2022-01-14 11:41:00,56.0
1781991,7558.0,devversion/travis-after-modes,2022-01-14 11:41:00,48.0
378870,7595.0,Dexus/pem,2022-01-14 11:41:00,42.0
1246133,7597.0,Dexus-Forks/cordova-plugin-ironSource,2022-01-14 11:41:00,58.0
203665,7634.0,disposable-email-domains/python-disposable-email-domains,2022-01-14 11:41:00,59.0
899840,7673.0,dlemstra/Magick.NET,2022-01-14 11:41:00,67.0
3386538,7771.0,dynamitechetan/razorpay_flutter,2022-01-14 11:41:00,32.0
500169,7901.0,endocrimes/Jay,2022-01-14 11:41:00,61.0
1706011,8067.0,evantahler/nodePhidgets,2022-01-14 11:41:00,33.0
1152038,8121.0,FagnerMartinsBrack/str-replace,2022-01-14 11:41:00,61.0
183441,8139.0,feiskyer/python-cri,2022-01-14 11:41:00,54.0
3358937,8147.0,Fivell/yatran,2022-01-14 11:41:00,57.0
2460323,8241.0,webtorrent/fs-chunk-store,2022-01-14 11:41:00,63.0
98340,8285.0,freak4pc/UIView-Positioning,2022-01-14 11:41:00,60.0
1601884,8293.0,frewsxcv/graphosaurus,2022-01-14 11:41:00,62.0
2291193,8392.0,GantMan/jail-monkey,2022-01-14 11:41:00,57.0
169679,8511.0,GwendolenLynch/Carbon,2022-01-14 11:41:00,65.0
1625391,8539.0,gyandeeps/hypernpm,2022-01-14 11:41:00,55.0
1457596,8652.0,helfer/graphql-disable-introspection,2022-01-14 11:41:00,62.0
703586,8872.0,icecrime/RateLimiting,2022-01-14 11:41:00,55.0
379925,9210.0,jayphelps/core-decorators,2022-01-14 11:41:00,67.0
261012,9303.0,jayvdb/flake8-putty,2022-01-14 11:41:00,57.0
1308829,9366.0,jdalton/docdown,2022-01-14 11:41:00,64.0
1588668,9694.0,jdorfman/g20,2022-01-14 11:41:00,55.0
36073,9762.0,jglovier/fizzy,2022-01-14 11:41:00,61.0
3423059,9811.0,jimmidyson/rcm,2022-01-14 11:41:00,26.0
3312564,9843.0,jisaacks/recurse-delete,2022-01-14 11:41:00,32.0
707534,9889.0,laf/russound,2022-01-14 11:41:00,53.0
973219,9903.0,Krzysztof-Cieslak/RemoveObj,2022-01-14 11:41:00,56.0
2149731,9945.0,lahmatiy/open-in-editor,2022-01-14 11:41:00,63.0
84118,9996.0,lee-dohm/tabs-to-spaces,2022-01-14 11:41:00,65.0
3214608,10157.0,thattommyhall/capistrano-elb,2022-01-14 11:41:00,29.0
472864,10217.0,rodnaph/morgan,2022-01-14 11:41:00,24.0
1826480,10470.0,lucasbento/react-native-thumbnail-video,2022-01-14 11:41:00,64.0
3430,10505.0,Lukasa/requests-ftp,2022-01-14 11:41:00,38.0
1698890,10544.0,makoscafee/gulp-gae,2022-01-14 11:41:00,47.0
1594463,10614.0,marcosmoura/generator-scaffold,2022-01-14 11:41:00,61.0
605977,10630.0,Mariatta/tic_tac_taco_pizza,2022-01-14 11:41:00,52.0
794134,10683.0,leggetter/pusher-js-client-auth,2022-01-14 11:41:00,11.0
1936958,10831.0,matchai/ts-quick,2022-01-14 11:41:00,59.0
302053,11037.0,bd808/python-iptools,2022-01-14 11:41:00,65.0
3302551,11591.0,mmozuras/poper,2022-01-14 11:41:00,64.0
315930,11680.0,nasirhjafri/libyear,2022-01-14 11:41:00,36.0
1503782,11688.0,ncoden/angular-pseudo-class,2022-01-14 11:41:00,53.0
2124860,11721.0,ndelangen/corejs-upgrade-webpack-plugin,2022-01-14 11:41:00,33.0
263282,11742.0,nicolaiarocci/flask-mimerender,2022-01-14 11:41:00,30.0
856440,11786.0,nmilcoff/EasyTipView,2022-01-14 11:41:00,55.0
1389962,11799.0,novemberborn/ksuid,2022-01-14 11:41:00,28.0
215346,11800.0,olasitarska/django-gulp-rev,2022-01-14 11:41:00,58.0
3278992,11892.0,olivierlacan/mandrillus,2022-01-14 11:41:00,35.0
127371,11995.0,ParthS007/background,2022-01-14 11:41:00,31.0
1501384,12015.0,parkr/all-your-github-are-belong-to-us,2022-01-14 11:41:00,31.0
751012,12138.0,paulfalgout/backbone-moment,2022-01-14 11:41:00,40.0
3242841,12480.0,pboling/flag_shih_tzu,2022-01-14 11:41:00,69.0
1942840,12528.0,pbugnion/gmaps,2022-01-14 11:41:00,43.0
496011,12615.0,schlessera/wp-cli-psysh,2022-01-14 11:41:00,32.0
1801841,12679.0,shockey/workfrom,2022-01-14 11:41:00,52.0
1374023,12706.0,simskij/dotty-cli,2022-01-14 11:41:00,19.0
405055,12896.0,stevemao/github-remove-all-releases,2022-01-14 11:41:00,29.0
1831974,13215.0,styfle/react-server-example-tsx,2022-01-14 11:41:00,67.0
1838052,13270.0,swissspidy/local-webfont,2022-01-14 11:41:00,30.0
474511,13403.0,tapaswenipathak/pyQTopic,2022-01-14 11:41:00,64.0
700310,13497.0,The-Compiler/pytest-vw,2022-01-14 11:41:00,55.0
395132,13526.0,TheSavior/rewire-global,2022-01-14 11:41:00,33.0
2243949,13750.0,electron-modules/network-interface,2022-01-14 11:41:00,27.0
1512865,13789.0,app-bootstrap/autoresponsive_react_native_sample_android_ci,2022-01-14 11:41:00,51.0
1432918,13982.0,yavorsky/bundle-utils,2022-01-14 11:41:00,64.0
3225866,14192.0,despo/cyprus-street-names,2022-01-14 11:41:00,55.0
1223497,14220.0,muan/emojilib,2022-01-14 11:41:00,70.0
2416689,14781.0,cwaring/vuepress-plugin-ipfs,2022-01-14 11:41:00,60.0
413595,14842.0,daviddias/webrtc-explorer,2022-01-14 11:41:00,63.0
756135,14971.0,decentralion/chartographer,2022-01-14 11:41:00,31.0
3395905,15040.0,dignifiedquire/async-tar,2022-01-14 11:41:00,33.0
1849975,15142.0,hacdias/electron-menubar,2022-01-14 11:41:00,58.0
1932115,15199.0,hugomrdias/prettier-stylelint,2022-01-14 11:41:00,61.0
1784665,15398.0,marcooliveira/node-twitter-pic,2022-01-14 11:41:00,24.0
1782922,15442.0,nicola/tubemaps,2022-01-14 11:41:00,32.0
1726461,15577.0,travisperson/react-hexviewer,2022-01-14 11:41:00,55.0
2492798,15708.0,vasco-santos/dns-over-http-resolver,2022-01-14 11:41:00,62.0
3401077,15990.0,Aaron1011/cargo-urlcrate,2022-01-14 11:41:00,51.0
1906019,16154.0,AquiGorka/kanpo,2022-01-14 11:41:00,31.0
608826,16226.0,AuHau/toggl-cli,2022-01-14 11:41:00,46.0
388849,16243.0,balupton/simple-server,2022-01-14 11:41:00,31.0
292043,16274.0,cboddy/i3-workspace-names-daemon,2022-01-14 11:41:00,66.0
1942401,16320.0,davidar/pandiff,2022-01-14 11:41:00,62.0
2060870,16387.0,dankelleher/insomnia-plugin-aws-iam,2022-01-14 11:41:00,28.0
3066631,16589.0,Luzifer/git-changerelease,2022-01-14 11:41:00,54.0
498498,16703.0,marten-seemann/OXID_recaptcha,2022-01-14 11:41:00,50.0
1630176,16754.0,nginnever/ippm,2022-01-14 11:41:00,24.0
259399,17265.0,Seenivasanseeni/FirstPIP,2022-01-14 11:41:00,49.0
1871503,17342.0,vasa-develop/redux-cross-fetch,2022-01-14 11:41:00,22.0
411315,17509.0,vmx/jslens,2022-01-14 11:41:00,30.0
2084078,17574.0,zebateira/react-use-system-theme,2022-01-14 11:41:00,61.0
1259753,17598.0,yangwao/skCube-data-collector,2022-01-14 11:41:00,56.0
1600998,18000.0,aheckmann/gm,2022-01-14 11:41:00,38.0
105415,18148.0,apemsel/AttributedString,2022-01-14 11:41:00,47.0
1172720,18258.0,atsuya/parallel-mocha,2022-01-14 11:41:00,58.0
3220217,18292.0,braintreeps/cocoapods-archive,2022-01-14 11:41:00,56.0
800400,18480.0,dodo/node-slug,2022-01-14 11:41:00,58.0
1550360,18546.0,teemow/node-dawanda,2022-01-14 11:41:00,24.0
404861,18618.0,tim-smart/async-array,2022-01-14 11:41:00,27.0
808992,18728.0,tmpvar/weld,2022-01-14 11:41:00,30.0
3294920,18957.0,vesan/omnifocus-trello,2022-01-14 11:41:00,54.0
748388,18969.0,teropa/angular-virtual-dom,2022-01-14 11:41:00,53.0
3271010,19112.0,agoddard/knife-ghost,2022-01-14 11:41:00,47.0
3289881,19155.0,azet/NetApp.rb,2022-01-14 11:41:00,22.0
3350600,19178.0,c10l/vagrant-butcher,2022-01-14 11:41:00,56.0
3355551,19288.0,kisoku/whisk,2022-01-14 11:41:00,54.0
3212802,19315.0,joemiller/bunchr,2022-01-14 11:41:00,27.0
3218742,19384.0,lozzd/cisco-config-parse,2022-01-14 11:41:00,23.0
63577,19439.0,KrisBuytaert/puppet-packetbeat,2022-01-14 11:41:00,25.0
712977,19455.0,mconigliaro/smtptester,2022-01-14 11:41:00,57.0
3291227,19468.0,lusis/Noah,2022-01-14 11:41:00,63.0
3270938,19542.0,mdxp/knife-backup,2022-01-14 11:41:00,59.0
1668932,19656.0,adufilie/MobxPromise,2022-01-14 11:41:00,55.0
140539,19753.0,agoodm/binconvert,2022-01-14 11:41:00,45.0
67094,19834.0,akrabat/slim3-skeleton,2022-01-14 11:41:00,57.0
771397,19937.0,aliok/ion-affix,2022-01-14 11:41:00,40.0
3208714,1.0,librariesio/bibliothecary,2022-01-14 11:41:00,70.0
414100,92.0,andrew/node-xbox-controller,2022-01-14 11:41:00,66.0
3195534,402.0,splitrb/split,2022-01-14 11:41:00,74.0
2596183,411.0,ipfs/go-ipfs,2022-01-14 11:41:00,50.0
2043341,692.0,apache/echarts,2022-01-14 11:41:00,79.0
3206499,1253.0,marcandre/backports,2022-01-14 11:41:00,70.0
761240,1526.0,timruffles/mobile-drag-drop,2022-01-14 11:41:00,55.0
575805,1708.0,SocialiteProviders/Manager,2022-01-14 11:41:00,70.0
485923,1910.0,Moya/Moya,2022-01-14 11:41:00,76.0
3226246,1931.0,danger/danger,2022-01-14 11:41:00,71.0
2065335,2128.0,rtfpessoa/diff2html,2022-01-14 11:41:00,74.0
2416910,2686.0,RichardLitt/standard-readme,2022-01-14 11:41:00,66.0
3231839,2971.0,bkeepers/dotenv,2022-01-14 11:41:00,70.0
751030,3504.0,afeld/backbone-nested,2022-01-14 11:41:00,54.0
2218639,3618.0,ahmadawais/create-guten-block,2022-01-14 11:41:00,77.0
1863628,3816.0,ai/nanoid,2022-01-14 11:41:00,69.0
2634950,3911.0,containerd/nerdctl,2022-01-14 11:41:00,73.0
67532,4013.0,alcaeus/mongo-php-adapter,2022-01-14 11:41:00,63.0
67614,4030.0,alcohol/iso4217,2022-01-14 11:41:00,64.0
2268840,4137.0,alexellis/k3sup,2022-01-14 11:41:00,41.0
542313,4468.0,amjith/fuzzyfinder,2022-01-14 11:41:00,66.0
777257,4565.0,andris9/jStorage,2022-01-14 11:41:00,53.0
1144051,4723.0,appleboy/react-recaptcha,2022-01-14 11:41:00,73.0
2094413,4888.0,arcanis/pnp-webpack-plugin,2022-01-14 11:41:00,41.0
3461029,4980.0,ashfurrow/Nimble-Snapshots,2022-01-14 11:41:00,69.0
3395475,5074.0,ashleygwilliams/assert_approx_eq,2022-01-14 11:41:00,38.0
1265411,5268.0,aweary/react-perimeter,2022-01-14 11:41:00,64.0
1732153,5512.0,balloob/react-sidebar,2022-01-14 11:41:00,68.0
123213,5862.0,berkerpeksag/astor,2022-01-14 11:41:00,75.0
2297649,5873.0,bevacqua/dragula,2022-01-14 11:41:00,74.0
2185514,6140.0,bnb/bitandbang,2022-01-14 11:41:00,65.0
1395217,6202.0,blakeembrey/change-case,2022-01-14 11:41:00,70.0
2684647,6490.0,caarlos0/env,2022-01-14 11:41:00,72.0
383953,6612.0,ahmadnassri/node-har-validator,2022-01-14 11:41:00,66.0
1582849,6843.0,clauderic/react-sortable-hoc,2022-01-14 11:41:00,75.0
1152620,6862.0,cpojer/js-codemod,2022-01-14 11:41:00,68.0
747554,6901.0,crisbeto/angular-svg-round-progressbar,2022-01-14 11:41:00,54.0
3213220,7316.0,deivid-rodriguez/byebug,2022-01-14 11:41:00,70.0
660962,7369.0,DenisCarriere/geocoder,2022-01-14 11:41:00,74.0
2580366,7428.0,denysdovhan/wtfjs,2022-01-14 11:41:00,68.0
1972562,7429.0,spaceship-prompt/spaceship-prompt,2022-01-14 11:41:00,76.0
623599,7628.0,di/vladiate,2022-01-14 11:41:00,63.0
1410579,7675.0,diegohaz/constate,2022-01-14 11:41:00,70.0
292028,7879.0,enkore/i3pystatus,2022-01-14 11:41:00,70.0
1891901,8152.0,feross/simple-peer,2022-01-14 11:41:00,70.0
2551808,8671.0,hiroppy/fusuma,2022-01-14 11:41:00,47.0
3414116,8800.0,Hoverbear/getset,2022-01-14 11:41:00,68.0
2149299,8894.0,iarna/iarna-toml,2022-01-14 11:41:00,67.0
1855081,9017.0,iddan/react-native-canvas,2022-01-14 11:41:00,42.0
3308857,9120.0,indirect/rails3-generators,2022-01-14 11:41:00,36.0
2091989,9371.0,jamiebuilds/react-loadable,2022-01-14 11:41:00,67.0
331226,9957.0,lchrusciel/ApiTestCase,2022-01-14 11:41:00,63.0
3224143,10301.0,tobias/credit_card_validator,2022-01-14 11:41:00,34.0
357767,10388.0,ljharb/qs,2022-01-14 11:41:00,71.0
86165,10449.0,lk-geimfari/mimesis,2022-01-14 11:41:00,71.0
387874,10762.0,MarshallOfSound/electron-devtools-installer,2022-01-14 11:41:00,69.0
3431804,10913.0,matklad/once_cell,2022-01-14 11:41:00,43.0
690704,11121.0,mitsuhiko/pipsi,2022-01-14 11:41:00,41.0
263448,11142.0,pallets-eco/flask-openid,2022-01-14 11:41:00,36.0
1721987,11272.0,mikeal/r2,2022-01-14 11:41:00,71.0
2762448,11642.0,mvdan/sh,2022-01-14 11:41:00,70.0
386296,11937.0,papandreou/node-cldr,2022-01-14 11:41:00,67.0
356077,12151.0,paulmillr/chokidar,2022-01-14 11:41:00,77.0
1230873,12202.0,PatrickJS/angular-starter,2022-01-14 11:41:00,65.0
2255016,12556.0,sallar/stringz,2022-01-14 11:41:00,66.0
3495048,12632.0,sferik/t,2022-01-14 11:41:00,73.0
188261,12713.0,skywinder/GaugeKit,2022-01-14 11:41:00,66.0
715733,12751.0,sivel/speedtest-cli,2022-01-14 11:41:00,71.0
45258,12817.0,sobolevn/git-secret,2022-01-14 11:41:00,71.0
1444709,12852.0,sokra/rawact,2022-01-14 11:41:00,69.0
3292923,12874.0,st0012/object_tracer,2022-01-14 11:41:00,59.0
1549769,13018.0,staltz/xstream,2022-01-14 11:41:00,57.0
180037,13250.0,sunshinejr/SwiftyUserDefaults,2022-01-14 11:41:00,70.0
1996848,13315.0,swapagarwal/geeksay,2022-01-14 11:41:00,71.0
45429,13572.0,tianon/gosu,2022-01-14 11:41:00,66.0
612183,13661.0,timofurrer/try,2022-01-14 11:41:00,63.0
1148742,13737.0,xudafeng/autoresponsive-react,2022-01-14 11:41:00,42.0
2411689,13847.0,xtuc/webassemblyjs,2022-01-14 11:41:00,80.0
2164579,14115.0,zpao/qrcode.react,2022-01-14 11:41:00,68.0
3281089,14157.0,arthurnn/memcached,2022-01-14 11:41:00,64.0
2149498,14434.0,achingbrain/pm2-web,2022-01-14 11:41:00,37.0
1461244,14563.0,alanshaw/markdown-pdf,2022-01-14 11:41:00,70.0
1130039,15242.0,jbenet/transformer,2022-01-14 11:41:00,34.0
3450437,15609.0,Stebalien/tempfile,2022-01-14 11:41:00,44.0
3498064,15762.0,whyrusleeping/gx,2022-01-14 11:41:00,68.0
464420,16399.0,koalalorenzo/python-digitalocean,2022-01-14 11:41:00,65.0
2801475,16852.0,moul/assh,2022-01-14 11:41:00,76.0
1680786,17386.0,victorb/ngProgress,2022-01-14 11:41:00,69.0
378978,18159.0,astro/node-expat,2022-01-14 11:41:00,59.0
2503858,18298.0,bcoe/c8,2022-01-14 11:41:00,70.0
3209473,19043.0,zapnap/resque_mailer,2022-01-14 11:41:00,62.0
3228175,19255.0,danielsdeleo/deep_merge,2022-01-14 11:41:00,68.0
3254935,19588.0,rodjek/puppet-lint,2022-01-14 11:41:00,64.0
285143,1411324.0,burnash/gspread,2022-01-14 11:41:00,73.0
1167136,1411336.0,mathjax/MathJax,2022-01-14 11:41:00,76.0
79769,1411399.0,huggingface/datasets,2022-01-14 11:41:00,77.0
225276,1495934.0,doctrine/orm,2022-01-14 11:41:00,81.0
148297,1505205.0,FortAwesome/Font-Awesome,2022-01-14 11:41:00,46.0
271943,1506653.0,doctrine-extensions/DoctrineExtensions,2022-01-14 11:41:00,74.0
278591,1508819.0,guzzle/guzzle,2022-01-14 11:41:00,69.0
2048407,1513437.0,select2/select2,2022-01-14 11:41:00,68.0
329180,1518244.0,laravel/framework,2022-01-14 11:41:00,65.0
366744,1524252.0,Seldaek/monolog,2022-01-14 11:41:00,75.0
369311,1524518.0,mpdf/mpdf,2022-01-14 11:41:00,62.0
782415,1528393.0,onokumus/metismenu,2022-01-14 11:41:00,70.0
650530,1528859.0,orchestral/testbench,2022-01-14 11:41:00,74.0
445348,1531859.0,phpstan/phpstan,2022-01-14 11:41:00,70.0
445466,1532225.0,sebastianbergmann/phpunit,2022-01-14 11:41:00,41.0
472432,1539666.0,cakephp/phinx,2022-01-14 11:41:00,78.0
560436,1544414.0,slimphp/Slim,2022-01-14 11:41:00,76.0
3494505,1572425.0,wp-cli/wp-cli,2022-01-14 11:41:00,75.0
3448588,1601072.0,TeXitoi/structopt,2022-01-14 11:41:00,44.0
2613797,1639746.0,andybalholm/brotli,2022-01-14 11:41:00,63.0
3197683,31344.0,rails/rails,2022-01-14 11:41:00,77.0
3519,37296.0,sympy/sympy,2022-01-14 11:41:00,73.0
26773,151787.0,kubernetes/kubernetes,2022-01-14 11:41:00,83.0
29046,232298.0,ansible/ansible,2022-01-14 11:41:00,71.0
10878,232490.0,moby/moby,2022-01-14 11:41:00,84.0
3121,310326.0,matplotlib/matplotlib,2022-01-14 11:41:00,83.0
343790,326941.0,webpack/webpack,2022-01-14 11:41:00,80.0
79957,337182.0,electron/electron,2022-01-14 11:41:00,78.0
129682,474993.0,bokeh/bokeh,2022-01-14 11:41:00,78.0
587809,490620.0,numpy/numpy,2022-01-14 11:41:00,75.0
512157,493021.0,django/django,2022-01-14 11:41:00,78.0
709152,493045.0,scipy/scipy,2022-01-14 11:41:00,76.0
16102,493067.0,tensorflow/tensorflow,2022-01-14 11:41:00,80.0
305994,495545.0,jupyterhub/jupyterhub,2022-01-14 11:41:00,78.0
3191,495570.0,numba/numba,2022-01-14 11:41:00,75.0
3555,495592.0,tqdm/tqdm,2022-01-14 11:41:00,78.0
3504,1411293.0,sqlalchemy/sqlalchemy,2022-01-14 11:41:00,76.0
190179,1489158.0,composer/composer,2022-01-14 11:41:00,79.0
709461,2175294.0,scrapy/scrapy,2022-01-14 11:41:00,77.0
508457,2182930.0,pytorch/pytorch,2022-01-14 11:41:00,73.0
375988,3144166.0,angular/angular,2022-01-14 11:41:00,69.0
1171747,3569714.0,mojs/mojs,2022-01-14 11:41:00,71.0
2565864,4396061.0,streamlit/streamlit,2022-01-14 11:41:00,73.0
2907293,,,2022-01-14 11:41:00,29.0
