project_id,repository_id,project_name,aggregate_health_score
429671,1957,orgmanager/orgmanager,57.0
152902,2476,paultag/python-charlie,49.0
1024242,7038,Daniel15/prometheus-net.SystemMetrics,47.0
839598,7494,devlead/Devlead.Console.Template,50.0
1152361,10413,es-shims/obsolete-string-at,46.0
3242604,18049,alexanderadam/fitnesspark_api,53.0
1700459,18432,cistov/oy,44.0
876057,20589,blachniet/SurfStat,40.0
1587915,28137,mayank/lgr,45.0
1339429,28951,nolanlawson/async-rect,45.0
1339503,29953,stanleyxu2005/electron-utils,44.0
1320382,31945,bugsnag/gulp-bugsnag,48.0
2466457,32981,github/webpack-config-github,50.0
1262880,33253,alphagov/govuk-country-and-territory-autocomplete,58.0
1890437,35395,kimmobrunfeldt/concurrently,49.0
579484,35692,LukasReschke/ID3Parser,54.0
373087,36058,mzdr/micro,52.0
1659277,36660,steelbrain/mariasql-promise,53.0
420218,37011,digiaonline/lumen-oauth2,61.0
1372491,37570,redhat-developer/rsp-client,52.0
1050954,38094,TycheOrg/Tyche,50.0
2163275,43065,ashwamegh/vue-link-preview,54.0
89878,47929,petems/petems-hddtemp,51.0
2320921,49971,Trott/isTypedArray,56.0
1497614,1000211,mikegillis677/actions-on-lambda,51.0
435226,1000220,PatchRanger/cartesian-iterator,55.0
264366,1000559,freearhey/sparql,51.0
234344,1000602,ed-fruty/php-environment,51.0
536837,1000721,exfriend/skypium,49.0
495970,1001065,Shchepotin/laravel-api,53.0
164968,1001401,ByZer0/laravel-query-log,51.0
608149,1001444,twmbx/silhouette,54.0
211190,1001503,DearMadMan/laravel-image-tool,52.0
304698,1001640,JapSeyz/dot-migrations,56.0
522942,1002310,dgtal/booking-api,51.0
601306,1002576,tigron/skeleton-package-openapi,49.0
453297,1002701,primasio/primas-api-sdk-php,51.0
440804,1002810,philwinkle/Philwinkle_Fixerio,52.0
123973,1004041,avinsol/test-bundle,51.0
646890,1004114,mashware/ZenMail,51.0
651238,1004369,pepperreport/apdex,54.0
461548,1005861,horejsek/python-pytest-data,60.0
3124662,1005974,vongola12324/laravel-auth-management,57.0
144723,1006191,beyondcode/nova-laravel-update-card,54.0
454409,1006248,professorhaseeb/smartOutput,51.0
36763,1006748,adamdburton/nanoftpd,49.0
363134,1007990,mitchwilliamson/oauth2-youtube,51.0
3362532,1008779,monban/ucg,49.0
3106201,1009020,dev-and-web/daw-php-pagination,51.0
3119473,1009051,thujohn/packagist-l4,51.0
502406,1009173,cmizzi/laravel-command-alias,51.0
324660,1009283,mikemand/pagination,51.0
415460,1009324,ngmy/phpinfocmp,52.0
603779,1009332,TiDJ/laravel-custom-html,56.0
25790,1009492,absalomedia/kilns,52.0
651217,1009543,amirulahmad/laravel-imageupload-intervention,51.0
569006,1009550,austinkregel/formmodel,52.0
181950,1009789,chx2/EasyDocs,52.0
166137,1009811,bobbybouwmann/entry,54.0
181476,1009900,chrispecoraro/wikipedia-tools,51.0
78236,1009914,gabrielkoerich/service-manager,51.0
1053394,1010074,danrovito/StrRandom,52.0
604740,1010261,ToxaGeek/laravel-wg-api,49.0
3082188,1010355,jacob-hyde/Printify-PHP-SDK,55.0
292260,1010466,InteractionDesignFoundation/laravel-real-email-validation,57.0
515661,1011009,Darovi/Commander,52.0
597737,1011321,1f991/patreon-php,50.0
1236564,1012709,chemerisuk/cordova-plugin-firebase-config,52.0
3460762,1014444,sora0077/PredicateKit,51.0
981371,1015710,gibachan/XmlDict,51.0
3460801,1015837,brentleyjones/xcconfigs,51.0
1667423,1015978,ferranpujolcamins/mixxx-controller-script-sequencer,49.0
310450,1016763,jildertmiedema/windows-phone-push,51.0
965361,1017160,StardewConfigMenu/StardewConfigFramework,53.0
2284860,1017415,deshiknaves/cypress-msw-interceptor,56.0
2374112,1019087,Nexapp/react-native-scrollable-with-collapsible-header,51.0
2241560,1019163,echobind/launchbox,53.0
3079666,1019711,glendemon/phpexcel-wrapper,51.0
1589929,1019958,mondora/gemfury-publish,56.0
2162072,1022049,MatiseAms/create-matise-nuxt,51.0
3035594,1022562,ricardovezetiv/pythonpro-libpythonpro,56.0
3035599,1022568,FireHead90544/stack.py,56.0
3035580,1022575,valknight/loadstar,51.0
3035597,1022586,aboucaud/galcheat,51.0
254228,1025090,ferrl/framework,51.0
1386316,1026631,krutoo/packmar.js,48.0
435205,1026638,sima-land/yii2-logstock,55.0
2045167,1026695,ark120202/dota-data,52.0
3162104,1026779,dianas11xx/MoodipyTest,51.0
1781256,1026845,uktrade/trade-elements,52.0
448201,1028576,pjkui/kindeditor,56.0
309021,66,katzj/test-python-package,52.0
3231943,69,tidelift/dotyaml,53.0
3343932,207,tiegz/kadoku,51.0
641761,256,Kami/python-yubico-client,57.0
3432097,349,OpenSourceOrg/rust-opensource,52.0
2402317,362,todogroup/repolinter,63.0
1908628,484,ipfs-inactive/npm-go-ipfs-dep,55.0
3313031,798,malditogeek/redisrecord,51.0
3347016,816,maclover7/trix,54.0
2003853,1051,splashinn/nog,55.0
3287704,1290,djpowers/musicgraph,56.0
3337597,1386,kdaigle/strapper,52.0
3346842,1693,hendrixfan/triangle,49.0
1616458,1967,anthonyringoet/heap-server,53.0
1132305,1999,martinvd/prepend-file-cli,52.0
3210202,2178,sclinede/blood_contracts,51.0
1172106,3311,jamesgpearce/monomi,52.0
489179,3334,jparise/python-reloader,57.0
1451792,3364,jpeddicord/askalono,56.0
57195,3438,50Wliu/language-sourcepawn,60.0
326054,3879,Akasurde/Mahadiscom,55.0
642890,3932,AkihiroSuda/z42,51.0
3264927,4386,amatsuda/jb,51.0
1618702,4517,andrewda/hltv-livescore,56.0
112233,4710,andybons/ABVariants,55.0
23025,4853,ararslan/Jackknife.jl,56.0
379380,5339,astorije/chai-immutable,57.0
1659353,5374,axic/mango-admin,52.0
128909,5454,b3none/steam-id-converter,52.0
1929845,5554,BaseMax/FilterInputJs,56.0
1167037,5830,bbondy/abp-filter-parser,54.0
3092905,6056,pborreli/composer-service,50.0
1851096,6309,boopathi/react-svg-loader,51.0
3283583,6388,bogdanvlviv/minitest-mock_expectations,49.0
1336126,6579,cblecker/hyper-quit,52.0
1903889,6691,cezaraugusto/mklicense,62.0
1612035,6750,cheshire137/gulp-ruby-haml,60.0
1747008,6831,chicoxyzzy/rx-mobx,52.0
3319696,6855,colby-swandale/rubocop-github-annotations-formatter,48.0
3419403,6956,cyphar/initrs,55.0
1655896,7179,dasilvacontin/ludumpad,56.0
336450,7290,datapythonista/mnist,53.0
974817,7291,daveaglick/Scripty,50.0
1718790,7330,denar90/psi-ngrok,53.0
1781991,7558,devversion/travis-after-modes,51.0
1246133,7597,Dexus-Forks/cordova-plugin-ironSource,52.0
203665,7634,disposable-email-domains/python-disposable-email-domains,55.0
899840,7673,dlemstra/Magick.NET,53.0
500169,7901,endocrimes/Jay,51.0
1152038,8121,FagnerMartinsBrack/str-replace,57.0
183441,8139,feiskyer/python-cri,52.0
3358937,8147,Fivell/yatran,57.0
2460323,8241,webtorrent/fs-chunk-store,54.0
98340,8285,freak4pc/UIView-Positioning,54.0
1601884,8293,frewsxcv/graphosaurus,57.0
2291193,8392,GantMan/jail-monkey,49.0
169679,8511,GwendolenLynch/Carbon,60.0
1625391,8539,gyandeeps/hypernpm,51.0
1457596,8652,helfer/graphql-disable-introspection,55.0
703586,8872,icecrime/RateLimiting,51.0
379925,9210,jayphelps/core-decorators,53.0
261012,9303,jayvdb/flake8-putty,45.0
1308829,9366,jdalton/docdown,53.0
1588668,9694,jdorfman/g20,53.0
36073,9762,jglovier/fizzy,57.0
707534,9889,laf/russound,52.0
973219,9903,Krzysztof-Cieslak/RemoveObj,53.0
2149731,9945,lahmatiy/open-in-editor,52.0
84118,9996,lee-dohm/tabs-to-spaces,61.0
1826480,10470,lucasbento/react-native-thumbnail-video,55.0
1698890,10544,makoscafee/gulp-gae,52.0
1594463,10614,marcosmoura/generator-scaffold,57.0
605977,10630,Mariatta/tic_tac_taco_pizza,52.0
1936958,10831,matchai/ts-quick,55.0
302053,11037,bd808/python-iptools,57.0
3302551,11591,mmozuras/poper,56.0
1503782,11688,ncoden/angular-pseudo-class,51.0
856440,11786,nmilcoff/EasyTipView,52.0
215346,11800,olasitarska/django-gulp-rev,56.0
3242841,12480,pboling/flag_shih_tzu,58.0
1801841,12679,shockey/workfrom,54.0
1831974,13215,styfle/react-server-example-tsx,63.0
474511,13403,tapaswenipathak/pyQTopic,58.0
700310,13497,The-Compiler/pytest-vw,52.0
1512865,13789,app-bootstrap/autoresponsive_react_native_sample_android_ci,52.0
1432918,13982,yavorsky/bundle-utils,58.0
3225866,14192,despo/cyprus-street-names,55.0
1223497,14220,muan/emojilib,63.0
2416689,14781,cwaring/vuepress-plugin-ipfs,55.0
413595,14842,daviddias/webrtc-explorer,52.0
1849975,15142,hacdias/electron-menubar,54.0
1932115,15199,hugomrdias/prettier-stylelint,51.0
1726461,15577,travisperson/react-hexviewer,52.0
2492798,15708,vasco-santos/dns-over-http-resolver,57.0
3401077,15990,Aaron1011/cargo-urlcrate,52.0
292043,16274,cboddy/i3-workspace-names-daemon,56.0
1942401,16320,davidar/pandiff,51.0
3066631,16589,Luzifer/git-changerelease,53.0
498498,16703,marten-seemann/OXID_recaptcha,51.0
259399,17265,Seenivasanseeni/FirstPIP,51.0
2084078,17574,zebateira/react-use-system-theme,55.0
1259753,17598,yangwao/skCube-data-collector,50.0
105415,18148,apemsel/AttributedString,50.0
1172720,18258,atsuya/parallel-mocha,51.0
3220217,18292,braintreeps/cocoapods-archive,52.0
3294920,18957,vesan/omnifocus-trello,50.0
3271010,19112,agoddard/knife-ghost,50.0
3350600,19178,c10l/vagrant-butcher,50.0
3355551,19288,kisoku/whisk,51.0
712977,19455,mconigliaro/smtptester,56.0
3291227,19468,lusis/Noah,53.0
3270938,19542,mdxp/knife-backup,50.0
1668932,19656,adufilie/MobxPromise,51.0
140539,19753,agoodm/binconvert,50.0
67094,19834,akrabat/slim3-skeleton,50.0
3208714,1,librariesio/bibliothecary,67.0
414100,92,andrew/node-xbox-controller,60.0
3195534,402,splitrb/split,68.0
2043341,692,apache/echarts,72.0
3206499,1253,marcandre/backports,58.0
575805,1708,SocialiteProviders/Manager,61.0
485923,1910,Moya/Moya,70.0
3226246,1931,danger/danger,61.0
2065335,2128,rtfpessoa/diff2html,66.0
2416910,2686,RichardLitt/standard-readme,55.0
3231839,2971,bkeepers/dotenv,57.0
2218639,3618,ahmadawais/create-guten-block,67.0
1863628,3816,ai/nanoid,64.0
2634950,3911,containerd/nerdctl,61.0
67532,4013,alcaeus/mongo-php-adapter,48.0
67614,4030,alcohol/iso4217,54.0
542313,4468,amjith/fuzzyfinder,59.0
1144051,4723,appleboy/react-recaptcha,61.0
3461029,4980,ashfurrow/Nimble-Snapshots,61.0
1265411,5268,aweary/react-perimeter,55.0
1732153,5512,balloob/react-sidebar,58.0
123213,5862,berkerpeksag/astor,63.0
2297649,5873,bevacqua/dragula,68.0
2185514,6140,bnb/bitandbang,56.0
1395217,6202,blakeembrey/change-case,61.0
2684647,6490,caarlos0/env,62.0
383953,6612,ahmadnassri/node-har-validator,59.0
1582849,6843,clauderic/react-sortable-hoc,67.0
1152620,6862,cpojer/js-codemod,55.0
3213220,7316,deivid-rodriguez/byebug,56.0
660962,7369,DenisCarriere/geocoder,62.0
2580366,7428,denysdovhan/wtfjs,63.0
1972562,7429,spaceship-prompt/spaceship-prompt,72.0
623599,7628,di/vladiate,56.0
1410579,7675,diegohaz/constate,63.0
292028,7879,enkore/i3pystatus,62.0
1891901,8152,feross/simple-peer,62.0
3414116,8800,Hoverbear/getset,58.0
2149299,8894,iarna/iarna-toml,58.0
2091989,9371,jamiebuilds/react-loadable,59.0
331226,9957,lchrusciel/ApiTestCase,50.0
357767,10388,ljharb/qs,65.0
86165,10449,lk-geimfari/mimesis,66.0
387874,10762,MarshallOfSound/electron-devtools-installer,56.0
1721987,11272,mikeal/r2,57.0
2762448,11642,mvdan/sh,61.0
386296,11937,papandreou/node-cldr,57.0
356077,12151,paulmillr/chokidar,75.0
1230873,12202,PatrickJS/angular-starter,58.0
2255016,12556,sallar/stringz,56.0
3495048,12632,sferik/t,66.0
188261,12713,skywinder/GaugeKit,61.0
715733,12751,sivel/speedtest-cli,59.0
45258,12817,sobolevn/git-secret,65.0
1444709,12852,sokra/rawact,59.0
3292923,12874,st0012/object_tracer,50.0
180037,13250,sunshinejr/SwiftyUserDefaults,62.0
1996848,13315,swapagarwal/geeksay,65.0
45429,13572,tianon/gosu,57.0
612183,13661,timofurrer/try,56.0
2411689,13847,xtuc/webassemblyjs,62.0
2164579,14115,zpao/qrcode.react,51.0
3281089,14157,arthurnn/memcached,44.0
1461244,14563,alanshaw/markdown-pdf,53.0
3498064,15762,whyrusleeping/gx,50.0
464420,16399,koalalorenzo/python-digitalocean,45.0
2801475,16852,moul/assh,70.0
1680786,17386,victorb/ngProgress,55.0
378978,18159,astro/node-expat,49.0
2503858,18298,bcoe/c8,62.0
3209473,19043,zapnap/resque_mailer,53.0
3228175,19255,danielsdeleo/deep_merge,54.0
3254935,19588,rodjek/puppet-lint,51.0
285143,1411324,burnash/gspread,62.0
1167136,1411336,mathjax/MathJax,64.0
79769,1411399,huggingface/datasets,70.0
225276,1495934,doctrine/orm,74.0
271943,1506653,doctrine-extensions/DoctrineExtensions,64.0
278591,1508819,guzzle/guzzle,67.0
2048407,1513437,select2/select2,63.0
329180,1518244,laravel/framework,59.0
366744,1524252,Seldaek/monolog,69.0
369311,1524518,mpdf/mpdf,56.0
650530,1528859,orchestral/testbench,67.0
445348,1531859,phpstan/phpstan,65.0
472432,1539666,cakephp/phinx,71.0
560436,1544414,slimphp/Slim,71.0
3494505,1572425,wp-cli/wp-cli,67.0
2613797,1639746,andybalholm/brotli,51.0
