project_id,repository_id,project_name,repository_url,security_scan_score,score_last_calculated
429671,1957,orgmanager,https://github.com/orgmanager/orgmanager,5.8/10,12/30/2021-23:52:16
152902,2476,python-charlie,https://github.com/paultag/python-charlie,4.7/10,12/30/2021-23:52:20
1024242,7038,prometheus-net.SystemMetrics,https://github.com/Daniel15/prometheus-net.SystemMetrics,4.3/10,12/30/2021-23:52:25
839598,7494,Devlead.Console.Template,https://github.com/devlead/Devlead.Console.Template,4.1/10,12/30/2021-23:52:33
1152361,10413,obsolete-string-at,https://github.com/ljharb/string-at,4.5/10,12/30/2021-23:52:41
3242604,18049,fitnesspark_api,https://github.com/alexanderadam/fitnesspark_api,5.5/10,12/30/2021-23:53:06
1700459,18432,oy,https://github.com/cistov/oy,4.5/10,12/30/2021-23:53:11
876057,20589,SurfStat,https://github.com/blachniet/SurfStat,3.5/10,12/30/2021-23:53:26
1587915,28137,lgr,https://github.com/mayank/fwrite-logger,4.7/10,12/30/2021-23:53:43
1339429,28951,async-rect,https://github.com/nolanlawson/async-rect,4.7/10,12/30/2021-23:53:47
1339503,29953,electron-utils,https://github.com/stanleyxu2005/electron-lib,4.4/10,12/30/2021-23:53:52
1320382,31945,gulp-bugsnag,https://github.com/bugsnag/gulp-bugsnag,5.3/10,12/30/2021-23:53:58
2466457,32981,webpack-config-github,https://github.com/github/webpack-config-github,5.9/10,12/30/2021-23:54:15
1262880,33253,govuk-country-and-territory-autocomplete,https://github.com/alphagov/openregister-location-picker,6.5/10,12/30/2021-23:54:26
1890437,35395,concurrently,https://github.com/kimmobrunfeldt/concurrently,4.4/10,12/30/2021-23:54:31
579484,35692,ID3Parser,https://github.com/LukasReschke/ID3Parser,5.7/10,12/30/2021-23:54:36
373087,36058,micro,https://github.com/mzdr/micro,4.8/10,12/30/2021-23:54:40
1659277,36660,mariasql-promise,https://github.com/steelbrain/mariasql-promise,5.4/10,12/30/2021-23:54:44
420218,37011,lumen-oauth2,https://github.com/digiaonline/lumen-oauth2,4.9/10,12/30/2021-23:54:50
1372491,37570,rsp-client,https://github.com/sudhirverma/ssp-client,5.3/10,12/30/2021-23:55:06
1050954,38094,Tyche,https://github.com/TycheOrg/Tyche,4.7/10,12/30/2021-23:55:11
2163275,43065,vue-link-preview,https://github.com/ashwamegh/link-preview-vue,5.8/10,12/30/2021-23:55:16
89878,47929,petems-hddtemp,https://github.com/petems/petems-hddtemp,4.9/10,12/30/2021-23:55:35
2320921,49971,isTypedArray,https://github.com/Trott/isTypedArray,5.8/10,12/30/2021-23:55:47
1497614,1000211,actions-on-lambda,https://github.com/mikegillis677/actions-on-lambda,4.4/10,12/30/2021-23:56:01
435226,1000220,cartesian-iterator,https://github.com/PatchRanger/cartesian-iterator,5.5/10,12/30/2021-23:56:06
264366,1000559,sparql,https://github.com/freearhey/sparql,4.6/10,12/30/2021-23:56:32
234344,1000602,php-environment,https://github.com/ed-fruty/php-environment,4.4/10,12/30/2021-23:56:36
536837,1000721,skypium,https://github.com/exfriend/skypium,4.5/10,12/30/2021-23:56:46
495970,1001065,laravel-api,https://github.com/Shchepotin/laravel-api,4.9/10,12/30/2021-23:56:51
164968,1001401,laravel-query-log,https://github.com/ByZer0/laravel-query-log,4.4/10,12/30/2021-23:57:21
608149,1001444,silhouette,https://github.com/twmbx/silhouette,4.4/10,12/30/2021-23:57:25
211190,1001503,laravel-image-tool,https://github.com/DearMadMan/laravel-image-tool,4.7/10,12/30/2021-23:57:29
304698,1001640,dot-migrations,https://github.com/JapSeyz/dot-migrations,5.7/10,12/30/2021-23:57:36
522942,1002310,booking-api,https://github.com/dgtal/booking-api,4.4/10,12/30/2021-23:58:05
601306,1002576,skeleton-package-openapi,https://github.com/tigron/skeleton-package-openapi,4.4/10,12/30/2021-23:58:12
453297,1002701,primas-api-sdk-php,https://github.com/primasio/primas-api-sdk-php,4.4/10,12/30/2021-23:58:18
440804,1002810,Philwinkle_Fixerio,https://github.com/philwinkle/Philwinkle_Fixerio,4.7/10,12/30/2021-23:58:25
123973,1004041,test-bundle,https://github.com/avinsol/test-bundle,4.4/10,12/30/2021-23:58:45
646890,1004114,ZenMail,https://github.com/mashware/ZenMail,4.4/10,12/30/2021-23:58:58
651238,1004369,apdex,https://github.com/pepperreport/apdex,5.2/10,12/30/2021-23:59:12
461548,1005861,python-pytest-data,https://github.com/horejsek/python-pytest-data,5.5/10,12/30/2021-23:59:36
3124662,1005974,laravel-auth-management,https://github.com/vongola12324/laravel-auth-management,4.8/10,12/30/2021-23:59:40
144723,1006191,nova-laravel-update-card,https://github.com/beyondcode/nova-laravel-update-card,4.5/10,12/30/2021-23:59:49
454409,1006248,smartOutput,https://github.com/professorhaseeb/smartOutput,4.6/10,12/30/2021-23:59:53
36763,1006748,nanoftpd,https://github.com/adamdburton/nanoftpd,4.4/10,12/30/2021-23:59:57
363134,1007990,oauth2-youtube,https://github.com/mitchwilliamson/oauth2-youtube,4.4/10,12/31/2021-00:00:20
3362532,1008779,ucg,https://github.com/monban/ucg,4.6/10,12/31/2021-00:00:29
3106201,1009020,daw-php-pagination,https://github.com/dev-and-web/daw-php-pagination,4.5/10,12/31/2021-00:00:34
3119473,1009051,packagist-l4,https://github.com/thujohn/packagist-l4,4.4/10,12/31/2021-00:00:42
502406,1009173,laravel-command-alias,https://github.com/cmizzi/laravel-command-alias,4.5/10,12/31/2021-00:00:47
324660,1009283,pagination,https://github.com/mikemand/pagination,4.5/10,12/31/2021-00:00:52
415460,1009324,phpinfocmp,https://github.com/ngmy/phpinfocmp,4.7/10,12/31/2021-00:00:56
603779,1009332,laravel-custom-html,https://github.com/TiDJ/laravel-custom-html,4.6/10,12/31/2021-00:01:02
25790,1009492,kilns,https://github.com/absalomedia/kilns,4.7/10,12/31/2021-00:01:09
651217,1009543,laravel-imageupload-intervention,https://github.com/amirulahmad/laravel-imageupload-intervention,4.4/10,12/31/2021-00:01:13
569006,1009550,formmodel,https://github.com/austinkregel/formmodel,4.8/10,12/31/2021-00:01:19
181950,1009789,EasyDocs,https://github.com/chx2/EasyDocs,4.7/10,12/31/2021-00:01:37
166137,1009811,entry,https://github.com/blackbirddev/entry,5.3/10,12/31/2021-00:01:42
181476,1009900,wikipedia-tools,https://github.com/chrispecoraro/wikipedia-tools,4.5/10,12/31/2021-00:01:51
78236,1009914,service-manager,https://github.com/gabrielkoerich/service-manager,4.4/10,12/31/2021-00:02:01
1053394,1010074,StrRandom,https://github.com/danrovito/StrRandom,4.7/10,12/31/2021-00:02:27
604740,1010261,laravel-wg-api,https://github.com/ToxaGeek/laravel-wg-api,4.4/10,12/31/2021-00:02:43
3082188,1010355,Printify-PHP-SDK,https://github.com/jacob-hyde/Printify-PHP-SDK,5.4/10,12/31/2021-00:02:49
292260,1010466,laravel-real-email-validation,https://github.com/InteractionDesignFoundation/laravel-real-email-validation,5.2/10,12/31/2021-00:03:11
515661,1011009,Commander,https://github.com/Darovi/Commander,4.7/10,12/31/2021-00:03:17
597737,1011321,patreon-php,https://github.com/1f991/patreon-php,4.3/10,12/31/2021-00:03:26
1236564,1012709,cordova-plugin-firebase-config,https://github.com/chemerisuk/cordova-plugin-firebase-remoteconfig,4.7/10,12/31/2021-00:03:32
3460762,1014444,PredicateKit,https://github.com/sora0077/PredicateKit,4.4/10,12/31/2021-00:03:51
981371,1015710,XmlDict,https://github.com/gibachan/XmlDict,4.4/10,12/31/2021-00:04:10
3460801,1015837,xcconfigs,https://github.com/brentleyjones/xcconfigs,4.6/10,12/31/2021-00:04:14
1667423,1015978,mixxx-controller-script-sequencer,https://github.com/ferranpujolcamins/mixxx-controller-script-sequencer,4.4/10,12/31/2021-00:04:20
310450,1016763,windows-phone-push,https://github.com/jildertmiedema/windows-phone-push,4.4/10,12/31/2021-00:04:39
965361,1017160,StardewConfigFramework,https://github.com/StardewConfigMenu/StardewConfigFramework,3.8/10,12/31/2021-00:04:48
2284860,1017415,cypress-msw-interceptor,https://github.com/deshiknaves/cypress-msw-interceptor,5.7/10,12/31/2021-00:04:53
2374112,1019087,react-native-scrollable-with-collapsible-header,https://github.com/Nexapp/react-native-scrollable-with-collapsable-header,4.5/10,12/31/2021-00:05:29
2241560,1019163,launchbox,https://github.com/echobind/launchbox,5.1/10,12/31/2021-00:05:34
3079666,1019711,phpexcel-wrapper,https://github.com/glendemon/phpexcel-wrapper,4.4/10,12/31/2021-00:05:39
1589929,1019958,gemfury-publish,https://github.com/mondora/gemfury-publish,5.8/10,12/31/2021-00:05:47
2162072,1022049,create-matise-nuxt,https://github.com/matiseams/create-matise-nuxt,4.4/10,12/31/2021-00:06:13
3035594,1022562,pythonpro-libpythonpro,https://github.com/ricardovezetiv/libpythonpro,5.7/10,12/31/2021-00:06:26
3035599,1022568,stack.py,https://github.com/FireHead90544/stack,4.5/10,12/31/2021-00:06:30
3035580,1022575,loadstar,https://github.com/valknight/loadstar,4.4/10,12/31/2021-00:06:34
3035597,1022586,galcheat,https://github.com/aboucaud/galcheat,4.5/10,12/31/2021-00:06:52
254228,1025090,framework,https://github.com/ferrl/framework,4.5/10,12/31/2021-00:07:32
1386316,1026631,packmar.js,https://github.com/krutoo/packmar.js,3.8/10,12/31/2021-00:07:36
435205,1026638,yii2-logstock,https://github.com/pastuhov/yii2-logstock,5.6/10,12/31/2021-00:07:44
2045167,1026695,dota-data,https://github.com/ark120202/dota-data,3.5/10,12/31/2021-00:07:48
3162104,1026779,MoodipyTest,https://github.com/dianas11xx/MoodipyTest,4.4/10,12/31/2021-00:07:54
1781256,1026845,trade-elements,https://github.com/uktrade/trade-elements,4.7/10,12/31/2021-00:07:59
448201,1028576,kindeditor,https://github.com/pjkui/kindeditor,4.5/10,12/31/2021-00:08:19
309021,66,test-python-package,https://github.com/katzj/test-python-package,4.7/10,12/31/2021-00:08:29
3231943,69,dotyaml,https://github.com/dependencyci/dotyaml,5.1/10,12/31/2021-00:08:36
3343932,207,kadoku,https://github.com/tiegz/kadoku,4.5/10,12/31/2021-00:08:42
641761,256,python-yubico-client,https://github.com/Kami/python-yubico-client,4.8/10,12/31/2021-00:08:49
3432097,349,rust-opensource,https://github.com/OpenSourceOrg/rust-opensource,4.7/10,12/31/2021-00:08:54
2402317,362,repolinter,https://github.com/todogroup/repolinter,5.4/10,12/31/2021-00:09:26
1908628,484,npm-go-ipfs-dep,https://github.com/ipfs/npm-go-ipfs-dep,4.2/10,12/31/2021-00:09:36
3313031,798,redisrecord,https://github.com/malditogeek/redisrecord,4.6/10,12/31/2021-00:10:03
3347016,816,trix,https://github.com/maclover7/trix,5.2/10,12/31/2021-00:10:09
2003853,1051,nog,https://github.com/splashinn/nog,5.6/10,12/31/2021-00:10:28
3287704,1290,musicgraph,https://github.com/djpowers/musicgraph,4.6/10,12/31/2021-00:10:39
3337597,1386,strapper,https://github.com/kdaigle/strapper,4.7/10,12/31/2021-00:10:44
3346842,1693,triangle,https://github.com/hendrixfan/triangle,4.1/10,12/31/2021-00:10:51
1616458,1967,heap-server,https://github.com/anthonyringoet/heap-server,4.9/10,12/31/2021-00:10:59
1132305,1999,prepend-file-cli,https://github.com/martinvd/prepend-file-cli,4.7/10,12/31/2021-00:11:04
3210202,2178,blood_contracts,https://github.com/sclinede/blood_contracts,4.6/10,12/31/2021-00:11:19
1172106,3311,monomi,https://github.com/jamesgpearce/monomi,4.7/10,12/31/2021-00:11:38
489179,3334,python-reloader,https://github.com/jparise/python-reloader,4.8/10,12/31/2021-00:11:44
1451792,3364,askalono,https://github.com/amzn/askalono,4.9/10,12/31/2021-00:11:57
57195,3438,language-sourcepawn,https://github.com/50Wliu/language-sourcepawn,5.4/10,12/31/2021-00:12:08
326054,3879,Mahadiscom,https://github.com/Akasurde/Mahadiscom,5.4/10,12/31/2021-00:12:22
642890,3932,z42,https://github.com/AkihiroSuda/z42,4.4/10,12/31/2021-00:12:31
3264927,4386,jb,https://github.com/amatsuda/jb,4.5/10,12/31/2021-00:12:44
1618702,4517,hltv-livescore,https://github.com/andrewda/hltv-livescore,5.6/10,12/31/2021-00:12:51
112233,4710,ABVariants,https://github.com/andybons/ABVariants,5.4/10,12/31/2021-00:13:02
23025,4853,Jackknife.jl,https://github.com/ararslan/Jackknife.jl,5.7/10,12/31/2021-00:13:08
379380,5339,chai-immutable,https://github.com/astorije/chai-immutable,6.0/10,12/31/2021-00:13:19
1659353,5374,mango-admin,https://github.com/axic/mango-admin,4.7/10,12/31/2021-00:13:24
128909,5454,steam-id-converter,https://github.com/b3none/steam-id-converter,4.8/10,12/31/2021-00:13:29
1929845,5554,FilterInputJs,https://github.com/BaseMax/FilterInputJs,5.7/10,12/31/2021-00:13:34
1167037,5830,abp-filter-parser,https://github.com/bbondy/abp-filter-parser,5.2/10,12/31/2021-00:13:41
3092905,6056,composer-service,https://github.com/pborreli/composer-service,4.3/10,12/31/2021-00:13:48
1851096,6309,react-svg-loader,https://github.com/boopathi/react-svg-loader,4.3/10,12/31/2021-00:14:06
3283583,6388,minitest-mock_expectations,https://github.com/bogdanvlviv/minitest-mock_expectations,3.9/10,12/31/2021-00:14:13
1336126,6579,hyper-quit,https://github.com/cblecker/hyper-quit,4.7/10,12/31/2021-00:14:30
1903889,6691,mklicense,https://github.com/cezaraugusto/mklicense,5.9/10,12/31/2021-00:14:37
1612035,6750,gulp-ruby-haml,https://github.com/moneypenny/gulp-ruby-haml,4.8/10,12/31/2021-00:14:43
1747008,6831,rx-mobx,https://github.com/chicoxyzzy/rx-mobservable,4.7/10,12/31/2021-00:14:49
3319696,6855,rubocop-github-annotations-formatter,https://github.com/colby-swandale/rubocop-github-annotations-formatter,3.8/10,12/31/2021-00:14:55
3419403,6956,initrs,https://github.com/cyphar/initrs,5.6/10,12/31/2021-00:15:10
1655896,7179,ludumpad,https://github.com/dasilvacontin/ludumpad,4.6/10,12/31/2021-00:15:16
336450,7290,mnist,https://github.com/datapythonista/mnist,5.1/10,12/31/2021-00:15:23
974817,7291,Scripty,https://github.com/daveaglick/Scripty,4.1/10,12/31/2021-00:15:31
1718790,7330,psi-ngrok,https://github.com/denar90/psi-ngrok,4.9/10,12/31/2021-00:15:39
1781991,7558,travis-after-modes,https://github.com/DevVersion/travis-after-modes,4.6/10,12/31/2021-00:15:44
1246133,7597,cordova-plugin-ironSource,https://github.com/Dexus/cordova-plugin-ironSource,4.7/10,12/31/2021-00:16:04
203665,7634,python-disposable-email-domains,https://github.com/di/disposable-email-domains,3.6/10,12/31/2021-00:16:13
899840,7673,Magick.NET,https://github.com/dlemstra/Magick.NET,4.1/10,12/31/2021-00:16:25
500169,7901,Jay,https://github.com/czechboy0/Jay,4.5/10,12/31/2021-00:16:38
1152038,8121,str-replace,https://github.com/FagnerMartinsBrack/str-replace,4.7/10,12/31/2021-00:16:50
183441,8139,python-cri,https://github.com/feiskyer/python-cri,4.7/10,12/31/2021-00:16:55
3358937,8147,yatran,https://github.com/Fivell/yatran,4.7/10,12/31/2021-00:17:01
2460323,8241,fs-chunk-store,https://github.com/feross/fs-chunk-store,5.3/10,12/31/2021-00:17:08
98340,8285,UIView-Positioning,https://github.com/freak4pc/UIView-Positioning,5.2/10,12/31/2021-00:17:13
1601884,8293,graphosaurus,https://github.com/frewsxcv/graphosaurus,4.8/10,12/31/2021-00:17:20
2291193,8392,jail-monkey,https://github.com/GantMan/jail-monkey,4.4/10,12/31/2021-00:17:31
169679,8511,Carbon,https://github.com/CarbonDate/Carbon,4.7/10,12/31/2021-00:17:46
1625391,8539,hypernpm,https://github.com/gyandeeps/hypernpm,4.5/10,12/31/2021-00:17:53
1457596,8652,graphql-disable-introspection,https://github.com/helfer/graphql-disable-introspection,5.6/10,12/31/2021-00:17:59
703586,8872,RateLimiting,https://github.com/icecrime/RateLimiting,4.6/10,12/31/2021-00:18:04
379925,9210,core-decorators,https://github.com/jayphelps/core-decorators.js,4.6/10,12/31/2021-00:18:20
261012,9303,flake8-putty,https://github.com/jayvdb/flake8-putty,3.0/10,12/31/2021-00:18:29
1308829,9366,docdown,https://github.com/jdalton/docdown,4.9/10,12/31/2021-00:18:37
1588668,9694,g20,https://github.com/jdorfman/g20,5.0/10,12/31/2021-00:18:42
36073,9762,fizzy,https://github.com/jglovier/fizzy,4.7/10,12/31/2021-00:18:48
707534,9889,russound,https://github.com/laf/russound,4.8/10,12/31/2021-00:19:09
973219,9903,RemoveObj,https://github.com/Krzysztof-Cieslak/RemoveObj,4.3/10,12/31/2021-00:19:14
2149731,9945,open-in-editor,https://github.com/lahmatiy/open-in-editor,4.8/10,12/31/2021-00:19:23
84118,9996,tabs-to-spaces,https://github.com/lee-dohm/tabs-to-spaces,4.9/10,12/31/2021-00:19:28
1826480,10470,react-native-thumbnail-video,https://github.com/lucasbento/react-native-thumbnail-video,5.5/10,12/31/2021-00:19:45
1698890,10544,gulp-gae,https://github.com/MAKOSCAFEE/Oppia-gulp-optimizer,4.7/10,12/31/2021-00:19:57
1594463,10614,generator-scaffold,https://github.com/marcosmoura/generator-scaffold,4.8/10,12/31/2021-00:20:04
605977,10630,tic_tac_taco_pizza,https://github.com/Mariatta/tic_tac_taco_pizza,4.7/10,12/31/2021-00:20:11
1936958,10831,ts-quick,https://github.com/matchai/ts-quick,5.5/10,12/31/2021-00:20:23
302053,11037,python-iptools,https://github.com/bd808/python-iptools,4.7/10,12/31/2021-00:20:29
3302551,11591,poper,https://github.com/mmozuras/poper,5.8/10,12/31/2021-00:20:43
1503782,11688,angular-pseudo-class,https://github.com/ncoden/angular-pseudo-class,4.6/10,12/31/2021-00:21:02
856440,11786,EasyTipView,https://github.com/nmilcoff/EasyTipView,4.7/10,12/31/2021-00:21:18
215346,11800,django-gulp-rev,https://github.com/olasitarska/django-gulp-rev,5.7/10,12/31/2021-00:21:31
3242841,12480,flag_shih_tzu,https://github.com/pboling/flag_shih_tzu,4.8/10,12/31/2021-00:22:00
1801841,12679,workfrom,https://github.com/kyleshockey/workfrom,4.1/10,12/31/2021-00:22:22
1831974,13215,react-server-example-tsx,https://github.com/styfle/react-server-example-tsx,6.2/10,12/31/2021-00:22:49
474511,13403,pyQTopic,https://github.com/tapasweni-pathak/pyQTopic,5.1/10,12/31/2021-00:22:59
700310,13497,pytest-vw,https://github.com/The-Compiler/pytest-vw,4.7/10,12/31/2021-00:23:05
1512865,13789,autoresponsive_react_native_sample_android_ci,https://github.com/xudafeng/autoresponsive_react_native_sample_android_ci,4.7/10,12/31/2021-00:23:27
1432918,13982,bundle-utils,https://github.com/yavorsky/bundle-utils,6.2/10,12/31/2021-00:23:32
3225866,14192,cyprus-street-names,https://github.com/despo/cyprus-street-names,5.6/10,12/31/2021-00:23:38
1223497,14220,emojilib,https://github.com/muan/emojilib,5.1/10,12/31/2021-00:23:52
2416689,14781,vuepress-plugin-ipfs,https://github.com/cwaring/vuepress-plugin-ipfs,5.6/10,12/31/2021-00:23:57
413595,14842,webrtc-explorer,https://github.com/diasdavid/webrtc-explorer,4.7/10,12/31/2021-00:24:03
1849975,15142,electron-menubar,https://github.com/hacdias/electron-menubar,5.3/10,12/31/2021-00:24:30
1932115,15199,prettier-stylelint,https://github.com/hugomrdias/prettier-stylelint,4.4/10,12/31/2021-00:24:36
1726461,15577,react-hexviewer,https://github.com/travisperson/react-hexviewer,4.7/10,12/31/2021-00:24:49
2492798,15708,dns-over-http-resolver,https://github.com/vasco-santos/dns-over-http-resolver,6.0/10,12/31/2021-00:25:07
3401077,15990,cargo-urlcrate,https://github.com/Aaron1011/cargo-urlcrate,4.8/10,12/31/2021-00:25:11
292043,16274,i3-workspace-names-daemon,https://github.com/cboddy/i3-workspace-names-daemon,5.7/10,12/31/2021-00:25:38
1942401,16320,pandiff,https://github.com/davidar/pandiff,4.4/10,12/31/2021-00:25:44
3066631,16589,git-changerelease,https://github.com/Luzifer/git-changerelease,5.0/10,12/31/2021-00:25:54
498498,16703,OXID_recaptcha,https://github.com/marten-seemann/OXID_recaptcha,4.6/10,12/31/2021-00:25:58
259399,17265,FirstPIP,https://github.com/Seenivasanseeni/FirstPIP,4.4/10,12/31/2021-00:26:15
2084078,17574,react-use-system-theme,https://github.com/zebateira/react-use-system-theme,5.4/10,12/31/2021-00:26:31
1259753,17598,skCube-data-collector,https://github.com/yangwao/skCube_data_collector,4.2/10,12/31/2021-00:26:38
105415,18148,AttributedString,https://github.com/apemsel/AttributedString,4.7/10,12/31/2021-00:26:55
1172720,18258,parallel-mocha,https://github.com/atsuya/parallel-mocha,4.5/10,12/31/2021-00:27:00
3220217,18292,cocoapods-archive,https://github.com/braintreeps/cocoapods-archive,4.7/10,12/31/2021-00:27:05
3294920,18957,omnifocus-trello,https://github.com/vesan/omnifocus-trello,4.7/10,12/31/2021-00:27:26
3271010,19112,knife-ghost,https://github.com/agoddard/knife-ghost,4.7/10,12/31/2021-00:27:34
3350600,19178,vagrant-butcher,https://github.com/cassianoleal/vagrant-butcher,4.8/10,12/31/2021-00:27:45
3355551,19288,whisk,https://github.com/kisoku/whisk,4.5/10,12/31/2021-00:27:50
712977,19455,smtptester,https://github.com/mconigliaro/smtptester,5.8/10,12/31/2021-00:28:13
3291227,19468,Noah,https://github.com/lusis/Noah,3.7/10,12/31/2021-00:28:19
3270938,19542,knife-backup,https://github.com/mdxp/knife-backup,4.7/10,12/31/2021-00:28:26
1668932,19656,MobxPromise,https://github.com/adufilie/MobxPromise,4.6/10,12/31/2021-00:28:31
140539,19753,binconvert,https://github.com/agoodm/binconvert,4.7/10,12/31/2021-00:28:37
67094,19834,slim3-skeleton,https://github.com/akrabat/slim3-skeleton,4.8/10,12/31/2021-00:28:48
3208714,1,bibliothecary,https://github.com/librariesio/bibliothecary,6.5/10,12/31/2021-00:29:00
414100,92,node-xbox-controller,https://github.com/andrew/node-xbox-controller,4.7/10,12/31/2021-00:29:08
3195534,402,split,https://github.com/splitrb/split,6.1/10,12/31/2021-00:29:19
2043341,692,echarts,https://github.com/apache/incubator-echarts,6.2/10,12/31/2021-00:30:07
3206499,1253,backports,https://github.com/marcandre/backports,6.0/10,12/31/2021-00:30:19
575805,1708,Manager,https://github.com/SocialiteProviders/Manager,5.6/10,12/31/2021-00:30:35
485923,1910,Moya,https://github.com/Moya/Moya,5.8/10,12/31/2021-00:30:46
3226246,1931,danger,https://github.com/danger/danger,4.8/10,12/31/2021-00:31:04
2065335,2128,diff2html,https://github.com/rtfpessoa/diff2html,6.1/10,12/31/2021-00:31:42
2416910,2686,standard-readme,https://github.com/RichardLitt/standard-readme,5.5/10,12/31/2021-00:31:54
3231839,2971,dotenv,https://github.com/bkeepers/dotenv,5.3/10,12/31/2021-00:32:07
2218639,3618,create-guten-block,https://github.com/ahmadawais/create-guten-block,6.3/10,12/31/2021-00:32:19
1863628,3816,nanoid,https://github.com/ai/nanoid,5.4/10,12/31/2021-00:32:36
2634950,3911,nerdctl,https://github.com/containerd/nerdctl,6.8/10,12/31/2021-00:33:05
67532,4013,mongo-php-adapter,https://github.com/alcaeus/mongo-php-adapter,3.7/10,12/31/2021-00:33:21
67614,4030,iso4217,https://github.com/alcohol/iso4217,5.2/10,12/31/2021-00:33:28
542313,4468,fuzzyfinder,https://github.com/amjith/fuzzyfinder,5.6/10,12/31/2021-00:33:56
1144051,4723,react-recaptcha,https://github.com/appleboy/react-recaptcha,5.7/10,12/31/2021-00:34:11
3461029,4980,Nimble-Snapshots,https://github.com/ashfurrow/Nimble-Snapshots,5.5/10,12/31/2021-00:34:32
1265411,5268,react-perimeter,https://github.com/aweary/react-perimeter,5.3/10,12/31/2021-00:34:48
1732153,5512,react-sidebar,https://github.com/balloob/react-sidebar,4.9/10,12/31/2021-00:34:58
123213,5862,astor,https://github.com/berkerpeksag/astor,6.1/10,12/31/2021-00:35:11
2297649,5873,dragula,https://github.com/bevacqua/dragula,5.5/10,12/31/2021-00:35:23
2185514,6140,bitandbang,https://github.com/bnb/bitandbang,5.8/10,12/31/2021-00:35:29
1395217,6202,change-case,https://github.com/blakeembrey/change-case,6.8/10,12/31/2021-00:35:37
2684647,6490,env,https://github.com/caarlos0/env,5.6/10,12/31/2021-00:36:04
383953,6612,node-har-validator,https://github.com/ahmadnassri/node-har-validator,5.2/10,12/31/2021-00:36:19
1582849,6843,react-sortable-hoc,https://github.com/clauderic/react-sortable-hoc,6.6/10,12/31/2021-00:36:32
1152620,6862,js-codemod,https://github.com/cpojer/js-codemod,5.3/10,12/31/2021-00:36:43
3213220,7316,byebug,https://github.com/deivid-rodriguez/byebug,4.5/10,12/31/2021-00:37:16
660962,7369,geocoder,https://github.com/DenisCarriere/geocoder,5.6/10,12/31/2021-00:37:28
2580366,7428,wtfjs,https://github.com/denysdovhan/wtfjs,4.5/10,12/31/2021-00:37:39
1972562,7429,spaceship-prompt,https://github.com/denysdovhan/spaceship-prompt,6.1/10,12/31/2021-00:38:07
623599,7628,vladiate,https://github.com/di/vladiate,3.1/10,12/31/2021-00:38:19
1410579,7675,constate,https://github.com/diegohaz/constate,5.6/10,12/31/2021-00:38:30
292028,7879,i3pystatus,https://github.com/enkore/i3pystatus,5.0/10,12/31/2021-01:17:35
1891901,8152,simple-peer,https://github.com/feross/simple-peer,6.1/10,12/31/2021-01:17:48
3414116,8800,getset,https://github.com/Hoverbear/getset,4.5/10,12/31/2021-01:18:19
2149299,8894,iarna-toml,https://github.com/iarna/iarna-toml,5.0/10,12/31/2021-01:18:27
2091989,9371,react-loadable,https://github.com/thejameskyle/react-loadable,4.8/10,12/31/2021-01:18:56
331226,9957,ApiTestCase,https://github.com/lchrusciel/ApiTestCase,3.7/10,12/31/2021-01:19:10
357767,10388,qs,https://github.com/ljharb/qs,5.4/10,12/31/2021-01:19:40
86165,10449,mimesis,https://github.com/lk-geimfari/mimesis,5.1/10,12/31/2021-01:20:14
387874,10762,electron-devtools-installer,https://github.com/MarshallOfSound/electron-devtools-installer,5.2/10,12/31/2021-01:20:24
1721987,11272,r2,https://github.com/mikeal/r2,5.1/10,12/31/2021-01:21:08
2762448,11642,sh,https://github.com/mvdan/sh,4.8/10,12/31/2021-01:21:34
386296,11937,node-cldr,https://github.com/papandreou/node-cldr,5.5/10,12/31/2021-01:21:50
356077,12151,chokidar,https://github.com/paulmillr/chokidar,6.5/10,12/31/2021-01:22:15
1230873,12202,angular-starter,https://github.com/AngularClass/angular-starter,3.9/10,12/31/2021-01:22:27
2255016,12556,stringz,https://github.com/sallar/stringz,5.3/10,12/31/2021-01:22:33
3495048,12632,t,https://github.com/sferik/t,5.2/10,12/31/2021-01:22:44
188261,12713,GaugeKit,https://github.com/skywinder/GaugeKit,5.0/10,12/31/2021-01:22:51
715733,12751,speedtest-cli,https://github.com/sivel/speedtest-cli,4.7/10,12/31/2021-01:22:59
45258,12817,git-secret,https://github.com/sobolevn/git-secret,5.1/10,12/31/2021-01:23:16
1444709,12852,rawact,https://github.com/sokra/rawact,5.8/10,12/31/2021-01:23:22
3292923,12874,object_tracer,https://github.com/st0012/object_tracer,3.6/10,12/31/2021-01:23:44
180037,13250,SwiftyUserDefaults,https://github.com/radex/SwiftyUserDefaults,5.0/10,12/31/2021-01:23:54
1996848,13315,geeksay,https://github.com/swapagarwal/geeksay,5.3/10,12/31/2021-01:24:06
45429,13572,gosu,https://github.com/tianon/gosu,5.1/10,12/31/2021-01:24:13
612183,13661,try,https://github.com/timofurrer/try,5.1/10,12/31/2021-01:24:48
2411689,13847,webassemblyjs,https://github.com/xtuc/webassemblyjs,7.4/10,12/31/2021-01:25:11
2164579,14115,qrcode.react,https://github.com/zpao/qrcode.react,5.3/10,12/31/2021-01:25:18
3281089,14157,memcached,https://github.com/evan/memcached,4.7/10,12/31/2021-01:25:32
1461244,14563,markdown-pdf,https://github.com/alanshaw/markdown-pdf,5.1/10,12/31/2021-01:25:46
3498064,15762,gx,https://github.com/whyrusleeping/gx,5.6/10,12/31/2021-01:26:12
464420,16399,python-digitalocean,https://github.com/koalalorenzo/python-digitalocean,4.2/10,12/31/2021-01:26:24
2801475,16852,assh,https://github.com/moul/assh,6.5/10,12/31/2021-01:26:55
1680786,17386,ngProgress,https://github.com/VictorBjelkholm/ngProgress,4.8/10,12/31/2021-01:27:06
378978,18159,node-expat,https://github.com/astro/node-expat,4.5/10,12/31/2021-01:27:18
2503858,18298,c8,https://github.com/bcoe/c8,6.3/10,12/31/2021-01:27:40
3209473,19043,resque_mailer,https://github.com/zapnap/resque_mailer,4.9/10,12/31/2021-01:27:51
3228175,19255,deep_merge,https://github.com/danielsdeleo/deep_merge,5.2/10,12/31/2021-01:27:58
3254935,19588,puppet-lint,https://github.com/rodjek/puppet-lint,4.2/10,12/31/2021-01:28:11
285143,1411324,gspread,https://github.com/burnash/gspread,4.5/10,12/31/2021-01:28:26
1167136,1411336,MathJax,https://github.com/mathjax/MathJax,5.3/10,12/31/2021-01:28:40
79769,1411399,datasets,https://github.com/huggingface/datasets,5.3/10,12/31/2021-01:29:09
225276,1495934,orm,https://github.com/doctrine/orm,6.6/10,12/31/2021-01:29:44
271943,1506653,DoctrineExtensions,https://github.com/doctrine-extensions/DoctrineExtensions,6.7/10,12/31/2021-01:30:28
278591,1508819,guzzle,https://github.com/guzzle/guzzle,6.4/10,12/31/2021-01:30:42
2048407,1513437,select2,https://github.com/select2/select2,4.5/10,12/31/2021-01:30:58
329180,1518244,framework,https://github.com/laravel/framework,5.2/10,12/31/2021-01:31:29
366744,1524252,monolog,https://github.com/Seldaek/monolog,5.9/10,12/31/2021-01:31:40
369311,1524518,mpdf,https://github.com/mpdf/mpdf,3.6/10,12/31/2021-01:31:59
650530,1528859,testbench,https://github.com/orchestral/testbench,6.2/10,12/31/2021-01:32:13
445348,1531859,phpstan,https://github.com/phpstan/phpstan,6.6/10,12/31/2021-01:32:28
472432,1539666,phinx,https://github.com/cakephp/phinx,6.1/10,12/31/2021-01:33:32
560436,1544414,Slim,https://github.com/slimphp/Slim,5.8/10,12/31/2021-01:33:57
3494505,1572425,wp-cli,https://github.com/wp-cli/wp-cli,7.0/10,12/31/2021-02:17:37
2613797,1639746,brotli,https://github.com/andybalholm/brotli,4.9/10,12/31/2021-02:17:57
